%!PS-Adobe-2.0 EPSF-1.2
%%Creator: MATLAB, The MathWorks, Inc. Version 8.1.0.604 (R2013a). Operating System: Linux 3.14.27-100.fc19.x86_64 #1 SMP Wed Dec 17 19:36:34 UTC 2014 x86_64.
%%Title: ./a280_n837_bounded-strongly-corr_01.eps
%%CreationDate: 11/11/2016  18:32:43
%%DocumentNeededFonts: Helvetica
%%DocumentProcessColors: Cyan Magenta Yellow Black
%%Pages: 1
%%BoundingBox:    46   199   559   602
%%EndComments

%%BeginProlog
% MathWorks dictionary
/MathWorks 160 dict begin
% definition operators
/bdef {bind def} bind def
/ldef {load def} bind def
/xdef {exch def} bdef
/xstore {exch store} bdef
% operator abbreviations
/c  /clip ldef
/cc /concat ldef
/cp /closepath ldef
/gr /grestore ldef
/gs /gsave ldef
/mt /moveto ldef
/np /newpath ldef
/cm /currentmatrix ldef
/sm /setmatrix ldef
/rm /rmoveto ldef
/rl /rlineto ldef
/s {show newpath} bdef
/sc {setcmykcolor} bdef
/sr /setrgbcolor ldef
/sg /setgray ldef
/w /setlinewidth ldef
/j /setlinejoin ldef
/cap /setlinecap ldef
/rc {rectclip} bdef
/rf {rectfill} bdef
% page state control
/pgsv () def
/bpage {/pgsv save def} bdef
/epage {pgsv restore} bdef
/bplot /gsave ldef
/eplot {stroke grestore} bdef
% orientation switch
/portraitMode 0 def /landscapeMode 1 def /rotateMode 2 def
% coordinate system mappings
/dpi2point 0 def
% font control
/FontSize 0 def
/FMS {/FontSize xstore findfont [FontSize 0 0 FontSize neg 0 0]
  makefont setfont} bdef
/reencode {exch dup where {pop load} {pop StandardEncoding} ifelse
  exch dup 3 1 roll findfont dup length dict begin
  { 1 index /FID ne {def}{pop pop} ifelse } forall
  /Encoding exch def currentdict end definefont pop} bdef
/isroman {findfont /CharStrings get /Agrave known} bdef
/FMSR {3 1 roll 1 index dup isroman {reencode} {pop pop} ifelse
  exch FMS} bdef
/csm {1 dpi2point div -1 dpi2point div scale neg translate
 dup landscapeMode eq {pop -90 rotate}
  {rotateMode eq {90 rotate} if} ifelse} bdef
% line types: solid, dotted, dashed, dotdash
/SO { [] 0 setdash } bdef
/DO { [.5 dpi2point mul 4 dpi2point mul] 0 setdash } bdef
/DA { [6 dpi2point mul] 0 setdash } bdef
/DD { [.5 dpi2point mul 4 dpi2point mul 6 dpi2point mul 4
  dpi2point mul] 0 setdash } bdef
% macros for lines and objects
/L {lineto stroke} bdef
/MP {3 1 roll moveto 1 sub {rlineto} repeat} bdef
/AP {{rlineto} repeat} bdef
/PDlw -1 def
/W {/PDlw currentlinewidth def setlinewidth} def
/PP {closepath eofill} bdef
/DP {closepath stroke} bdef
/MR {4 -2 roll moveto dup  0 exch rlineto exch 0 rlineto
  neg 0 exch rlineto closepath} bdef
/FR {MR stroke} bdef
/PR {MR fill} bdef
/L1i {{currentfile picstr readhexstring pop} image} bdef
/tMatrix matrix def
/MakeOval {newpath tMatrix currentmatrix pop translate scale
0 0 1 0 360 arc tMatrix setmatrix} bdef
/FO {MakeOval stroke} bdef
/PO {MakeOval fill} bdef
/PD {currentlinewidth 2 div 0 360 arc fill
   PDlw -1 eq not {PDlw w /PDlw -1 def} if} def
/FA {newpath tMatrix currentmatrix pop translate scale
  0 0 1 5 -2 roll arc tMatrix setmatrix stroke} bdef
/PA {newpath tMatrix currentmatrix pop	translate 0 0 moveto scale
  0 0 1 5 -2 roll arc closepath tMatrix setmatrix fill} bdef
/FAn {newpath tMatrix currentmatrix pop translate scale
  0 0 1 5 -2 roll arcn tMatrix setmatrix stroke} bdef
/PAn {newpath tMatrix currentmatrix pop translate 0 0 moveto scale
  0 0 1 5 -2 roll arcn closepath tMatrix setmatrix fill} bdef
/vradius 0 def /hradius 0 def /lry 0 def
/lrx 0 def /uly 0 def /ulx 0 def /rad 0 def
/MRR {/vradius xdef /hradius xdef /lry xdef /lrx xdef /uly xdef
  /ulx xdef newpath tMatrix currentmatrix pop ulx hradius add uly
  vradius add translate hradius vradius scale 0 0 1 180 270 arc 
  tMatrix setmatrix lrx hradius sub uly vradius add translate
  hradius vradius scale 0 0 1 270 360 arc tMatrix setmatrix
  lrx hradius sub lry vradius sub translate hradius vradius scale
  0 0 1 0 90 arc tMatrix setmatrix ulx hradius add lry vradius sub
  translate hradius vradius scale 0 0 1 90 180 arc tMatrix setmatrix
  closepath} bdef
/FRR {MRR stroke } bdef
/PRR {MRR fill } bdef
/MlrRR {/lry xdef /lrx xdef /uly xdef /ulx xdef /rad lry uly sub 2 div def
  newpath tMatrix currentmatrix pop ulx rad add uly rad add translate
  rad rad scale 0 0 1 90 270 arc tMatrix setmatrix lrx rad sub lry rad
  sub translate rad rad scale 0 0 1 270 90 arc tMatrix setmatrix
  closepath} bdef
/FlrRR {MlrRR stroke } bdef
/PlrRR {MlrRR fill } bdef
/MtbRR {/lry xdef /lrx xdef /uly xdef /ulx xdef /rad lrx ulx sub 2 div def
  newpath tMatrix currentmatrix pop ulx rad add uly rad add translate
  rad rad scale 0 0 1 180 360 arc tMatrix setmatrix lrx rad sub lry rad
  sub translate rad rad scale 0 0 1 0 180 arc tMatrix setmatrix
  closepath} bdef
/FtbRR {MtbRR stroke } bdef
/PtbRR {MtbRR fill } bdef
/stri 6 array def /dtri 6 array def
/smat 6 array def /dmat 6 array def
/tmat1 6 array def /tmat2 6 array def /dif 3 array def
/asub {/ind2 exch def /ind1 exch def dup dup
  ind1 get exch ind2 get sub exch } bdef
/tri_to_matrix {
  2 0 asub 3 1 asub 4 0 asub 5 1 asub
  dup 0 get exch 1 get 7 -1 roll astore } bdef
/compute_transform {
  dmat dtri tri_to_matrix tmat1 invertmatrix 
  smat stri tri_to_matrix tmat2 concatmatrix } bdef
/ds {stri astore pop} bdef
/dt {dtri astore pop} bdef
/db {2 copy /cols xdef /rows xdef mul dup string
  currentfile exch readhexstring pop
  /bmap xdef pop pop} bdef
/it {gs np dtri aload pop moveto lineto lineto cp c
  cols rows 8 compute_transform 
  {bmap} image gr}bdef
/il {newpath moveto lineto stroke}bdef
currentdict end def
%%EndProlog

%%BeginSetup
MathWorks begin

0 cap

end
%%EndSetup

%%Page: 1 1
%%BeginPageSetup
%%PageBoundingBox:    46   199   559   602
MathWorks begin
bpage
%%EndPageSetup

%%BeginObject: obj1
bplot

/dpi2point 12 def
portraitMode 0216 7344 csm

  343   110  6149  4845 MR c np
85 dict begin %Colortable dictionary
/c0 { 0.000000 0.000000 0.000000 sr} bdef
/c1 { 1.000000 1.000000 1.000000 sr} bdef
/c2 { 0.900000 0.000000 0.000000 sr} bdef
/c3 { 0.000000 0.820000 0.000000 sr} bdef
/c4 { 0.000000 0.000000 0.800000 sr} bdef
/c5 { 0.910000 0.820000 0.320000 sr} bdef
/c6 { 1.000000 0.260000 0.820000 sr} bdef
/c7 { 0.000000 0.820000 0.820000 sr} bdef
c0
1 j
1 sg
   0    0 6913 5186 PR
6 w
0 4226 4732 0 0 -4226 899 4615 4 MP
PP
-4732 0 0 4226 4732 0 0 -4226 899 4615 5 MP stroke
4 w
DO
SO
6 w
0 sg
 899 4615 mt 5631 4615 L
 899 4615 mt  899  389 L
 899 4615 mt  899 4567 L
%%IncludeResource: font Helvetica
/Helvetica /ISOLatin1Encoding 120 FMSR

 766 4760 mt 
(3400) s
1687 4615 mt 1687 4567 L
1554 4760 mt 
(3600) s
2476 4615 mt 2476 4567 L
2343 4760 mt 
(3800) s
3265 4615 mt 3265 4567 L
3132 4760 mt 
(4000) s
4053 4615 mt 4053 4567 L
3920 4760 mt 
(4200) s
4842 4615 mt 4842 4567 L
4709 4760 mt 
(4400) s
5631 4615 mt 5631 4567 L
5498 4760 mt 
(4600) s
 899 4615 mt  946 4615 L
 561 4659 mt 
(-1.21) s
 899 4086 mt  946 4086 L
 628 4130 mt 
(-1.2) s
 899 3558 mt  946 3558 L
 561 3602 mt 
(-1.19) s
 899 3030 mt  946 3030 L
 561 3074 mt 
(-1.18) s
 899 2502 mt  946 2502 L
 561 2546 mt 
(-1.17) s
 899 1973 mt  946 1973 L
 561 2017 mt 
(-1.16) s
 899 1445 mt  946 1445 L
 561 1489 mt 
(-1.15) s
 899  917 mt  946  917 L
 561  961 mt 
(-1.14) s
 899  389 mt  946  389 L
 561  433 mt 
(-1.13) s
 899  335 mt 
(x 10) s
%%IncludeResource: font Helvetica
/Helvetica /ISOLatin1Encoding 80 FMSR

1125  261 mt 
(5) s
gs 899 389 4733 4227 MR c np
0 j
gs 3243 1644 2045 2937 MR c np
/c8 { 0.000000 0.812500 1.000000 sr} bdef
c8
  30   30 4135 3993 PO
gr

c8
gs 3243 1644 2045 2937 MR c np
  30   30 4135 3993 PO
gr

gs 3243 1644 2045 2937 MR c np
  30   30 4135 3993 PO
gr

gs 3243 1644 2045 2937 MR c np
  30   30 4135 3993 PO
gr

gs 3243 1644 2045 2937 MR c np
  30   30 4135 3993 PO
gr

gs 3243 1644 2045 2937 MR c np
  30   30 3883 3813 PO
gr

gs 3243 1644 2045 2937 MR c np
/c9 { 0.000000 0.875000 1.000000 sr} bdef
c9
  30   30 3776 3655 PO
gr

c9
gs 3243 1644 2045 2937 MR c np
  30   30 3838 3799 PO
gr

gs 3243 1644 2045 2937 MR c np
  30   30 3764 3593 PO
gr

gs 3243 1644 2045 2937 MR c np
/c10 { 0.000000 0.937500 1.000000 sr} bdef
c10
  30   30 3764 3593 PO
gr

c10
gs 3243 1644 2045 2937 MR c np
  30   30 3838 3799 PO
gr

gs 3243 1644 2045 2937 MR c np
/c11 { 0.062500 1.000000 0.937500 sr} bdef
c11
  30   30 3838 3799 PO
gr

c11
gs 3243 1644 2045 2937 MR c np
  30   30 3435 3007 PO
gr

gs 3243 1644 2045 2937 MR c np
  30   30 3883 3813 PO
gr

gs 3243 1644 2045 2937 MR c np
/c12 { 0.125000 1.000000 0.875000 sr} bdef
c12
  30   30 3883 3813 PO
gr

c12
gs 3243 1644 2045 2937 MR c np
  30   30 3883 3813 PO
gr

gs 3243 1644 2045 2937 MR c np
  30   30 3883 3813 PO
gr

gs 3243 1644 2045 2937 MR c np
  30   30 3883 3813 PO
gr

gs 3243 1644 2045 2937 MR c np
  30   30 3838 3799 PO
gr

gs 3243 1644 2045 2937 MR c np
  30   30 3838 3799 PO
gr

gs 3243 1644 2045 2937 MR c np
  30   30 3837 3745 PO
gr

gs 3243 1644 2045 2937 MR c np
  30   30 3837 3745 PO
gr

gs 3243 1644 2045 2937 MR c np
  30   30 3837 3745 PO
gr

gs 3243 1644 2045 2937 MR c np
  30   30 3837 3745 PO
gr

gs 3243 1644 2045 2937 MR c np
  30   30 3764 3593 PO
gr

gs 3243 1644 2045 2937 MR c np
  30   30 3764 3593 PO
gr

gs 3243 1644 2045 2937 MR c np
  30   30 3764 3593 PO
gr

gs 3243 1644 2045 2937 MR c np
  30   30 3764 3593 PO
gr

gs 3243 1644 2045 2937 MR c np
  30   30 3764 3593 PO
gr

gs 3243 1644 2045 2937 MR c np
  30   30 3764 3593 PO
gr

gs 3243 1644 2045 2937 MR c np
  30   30 3764 3593 PO
gr

gs 3243 1644 2045 2937 MR c np
  30   30 3764 3593 PO
gr

gs 3243 1644 2045 2937 MR c np
  30   30 3764 3593 PO
gr

gs 3243 1644 2045 2937 MR c np
  30   30 3314 2514 PO
gr

gs 3243 1644 2045 2937 MR c np
  30   30 3314 2514 PO
gr

gs 3243 1644 2045 2937 MR c np
  30   30 3314 2514 PO
gr

gs 3243 1644 2045 2937 MR c np
  30   30 3314 2514 PO
gr

gs 3243 1644 2045 2937 MR c np
  30   30 3314 2514 PO
gr

gs 3243 1644 2045 2937 MR c np
/c13 { 0.187500 1.000000 0.812500 sr} bdef
c13
  30   30 3838 3799 PO
gr

c13
gs 3243 1644 2045 2937 MR c np
  30   30 3838 3799 PO
gr

gs 3243 1644 2045 2937 MR c np
  30   30 3838 3799 PO
gr

gs 3243 1644 2045 2937 MR c np
  30   30 3838 3799 PO
gr

gs 3243 1644 2045 2937 MR c np
  30   30 3838 3799 PO
gr

gs 3243 1644 2045 2937 MR c np
  30   30 3838 3799 PO
gr

gs 3243 1644 2045 2937 MR c np
  30   30 3838 3799 PO
gr

gs 3243 1644 2045 2937 MR c np
  30   30 3838 3799 PO
gr

gs 3243 1644 2045 2937 MR c np
  30   30 3838 3799 PO
gr

gs 3243 1644 2045 2937 MR c np
  30   30 3838 3799 PO
gr

gs 3243 1644 2045 2937 MR c np
  30   30 3838 3799 PO
gr

gs 3243 1644 2045 2937 MR c np
  30   30 3838 3799 PO
gr

gs 3243 1644 2045 2937 MR c np
  30   30 3838 3799 PO
gr

gs 3243 1644 2045 2937 MR c np
  30   30 3838 3799 PO
gr

gs 3243 1644 2045 2937 MR c np
  30   30 3838 3799 PO
gr

gs 3243 1644 2045 2937 MR c np
  30   30 3838 3799 PO
gr

gs 3243 1644 2045 2937 MR c np
  30   30 3838 3799 PO
gr

gs 3243 1644 2045 2937 MR c np
  30   30 3838 3799 PO
gr

gs 3243 1644 2045 2937 MR c np
  30   30 3838 3799 PO
gr

gs 3243 1644 2045 2937 MR c np
  30   30 3838 3799 PO
gr

gs 3243 1644 2045 2937 MR c np
  30   30 3838 3799 PO
gr

gs 3243 1644 2045 2937 MR c np
  30   30 3838 3799 PO
gr

gs 3243 1644 2045 2937 MR c np
  30   30 3838 3799 PO
gr

gs 3243 1644 2045 2937 MR c np
  30   30 3838 3799 PO
gr

gs 3243 1644 2045 2937 MR c np
  30   30 3838 3799 PO
gr

gs 3243 1644 2045 2937 MR c np
  30   30 3838 3799 PO
gr

gs 3243 1644 2045 2937 MR c np
  30   30 3838 3799 PO
gr

gs 3243 1644 2045 2937 MR c np
  30   30 3838 3799 PO
gr

gs 3243 1644 2045 2937 MR c np
  30   30 3838 3799 PO
gr

gs 3243 1644 2045 2937 MR c np
  30   30 3838 3799 PO
gr

gs 3243 1644 2045 2937 MR c np
  30   30 3838 3799 PO
gr

gs 3243 1644 2045 2937 MR c np
  30   30 3838 3799 PO
gr

gs 3243 1644 2045 2937 MR c np
  30   30 3838 3799 PO
gr

gs 3243 1644 2045 2937 MR c np
  30   30 3838 3799 PO
gr

gs 3243 1644 2045 2937 MR c np
  30   30 3838 3799 PO
gr

gs 3243 1644 2045 2937 MR c np
  30   30 3838 3799 PO
gr

gs 3243 1644 2045 2937 MR c np
  30   30 3838 3799 PO
gr

gs 3243 1644 2045 2937 MR c np
  30   30 3838 3799 PO
gr

gs 3243 1644 2045 2937 MR c np
  30   30 3776 3655 PO
gr

gs 3243 1644 2045 2937 MR c np
  30   30 3776 3655 PO
gr

gs 3243 1644 2045 2937 MR c np
  30   30 3776 3655 PO
gr

gs 3243 1644 2045 2937 MR c np
  30   30 3776 3655 PO
gr

gs 3243 1644 2045 2937 MR c np
  30   30 3776 3655 PO
gr

gs 3243 1644 2045 2937 MR c np
  30   30 3776 3655 PO
gr

gs 3243 1644 2045 2937 MR c np
  30   30 3776 3655 PO
gr

gs 3243 1644 2045 2937 MR c np
  30   30 3776 3655 PO
gr

gs 3243 1644 2045 2937 MR c np
  30   30 3776 3655 PO
gr

gs 3243 1644 2045 2937 MR c np
  30   30 3776 3655 PO
gr

gs 3243 1644 2045 2937 MR c np
  30   30 3776 3655 PO
gr

gs 3243 1644 2045 2937 MR c np
  30   30 3776 3655 PO
gr

gs 3243 1644 2045 2937 MR c np
  30   30 3776 3655 PO
gr

gs 3243 1644 2045 2937 MR c np
  30   30 3776 3655 PO
gr

gs 3243 1644 2045 2937 MR c np
  30   30 3776 3655 PO
gr

gs 3243 1644 2045 2937 MR c np
  30   30 3776 3655 PO
gr

gs 3243 1644 2045 2937 MR c np
  30   30 3776 3655 PO
gr

gs 3243 1644 2045 2937 MR c np
  30   30 3776 3655 PO
gr

gs 3243 1644 2045 2937 MR c np
  30   30 3776 3655 PO
gr

gs 3243 1644 2045 2937 MR c np
  30   30 3776 3655 PO
gr

gs 3243 1644 2045 2937 MR c np
  30   30 3776 3655 PO
gr

gs 3243 1644 2045 2937 MR c np
  30   30 3776 3655 PO
gr

gs 3243 1644 2045 2937 MR c np
  30   30 3776 3655 PO
gr

gs 3243 1644 2045 2937 MR c np
  30   30 3776 3655 PO
gr

gs 3243 1644 2045 2937 MR c np
  30   30 3776 3655 PO
gr

gs 3243 1644 2045 2937 MR c np
  30   30 3776 3655 PO
gr

gs 3243 1644 2045 2937 MR c np
  30   30 3776 3655 PO
gr

gs 3243 1644 2045 2937 MR c np
  30   30 3776 3655 PO
gr

gs 3243 1644 2045 2937 MR c np
  30   30 3776 3655 PO
gr

gs 3243 1644 2045 2937 MR c np
  30   30 3776 3655 PO
gr

gs 3243 1644 2045 2937 MR c np
  30   30 3776 3655 PO
gr

gs 3243 1644 2045 2937 MR c np
  30   30 3776 3655 PO
gr

gs 3243 1644 2045 2937 MR c np
  30   30 3776 3655 PO
gr

gs 3243 1644 2045 2937 MR c np
  30   30 3776 3655 PO
gr

gs 3243 1644 2045 2937 MR c np
  30   30 3776 3655 PO
gr

gs 3243 1644 2045 2937 MR c np
  30   30 3799 3744 PO
gr

gs 3243 1644 2045 2937 MR c np
  30   30 3569 3194 PO
gr

gs 3243 1644 2045 2937 MR c np
/c14 { 0.250000 1.000000 0.750000 sr} bdef
c14
  30   30 3597 3375 PO
gr

c14
gs 3243 1644 2045 2937 MR c np
  30   30 3435 3007 PO
gr

gs 3243 1644 2045 2937 MR c np
  30   30 3611 3445 PO
gr

gs 3243 1644 2045 2937 MR c np
  30   30 3611 3445 PO
gr

gs 3243 1644 2045 2937 MR c np
  30   30 3611 3445 PO
gr

gs 3243 1644 2045 2937 MR c np
/c15 { 0.312500 1.000000 0.687500 sr} bdef
c15
  30   30 3636 3527 PO
gr

c15
gs 3243 1644 2045 2937 MR c np
/c16 { 0.000000 0.125000 1.000000 sr} bdef
c16
  30   30 3837 3745 PO
gr

c16
gs 3243 1644 2045 2937 MR c np
/c17 { 0.000000 0.375000 1.000000 sr} bdef
c17
  30   30 4398 4243 PO
gr

c17
gs 3243 1644 2045 2937 MR c np
/c18 { 0.000000 0.000000 1.000000 sr} bdef
c18
  30   30 3764 3593 PO
gr

c18
gs 3243 1644 2045 2937 MR c np
c13
  30   30 3838 3799 PO
gr

c13
gs 3243 1644 2045 2937 MR c np
/c19 { 0.000000 0.687500 1.000000 sr} bdef
c19
  30   30 3883 3813 PO
gr

c19
gs 3243 1644 2045 2937 MR c np
/c20 { 0.000000 0.250000 1.000000 sr} bdef
c20
  30   30 4483 4341 PO
gr

c20
gs 3243 1644 2045 2937 MR c np
/c21 { 0.000000 0.562500 1.000000 sr} bdef
c21
  30   30 4418 4300 PO
gr

c21
gs 3243 1644 2045 2937 MR c np
/c22 { 0.000000 0.000000 0.687500 sr} bdef
c22
  30   30 4404 4256 PO
gr

c22
gs 3243 1644 2045 2937 MR c np
/c23 { 0.000000 0.312500 1.000000 sr} bdef
c23
  30   30 4234 4115 PO
gr

c23
gs 3243 1644 2045 2937 MR c np
c21
  30   30 4411 4284 PO
gr

c21
gs 3243 1644 2045 2937 MR c np
/c24 { 0.000000 0.000000 0.625000 sr} bdef
c24
  30   30 5122 4451 PO
gr

c24
gs 3243 1644 2045 2937 MR c np
c8
  30   30 4183 4095 PO
gr

c8
gs 3243 1644 2045 2937 MR c np
/c25 { 0.000000 0.750000 1.000000 sr} bdef
c25
  30   30 4213 4103 PO
gr

c25
gs 3243 1644 2045 2937 MR c np
c8
  30   30 4119 3909 PO
gr

c8
gs 3243 1644 2045 2937 MR c np
c17
  30   30 3759 3579 PO
gr

c17
gs 3243 1644 2045 2937 MR c np
c13
  30   30 3765 3624 PO
gr

c13
gs 3243 1644 2045 2937 MR c np
  30   30 3799 3744 PO
gr

gs 3243 1644 2045 2937 MR c np
c21
  30   30 4213 4103 PO
gr

c21
gs 3243 1644 2045 2937 MR c np
/c26 { 0.000000 0.000000 0.875000 sr} bdef
c26
  30   30 4449 4308 PO
gr

c26
gs 3243 1644 2045 2937 MR c np
c24
  30   30 5110 4451 PO
gr

c24
gs 3243 1644 2045 2937 MR c np
c12
  30   30 3759 3579 PO
gr

c12
gs 3243 1644 2045 2937 MR c np
c21
  30   30 4404 4256 PO
gr

c21
gs 3243 1644 2045 2937 MR c np
c12
  30   30 3764 3593 PO
gr

c12
gs 3243 1644 2045 2937 MR c np
c21
  30   30 4484 4397 PO
gr

c21
gs 3243 1644 2045 2937 MR c np
c23
  30   30 4411 4284 PO
gr

c23
gs 3243 1644 2045 2937 MR c np
/c27 { 0.000000 0.500000 1.000000 sr} bdef
c27
  30   30 4467 4325 PO
gr

c27
gs 3243 1644 2045 2937 MR c np
c21
  30   30 4467 4325 PO
gr

c21
gs 3243 1644 2045 2937 MR c np
c12
  30   30 3886 3826 PO
gr

c12
gs 3243 1644 2045 2937 MR c np
c8
  30   30 4242 4205 PO
gr

c8
gs 3243 1644 2045 2937 MR c np
c11
  30   30 3765 3624 PO
gr

c11
gs 3243 1644 2045 2937 MR c np
c8
  30   30 4203 4101 PO
gr

c8
gs 3243 1644 2045 2937 MR c np
c12
  30   30 3744 3559 PO
gr

c12
gs 3243 1644 2045 2937 MR c np
c21
  30   30 4418 4300 PO
gr

c21
gs 3243 1644 2045 2937 MR c np
c25
  30   30 4282 4240 PO
gr

c25
gs 3243 1644 2045 2937 MR c np
c21
  30   30 4449 4308 PO
gr

c21
gs 3243 1644 2045 2937 MR c np
c8
  30   30 4168 4035 PO
gr

c8
gs 3243 1644 2045 2937 MR c np
c24
  30   30 3776 3655 PO
gr

c24
gs 3243 1644 2045 2937 MR c np
c8
  30   30 4135 3993 PO
gr

c8
gs 3243 1644 2045 2937 MR c np
c15
  30   30 3636 3527 PO
gr

c15
gs 3243 1644 2045 2937 MR c np
c24
  30   30 5122 4451 PO
gr

c24
gs 3243 1644 2045 2937 MR c np
c12
  30   30 3893 3842 PO
gr

c12
gs 3243 1644 2045 2937 MR c np
  30   30 3883 3813 PO
gr

gs 3243 1644 2045 2937 MR c np
c21
  30   30 4483 4341 PO
gr

c21
gs 3243 1644 2045 2937 MR c np
/c28 { 0.000000 0.000000 0.562500 sr} bdef
c28
  30   30 5172 4460 PO
gr

c28
gs 3243 1644 2045 2937 MR c np
c17
  30   30 4183 4095 PO
gr

c17
gs 3243 1644 2045 2937 MR c np
c14
  30   30 3611 3445 PO
gr

c14
gs 3243 1644 2045 2937 MR c np
c13
  30   30 3776 3655 PO
gr

c13
gs 3243 1644 2045 2937 MR c np
c14
  30   30 3611 3445 PO
gr

c14
gs 3243 1644 2045 2937 MR c np
c8
  30   30 4168 4035 PO
gr

c8
gs 3243 1644 2045 2937 MR c np
c14
  30   30 3597 3375 PO
gr

c14
gs 3243 1644 2045 2937 MR c np
c12
  30   30 3837 3745 PO
gr

c12
gs 3243 1644 2045 2937 MR c np
  30   30 3378 2682 PO
gr

gs 3243 1644 2045 2937 MR c np
c9
  30   30 3838 3799 PO
gr

c9
gs 3243 1644 2045 2937 MR c np
c25
  30   30 4234 4115 PO
gr

c25
gs 3243 1644 2045 2937 MR c np
c28
  30   30 5172 4460 PO
gr

c28
gs 3243 1644 2045 2937 MR c np
/c29 { 0.000000 0.000000 0.812500 sr} bdef
c29
  30   30 4135 3993 PO
gr

c29
gs 3243 1644 2045 2937 MR c np
c16
  30   30 3799 3744 PO
gr

c16
gs 3243 1644 2045 2937 MR c np
c8
  30   30 4242 4205 PO
gr

c8
gs 3243 1644 2045 2937 MR c np
c21
  30   30 3893 3842 PO
gr

c21
gs 3243 1644 2045 2937 MR c np
c12
  30   30 3744 3559 PO
gr

c12
gs 3243 1644 2045 2937 MR c np
  30   30 3314 2514 PO
gr

gs 3243 1644 2045 2937 MR c np
/c30 { 0.000000 0.625000 1.000000 sr} bdef
c30
  30   30 4398 4243 PO
gr

c30
gs 3243 1644 2045 2937 MR c np
c14
  30   30 3597 3375 PO
gr

c14
gs 3243 1644 2045 2937 MR c np
/c31 { 0.000000 0.000000 0.937500 sr} bdef
c31
  30   30 4282 4240 PO
gr

c31
gs 3243 1644 2045 2937 MR c np
c14
  30   30 3435 3007 PO
gr

c14
gs 3243 1644 2045 2937 MR c np
c13
  30   30 3569 3194 PO
gr

c13
gs 3243 1644 2045 2937 MR c np
c12
  30   30 3378 2682 PO
gr

c12
gs 3243 1644 2045 2937 MR c np
c25
  30   30 3636 3527 PO
gr

c25
gs 3243 1644 2045 2937 MR c np
c8
  30   30 4119 3909 PO
gr

c8
gs 3243 1644 2045 2937 MR c np
c13
  30   30 3569 3194 PO
gr

c13
gs 3243 1644 2045 2937 MR c np
/c32 { 0.000000 1.000000 1.000000 sr} bdef
c32
  30   30 3999 3906 PO
gr

c32
gs 3243 1644 2045 2937 MR c np
c12
  30   30 3420 2705 PO
gr

c12
gs 3243 1644 2045 2937 MR c np
c16
  30   30 4775 4432 PO
gr

c16
gs 3243 1644 2045 2937 MR c np
/c33 { 0.000000 0.187500 1.000000 sr} bdef
c33
  30   30 4484 4397 PO
gr

c33
gs 3243 1644 2045 2937 MR c np
c24
  30   30 5110 4451 PO
gr

c24
gs 3243 1644 2045 2937 MR c np
c26
  30   30 3435 3007 PO
gr

c26
gs 3243 1644 2045 2937 MR c np
c24
  30   30 4775 4432 PO
gr

c24
gs 3243 1644 2045 2937 MR c np
c12
  30   30 3314 2514 PO
gr

c12
gs 3243 1644 2045 2937 MR c np
c28
  30   30 5226 4519 PO
gr

c28
gs 3243 1644 2045 2937 MR c np
c30
  30   30 3304 1705 PO
gr

c30
gs 3243 1644 2045 2937 MR c np
  30   30 3304 1705 PO
gr

gr

c30
0 sg
%%IncludeResource: font Helvetica
/Helvetica /ISOLatin1Encoding 120 FMSR

3131 4903 mt 
(Time) s
 479 2643 mt  -90 rotate
(Profit) s
90 rotate
2213  294 mt 
(a280_n837_bounded-strongly-corr_01) s
 882 4658 mt 
( ) s
5615  431 mt 
( ) s
%%IncludeResource: font Symbol
/Symbol /ISOLatin1Encoding 120 FMSR

3644 3571 mt 
(\254) s
%%IncludeResource: font Helvetica
/Helvetica /ISOLatin1Encoding 120 FMSR

3762 3571 mt 
( EMO \(45245\)) s
gs 899 389 4733 4227 MR c np
0 j
gr

gs 879 441 123 123 MR c np
0 j
30 39 -30 39 -30 -39 30 -39 940 541 5 MP
/c34 { 0.500000 0.000000 0.000000 sr} bdef
c34
PP
gr

c34
gs 899 389 4733 4227 MR c np
gr

0 sg
%%IncludeResource: font Symbol
/Symbol /ISOLatin1Encoding 120 FMSR

 948  546 mt 
(\254) s
%%IncludeResource: font Helvetica
/Helvetica /ISOLatin1Encoding 120 FMSR

1066  546 mt 
( S5 \(51825\)) s
gs 899 389 4733 4227 MR c np
0 j
gs 1392 1716 123 123 MR c np
0 -48 -48 0 0 48 48 0 1429 1753 5 MP
c34
PP
gr

c34
gr

c34
0 sg
%%IncludeResource: font Symbol
/Symbol /ISOLatin1Encoding 120 FMSR

1461 1821 mt 
(\254) s
%%IncludeResource: font Helvetica
/Helvetica /ISOLatin1Encoding 120 FMSR

1579 1821 mt 
( MA2B \(51896\)) s
1 sg
0 4227 240 0 0 -4227 5811 4615 4 MP
PP
-240 0 0 4227 240 0 0 -4227 5811 4615 5 MP stroke
0 sg
6392 2790 mt  -90 rotate
(TTP Score) s
90 rotate
gs 5811 388 241 4228 MR c np
gs np 5811 389 mt 0 4227 rl 240 0 rl 0 -4227 rl cp c np
[240 0 0 4227 5811 389] cc
/picstr 1 string def
1 64 8 [1.000000 0 0 64.000000 0 0] L1i
262B2F34393E42474C555F68727B848E97A1AAB3BDC6D0D9E2DFDCD9D6D3D0CDCAC7C4C1BEBBB8B5
B2A99F968C837A70675D544B41382E251C1A18161513110F
gr
gr

4 w
DO
SO
6 w
5811 4615 mt 6051 4615 L
5811  388 mt 6051  388 L
5811 4615 mt 5811  388 L
6051 4615 mt 6051  388 L
5811 4615 mt 6051 4615 L
6051 4615 mt 6051  388 L
6051 4261 mt 6008 4261 L
5811 4261 mt 5853 4261 L
6085 4305 mt 
(4.1) s
6051 3905 mt 6008 3905 L
5811 3905 mt 5853 3905 L
6085 3949 mt 
(4.2) s
6051 3550 mt 6008 3550 L
5811 3550 mt 5853 3550 L
6085 3594 mt 
(4.3) s
6051 3195 mt 6008 3195 L
5811 3195 mt 5853 3195 L
6085 3239 mt 
(4.4) s
6051 2839 mt 6008 2839 L
5811 2839 mt 5853 2839 L
6085 2883 mt 
(4.5) s
6051 2484 mt 6008 2484 L
5811 2484 mt 5853 2484 L
6085 2528 mt 
(4.6) s
6051 2128 mt 6008 2128 L
5811 2128 mt 5853 2128 L
6085 2172 mt 
(4.7) s
6051 1773 mt 6008 1773 L
5811 1773 mt 5853 1773 L
6085 1817 mt 
(4.8) s
6051 1418 mt 6008 1418 L
5811 1418 mt 5853 1418 L
6085 1462 mt 
(4.9) s
6051 1062 mt 6008 1062 L
5811 1062 mt 5853 1062 L
6085 1106 mt 
(5) s
6051  707 mt 6008  707 L
5811  707 mt 5853  707 L
6085  751 mt 
(5.1) s
6051  334 mt 
(x 10) s
%%IncludeResource: font Helvetica
/Helvetica /ISOLatin1Encoding 80 FMSR

6277  260 mt 
(4) s
5811 4615 mt 6051 4615 L
5811  388 mt 6051  388 L
5811 4615 mt 5811  388 L
6051 4615 mt 6051  388 L

end %%Color Dict

eplot
%%EndObject

epage
end

showpage

%%Trailer
%%EOF
