%!PS-Adobe-2.0 EPSF-1.2
%%Creator: MATLAB, The MathWorks, Inc. Version 8.1.0.604 (R2013a). Operating System: Linux 3.14.27-100.fc19.x86_64 #1 SMP Wed Dec 17 19:36:34 UTC 2014 x86_64.
%%Title: ./eil51_n150_bounded-strongly-corr_01.eps
%%CreationDate: 11/11/2016  12:10:27
%%DocumentNeededFonts: Helvetica
%%DocumentProcessColors: Cyan Magenta Yellow Black
%%Pages: 1
%%BoundingBox:    52   199   573   602
%%EndComments

%%BeginProlog
% MathWorks dictionary
/MathWorks 160 dict begin
% definition operators
/bdef {bind def} bind def
/ldef {load def} bind def
/xdef {exch def} bdef
/xstore {exch store} bdef
% operator abbreviations
/c  /clip ldef
/cc /concat ldef
/cp /closepath ldef
/gr /grestore ldef
/gs /gsave ldef
/mt /moveto ldef
/np /newpath ldef
/cm /currentmatrix ldef
/sm /setmatrix ldef
/rm /rmoveto ldef
/rl /rlineto ldef
/s {show newpath} bdef
/sc {setcmykcolor} bdef
/sr /setrgbcolor ldef
/sg /setgray ldef
/w /setlinewidth ldef
/j /setlinejoin ldef
/cap /setlinecap ldef
/rc {rectclip} bdef
/rf {rectfill} bdef
% page state control
/pgsv () def
/bpage {/pgsv save def} bdef
/epage {pgsv restore} bdef
/bplot /gsave ldef
/eplot {stroke grestore} bdef
% orientation switch
/portraitMode 0 def /landscapeMode 1 def /rotateMode 2 def
% coordinate system mappings
/dpi2point 0 def
% font control
/FontSize 0 def
/FMS {/FontSize xstore findfont [FontSize 0 0 FontSize neg 0 0]
  makefont setfont} bdef
/reencode {exch dup where {pop load} {pop StandardEncoding} ifelse
  exch dup 3 1 roll findfont dup length dict begin
  { 1 index /FID ne {def}{pop pop} ifelse } forall
  /Encoding exch def currentdict end definefont pop} bdef
/isroman {findfont /CharStrings get /Agrave known} bdef
/FMSR {3 1 roll 1 index dup isroman {reencode} {pop pop} ifelse
  exch FMS} bdef
/csm {1 dpi2point div -1 dpi2point div scale neg translate
 dup landscapeMode eq {pop -90 rotate}
  {rotateMode eq {90 rotate} if} ifelse} bdef
% line types: solid, dotted, dashed, dotdash
/SO { [] 0 setdash } bdef
/DO { [.5 dpi2point mul 4 dpi2point mul] 0 setdash } bdef
/DA { [6 dpi2point mul] 0 setdash } bdef
/DD { [.5 dpi2point mul 4 dpi2point mul 6 dpi2point mul 4
  dpi2point mul] 0 setdash } bdef
% macros for lines and objects
/L {lineto stroke} bdef
/MP {3 1 roll moveto 1 sub {rlineto} repeat} bdef
/AP {{rlineto} repeat} bdef
/PDlw -1 def
/W {/PDlw currentlinewidth def setlinewidth} def
/PP {closepath eofill} bdef
/DP {closepath stroke} bdef
/MR {4 -2 roll moveto dup  0 exch rlineto exch 0 rlineto
  neg 0 exch rlineto closepath} bdef
/FR {MR stroke} bdef
/PR {MR fill} bdef
/L1i {{currentfile picstr readhexstring pop} image} bdef
/tMatrix matrix def
/MakeOval {newpath tMatrix currentmatrix pop translate scale
0 0 1 0 360 arc tMatrix setmatrix} bdef
/FO {MakeOval stroke} bdef
/PO {MakeOval fill} bdef
/PD {currentlinewidth 2 div 0 360 arc fill
   PDlw -1 eq not {PDlw w /PDlw -1 def} if} def
/FA {newpath tMatrix currentmatrix pop translate scale
  0 0 1 5 -2 roll arc tMatrix setmatrix stroke} bdef
/PA {newpath tMatrix currentmatrix pop	translate 0 0 moveto scale
  0 0 1 5 -2 roll arc closepath tMatrix setmatrix fill} bdef
/FAn {newpath tMatrix currentmatrix pop translate scale
  0 0 1 5 -2 roll arcn tMatrix setmatrix stroke} bdef
/PAn {newpath tMatrix currentmatrix pop translate 0 0 moveto scale
  0 0 1 5 -2 roll arcn closepath tMatrix setmatrix fill} bdef
/vradius 0 def /hradius 0 def /lry 0 def
/lrx 0 def /uly 0 def /ulx 0 def /rad 0 def
/MRR {/vradius xdef /hradius xdef /lry xdef /lrx xdef /uly xdef
  /ulx xdef newpath tMatrix currentmatrix pop ulx hradius add uly
  vradius add translate hradius vradius scale 0 0 1 180 270 arc 
  tMatrix setmatrix lrx hradius sub uly vradius add translate
  hradius vradius scale 0 0 1 270 360 arc tMatrix setmatrix
  lrx hradius sub lry vradius sub translate hradius vradius scale
  0 0 1 0 90 arc tMatrix setmatrix ulx hradius add lry vradius sub
  translate hradius vradius scale 0 0 1 90 180 arc tMatrix setmatrix
  closepath} bdef
/FRR {MRR stroke } bdef
/PRR {MRR fill } bdef
/MlrRR {/lry xdef /lrx xdef /uly xdef /ulx xdef /rad lry uly sub 2 div def
  newpath tMatrix currentmatrix pop ulx rad add uly rad add translate
  rad rad scale 0 0 1 90 270 arc tMatrix setmatrix lrx rad sub lry rad
  sub translate rad rad scale 0 0 1 270 90 arc tMatrix setmatrix
  closepath} bdef
/FlrRR {MlrRR stroke } bdef
/PlrRR {MlrRR fill } bdef
/MtbRR {/lry xdef /lrx xdef /uly xdef /ulx xdef /rad lrx ulx sub 2 div def
  newpath tMatrix currentmatrix pop ulx rad add uly rad add translate
  rad rad scale 0 0 1 180 360 arc tMatrix setmatrix lrx rad sub lry rad
  sub translate rad rad scale 0 0 1 0 180 arc tMatrix setmatrix
  closepath} bdef
/FtbRR {MtbRR stroke } bdef
/PtbRR {MtbRR fill } bdef
/stri 6 array def /dtri 6 array def
/smat 6 array def /dmat 6 array def
/tmat1 6 array def /tmat2 6 array def /dif 3 array def
/asub {/ind2 exch def /ind1 exch def dup dup
  ind1 get exch ind2 get sub exch } bdef
/tri_to_matrix {
  2 0 asub 3 1 asub 4 0 asub 5 1 asub
  dup 0 get exch 1 get 7 -1 roll astore } bdef
/compute_transform {
  dmat dtri tri_to_matrix tmat1 invertmatrix 
  smat stri tri_to_matrix tmat2 concatmatrix } bdef
/ds {stri astore pop} bdef
/dt {dtri astore pop} bdef
/db {2 copy /cols xdef /rows xdef mul dup string
  currentfile exch readhexstring pop
  /bmap xdef pop pop} bdef
/it {gs np dtri aload pop moveto lineto lineto cp c
  cols rows 8 compute_transform 
  {bmap} image gr}bdef
/il {newpath moveto lineto stroke}bdef
currentdict end def
%%EndProlog

%%BeginSetup
MathWorks begin

0 cap

end
%%EndSetup

%%Page: 1 1
%%BeginPageSetup
%%PageBoundingBox:    52   199   573   602
MathWorks begin
bpage
%%EndPageSetup

%%BeginObject: obj1
bplot

/dpi2point 12 def
portraitMode 0216 7344 csm

  410   110  6252  4845 MR c np
85 dict begin %Colortable dictionary
/c0 { 0.000000 0.000000 0.000000 sr} bdef
/c1 { 1.000000 1.000000 1.000000 sr} bdef
/c2 { 0.900000 0.000000 0.000000 sr} bdef
/c3 { 0.000000 0.820000 0.000000 sr} bdef
/c4 { 0.000000 0.000000 0.800000 sr} bdef
/c5 { 0.910000 0.820000 0.320000 sr} bdef
/c6 { 1.000000 0.260000 0.820000 sr} bdef
/c7 { 0.000000 0.820000 0.820000 sr} bdef
c0
1 j
1 sg
   0    0 6913 5186 PR
6 w
0 4226 4732 0 0 -4226 899 4615 4 MP
PP
-4732 0 0 4226 4732 0 0 -4226 899 4615 5 MP stroke
4 w
DO
SO
6 w
0 sg
 899 4615 mt 5631 4615 L
 899 4615 mt  899  389 L
 899 4615 mt  899 4567 L
%%IncludeResource: font Helvetica
/Helvetica /ISOLatin1Encoding 120 FMSR

 799 4760 mt 
(400) s
1372 4615 mt 1372 4567 L
1272 4760 mt 
(450) s
1845 4615 mt 1845 4567 L
1745 4760 mt 
(500) s
2318 4615 mt 2318 4567 L
2218 4760 mt 
(550) s
2791 4615 mt 2791 4567 L
2691 4760 mt 
(600) s
3265 4615 mt 3265 4567 L
3165 4760 mt 
(650) s
3738 4615 mt 3738 4567 L
3638 4760 mt 
(700) s
4211 4615 mt 4211 4567 L
4111 4760 mt 
(750) s
4684 4615 mt 4684 4567 L
4584 4760 mt 
(800) s
5157 4615 mt 5157 4567 L
5057 4760 mt 
(850) s
5631 4615 mt 5631 4567 L
5531 4760 mt 
(900) s
 899 4615 mt  946 4615 L
 628 4659 mt 
(-2.2) s
 899 4086 mt  946 4086 L
 728 4130 mt 
(-2) s
 899 3558 mt  946 3558 L
 628 3602 mt 
(-1.8) s
 899 3030 mt  946 3030 L
 628 3074 mt 
(-1.6) s
 899 2502 mt  946 2502 L
 628 2546 mt 
(-1.4) s
 899 1973 mt  946 1973 L
 628 2017 mt 
(-1.2) s
 899 1445 mt  946 1445 L
 728 1489 mt 
(-1) s
 899  917 mt  946  917 L
 628  961 mt 
(-0.8) s
 899  389 mt  946  389 L
 628  433 mt 
(-0.6) s
 899  335 mt 
(x 10) s
%%IncludeResource: font Helvetica
/Helvetica /ISOLatin1Encoding 80 FMSR

1125  261 mt 
(4) s
gs 899 389 4733 4227 MR c np
0 j
gs 1253 843 4075 3634 MR c np
/c8 { 0.875000 0.000000 0.000000 sr} bdef
c8
  30   30 1660 3216 PO
gr

c8
gs 1253 843 4075 3634 MR c np
/c9 { 1.000000 0.375000 0.000000 sr} bdef
c9
  30   30 4183 4351 PO
gr

c9
gs 1253 843 4075 3634 MR c np
c8
  30   30 1673 3237 PO
gr

c8
gs 1253 843 4075 3634 MR c np
/c10 { 0.625000 0.000000 0.000000 sr} bdef
c10
  30   30 1883 3574 PO
gr

c10
gs 1253 843 4075 3634 MR c np
/c11 { 0.500000 0.000000 0.000000 sr} bdef
c11
  30   30 2305 3951 PO
gr

c11
gs 1253 843 4075 3634 MR c np
/c12 { 0.562500 0.000000 0.000000 sr} bdef
c12
  30   30 2689 4125 PO
gr

c12
gs 1253 843 4075 3634 MR c np
c11
  30   30 2399 4007 PO
gr

c11
gs 1253 843 4075 3634 MR c np
c8
  30   30 3516 4272 PO
gr

c8
gs 1253 843 4075 3634 MR c np
/c13 { 1.000000 0.750000 0.000000 sr} bdef
c13
  30   30 5179 4411 PO
gr

c13
gs 1253 843 4075 3634 MR c np
c10
  30   30 1918 3618 PO
gr

c10
gs 1253 843 4075 3634 MR c np
/c14 { 1.000000 0.000000 0.000000 sr} bdef
c14
  30   30 1610 3106 PO
gr

c14
gs 1253 843 4075 3634 MR c np
c11
  30   30 2451 4039 PO
gr

c11
gs 1253 843 4075 3634 MR c np
c10
  30   30 1883 3574 PO
gr

c10
gs 1253 843 4075 3634 MR c np
c11
  30   30 2311 3960 PO
gr

c11
gs 1253 843 4075 3634 MR c np
c8
  30   30 3431 4239 PO
gr

c8
gs 1253 843 4075 3634 MR c np
/c15 { 1.000000 1.000000 0.000000 sr} bdef
c15
  30   30 5041 4401 PO
gr

c15
gs 1253 843 4075 3634 MR c np
c11
  30   30 2222 3884 PO
gr

c11
gs 1253 843 4075 3634 MR c np
c12
  30   30 1978 3678 PO
gr

c12
gs 1253 843 4075 3634 MR c np
/c16 { 0.687500 0.000000 0.000000 sr} bdef
c16
  30   30 1825 3506 PO
gr

c16
gs 1253 843 4075 3634 MR c np
/c17 { 0.812500 0.000000 0.000000 sr} bdef
c17
  30   30 1711 3322 PO
gr

c17
gs 1253 843 4075 3634 MR c np
c14
  30   30 1594 3080 PO
gr

c14
gs 1253 843 4075 3634 MR c np
c11
  30   30 2097 3803 PO
gr

c11
gs 1253 843 4075 3634 MR c np
c17
  30   30 2206 3883 PO
gr

c17
gs 1253 843 4075 3634 MR c np
/c18 { 1.000000 0.250000 0.000000 sr} bdef
c18
  30   30 4183 4351 PO
gr

c18
gs 1253 843 4075 3634 MR c np
c11
  30   30 2290 3939 PO
gr

c11
gs 1253 843 4075 3634 MR c np
c8
  30   30 1673 3237 PO
gr

c8
gs 1253 843 4075 3634 MR c np
  30   30 3563 4298 PO
gr

gs 1253 843 4075 3634 MR c np
c11
  30   30 2451 4039 PO
gr

c11
gs 1253 843 4075 3634 MR c np
  30   30 2177 3871 PO
gr

gs 1253 843 4075 3634 MR c np
/c19 { 0.937500 0.000000 0.000000 sr} bdef
c19
  30   30 3713 4328 PO
gr

c19
gs 1253 843 4075 3634 MR c np
c11
  30   30 2328 3961 PO
gr

c11
gs 1253 843 4075 3634 MR c np
c8
  30   30 3405 4235 PO
gr

c8
gs 1253 843 4075 3634 MR c np
c11
  30   30 2476 4044 PO
gr

c11
gs 1253 843 4075 3634 MR c np
/c20 { 1.000000 0.437500 0.000000 sr} bdef
c20
  30   30 1436 2610 PO
gr

c20
gs 1253 843 4075 3634 MR c np
c11
  30   30 2110 3809 PO
gr

c11
gs 1253 843 4075 3634 MR c np
c16
  30   30 1790 3456 PO
gr

c16
gs 1253 843 4075 3634 MR c np
c17
  30   30 3295 4218 PO
gr

c17
gs 1253 843 4075 3634 MR c np
c8
  30   30 3492 4266 PO
gr

c8
gs 1253 843 4075 3634 MR c np
c11
  30   30 2524 4072 PO
gr

c11
gs 1253 843 4075 3634 MR c np
c8
  30   30 3431 4239 PO
gr

c8
gs 1253 843 4075 3634 MR c np
c10
  30   30 2386 3997 PO
gr

c10
gs 1253 843 4075 3634 MR c np
c11
  30   30 2112 3818 PO
gr

c11
gs 1253 843 4075 3634 MR c np
c10
  30   30 2246 3903 PO
gr

c10
gs 1253 843 4075 3634 MR c np
c17
  30   30 3295 4218 PO
gr

c17
gs 1253 843 4075 3634 MR c np
c11
  30   30 2151 3848 PO
gr

c11
gs 1253 843 4075 3634 MR c np
/c21 { 0.750000 0.000000 0.000000 sr} bdef
c21
  30   30 1737 3375 PO
gr

c21
gs 1253 843 4075 3634 MR c np
c16
  30   30 1952 3665 PO
gr

c16
gs 1253 843 4075 3634 MR c np
c12
  30   30 2008 3706 PO
gr

c12
gs 1253 843 4075 3634 MR c np
c8
  30   30 1675 3253 PO
gr

c8
gs 1253 843 4075 3634 MR c np
  30   30 3516 4272 PO
gr

gs 1253 843 4075 3634 MR c np
c21
  30   30 1769 3429 PO
gr

c21
gs 1253 843 4075 3634 MR c np
c16
  30   30 1825 3506 PO
gr

c16
gs 1253 843 4075 3634 MR c np
c8
  30   30 3492 4266 PO
gr

c8
gs 1253 843 4075 3634 MR c np
/c22 { 1.000000 0.187500 0.000000 sr} bdef
c22
  30   30 4155 4341 PO
gr

c22
gs 1253 843 4075 3634 MR c np
c21
  30   30 2134 3833 PO
gr

c21
gs 1253 843 4075 3634 MR c np
/c23 { 1.000000 0.312500 0.000000 sr} bdef
c23
  30   30 4287 4361 PO
gr

c23
gs 1253 843 4075 3634 MR c np
/c24 { 1.000000 0.812500 0.000000 sr} bdef
c24
  30   30 5203 4412 PO
gr

c24
gs 1253 843 4075 3634 MR c np
c11
  30   30 2071 3780 PO
gr

c11
gs 1253 843 4075 3634 MR c np
  30   30 2090 3789 PO
gr

gs 1253 843 4075 3634 MR c np
c17
  30   30 3323 4223 PO
gr

c17
gs 1253 843 4075 3634 MR c np
c16
  30   30 1806 3477 PO
gr

c16
gs 1253 843 4075 3634 MR c np
c9
  30   30 3713 4328 PO
gr

c9
gs 1253 843 4075 3634 MR c np
c20
  30   30 1468 2636 PO
gr

c20
gs 1253 843 4075 3634 MR c np
c8
  30   30 3453 4245 PO
gr

c8
gs 1253 843 4075 3634 MR c np
c17
  30   30 3270 4213 PO
gr

c17
gs 1253 843 4075 3634 MR c np
  30   30 1701 3298 PO
gr

gs 1253 843 4075 3634 MR c np
c12
  30   30 2035 3735 PO
gr

c12
gs 1253 843 4075 3634 MR c np
  30   30 2667 4113 PO
gr

gs 1253 843 4075 3634 MR c np
  30   30 1980 3693 PO
gr

gs 1253 843 4075 3634 MR c np
c19
  30   30 1754 3400 PO
gr

c19
gs 1253 843 4075 3634 MR c np
/c25 { 1.000000 0.062500 0.000000 sr} bdef
c25
  30   30 1582 3037 PO
gr

c25
gs 1253 843 4075 3634 MR c np
c11
  30   30 2266 3904 PO
gr

c11
gs 1253 843 4075 3634 MR c np
c12
  30   30 2626 4092 PO
gr

c12
gs 1253 843 4075 3634 MR c np
c11
  30   30 2132 3818 PO
gr

c11
gs 1253 843 4075 3634 MR c np
c10
  30   30 1932 3640 PO
gr

c10
gs 1253 843 4075 3634 MR c np
c16
  30   30 1806 3477 PO
gr

c16
gs 1253 843 4075 3634 MR c np
c11
  30   30 2399 4007 PO
gr

c11
gs 1253 843 4075 3634 MR c np
c21
  30   30 1763 3403 PO
gr

c21
gs 1253 843 4075 3634 MR c np
c19
  30   30 3598 4307 PO
gr

c19
gs 1253 843 4075 3634 MR c np
c17
  30   30 1711 3322 PO
gr

c17
gs 1253 843 4075 3634 MR c np
c11
  30   30 2501 4060 PO
gr

c11
gs 1253 843 4075 3634 MR c np
c10
  30   30 1931 3625 PO
gr

c10
gs 1253 843 4075 3634 MR c np
/c26 { 1.000000 0.125000 0.000000 sr} bdef
c26
  30   30 2151 3848 PO
gr

c26
gs 1253 843 4075 3634 MR c np
c8
  30   30 1660 3216 PO
gr

c8
gs 1253 843 4075 3634 MR c np
  30   30 3357 4230 PO
gr

gs 1253 843 4075 3634 MR c np
c14
  30   30 3747 4336 PO
gr

c14
gs 1253 843 4075 3634 MR c np
  30   30 3323 4223 PO
gr

gs 1253 843 4075 3634 MR c np
c10
  30   30 1894 3587 PO
gr

c10
gs 1253 843 4075 3634 MR c np
  30   30 2781 4140 PO
gr

gs 1253 843 4075 3634 MR c np
c19
  30   30 1658 3194 PO
gr

c19
gs 1253 843 4075 3634 MR c np
c14
  30   30 1594 3055 PO
gr

c14
gs 1253 843 4075 3634 MR c np
c11
  30   30 2344 3976 PO
gr

c11
gs 1253 843 4075 3634 MR c np
c12
  30   30 1965 3677 PO
gr

c12
gs 1253 843 4075 3634 MR c np
c10
  30   30 1871 3561 PO
gr

c10
gs 1253 843 4075 3634 MR c np
c11
  30   30 2501 4060 PO
gr

c11
gs 1253 843 4075 3634 MR c np
c16
  30   30 1843 3530 PO
gr

c16
gs 1253 843 4075 3634 MR c np
c19
  30   30 1636 3151 PO
gr

c19
gs 1253 843 4075 3634 MR c np
c12
  30   30 2067 3766 PO
gr

c12
gs 1253 843 4075 3634 MR c np
c25
  30   30 1769 3429 PO
gr

c25
gs 1253 843 4075 3634 MR c np
c11
  30   30 2197 3871 PO
gr

c11
gs 1253 843 4075 3634 MR c np
c18
  30   30 4253 4361 PO
gr

c18
gs 1253 843 4075 3634 MR c np
c12
  30   30 2001 3697 PO
gr

c12
gs 1253 843 4075 3634 MR c np
c14
  30   30 1594 3080 PO
gr

c14
gs 1253 843 4075 3634 MR c np
c11
  30   30 2476 4044 PO
gr

c11
gs 1253 843 4075 3634 MR c np
c14
  30   30 1610 3106 PO
gr

c14
gs 1253 843 4075 3634 MR c np
c10
  30   30 1858 3559 PO
gr

c10
gs 1253 843 4075 3634 MR c np
c16
  30   30 1858 3533 PO
gr

c16
gs 1253 843 4075 3634 MR c np
c12
  30   30 2039 3750 PO
gr

c12
gs 1253 843 4075 3634 MR c np
c16
  30   30 2925 4151 PO
gr

c16
gs 1253 843 4075 3634 MR c np
c19
  30   30 3691 4326 PO
gr

c19
gs 1253 843 4075 3634 MR c np
c11
  30   30 2267 3917 PO
gr

c11
gs 1253 843 4075 3634 MR c np
  30   30 2224 3892 PO
gr

gs 1253 843 4075 3634 MR c np
c12
  30   30 2058 3755 PO
gr

c12
gs 1253 843 4075 3634 MR c np
c8
  30   30 1692 3292 PO
gr

c8
gs 1253 843 4075 3634 MR c np
c25
  30   30 1582 3037 PO
gr

c25
gs 1253 843 4075 3634 MR c np
c26
  30   30 1737 3375 PO
gr

c26
gs 1253 843 4075 3634 MR c np
c12
  30   30 2667 4113 PO
gr

c12
gs 1253 843 4075 3634 MR c np
c11
  30   30 2287 3925 PO
gr

c11
gs 1253 843 4075 3634 MR c np
c8
  30   30 2986 4173 PO
gr

c8
gs 1253 843 4075 3634 MR c np
c11
  30   30 2430 4034 PO
gr

c11
gs 1253 843 4075 3634 MR c np
c12
  30   30 1944 3648 PO
gr

c12
gs 1253 843 4075 3634 MR c np
c24
  30   30 5211 4413 PO
gr

c24
gs 1253 843 4075 3634 MR c np
/c27 { 1.000000 0.875000 0.000000 sr} bdef
c27
  30   30 5258 4414 PO
gr

c27
gs 1253 843 4075 3634 MR c np
c19
  30   30 1633 3150 PO
gr

c19
gs 1253 843 4075 3634 MR c np
c25
  30   30 1565 3007 PO
gr

c25
gs 1253 843 4075 3634 MR c np
c11
  30   30 2173 3862 PO
gr

c11
gs 1253 843 4075 3634 MR c np
c16
  30   30 1783 3453 PO
gr

c16
gs 1253 843 4075 3634 MR c np
  30   30 1818 3496 PO
gr

gs 1253 843 4075 3634 MR c np
c17
  30   30 1722 3340 PO
gr

c17
gs 1253 843 4075 3634 MR c np
c8
  30   30 1691 3260 PO
gr

c8
gs 1253 843 4075 3634 MR c np
c12
  30   30 2804 4144 PO
gr

c12
gs 1253 843 4075 3634 MR c np
c16
  30   30 3009 4178 PO
gr

c16
gs 1253 843 4075 3634 MR c np
c14
  30   30 1625 3116 PO
gr

c14
gs 1253 843 4075 3634 MR c np
c8
  30   30 3405 4235 PO
gr

c8
gs 1253 843 4075 3634 MR c np
c19
  30   30 1643 3186 PO
gr

c19
gs 1253 843 4075 3634 MR c np
c10
  30   30 2626 4092 PO
gr

c10
gs 1253 843 4075 3634 MR c np
c19
  30   30 3543 4274 PO
gr

c19
gs 1253 843 4075 3634 MR c np
c17
  30   30 1731 3350 PO
gr

c17
gs 1253 843 4075 3634 MR c np
c23
  30   30 3357 4230 PO
gr

c23
gs 1253 843 4075 3634 MR c np
c18
  30   30 4253 4361 PO
gr

c18
gs 1253 843 4075 3634 MR c np
c13
  30   30 4197 4353 PO
gr

c13
gs 1253 843 4075 3634 MR c np
c12
  30   30 2015 3730 PO
gr

c12
gs 1253 843 4075 3634 MR c np
c10
  30   30 1900 3612 PO
gr

c10
gs 1253 843 4075 3634 MR c np
c16
  30   30 2925 4151 PO
gr

c16
gs 1253 843 4075 3634 MR c np
c8
  30   30 3467 4257 PO
gr

c8
gs 1253 843 4075 3634 MR c np
c11
  30   30 2414 4028 PO
gr

c11
gs 1253 843 4075 3634 MR c np
c8
  30   30 3563 4298 PO
gr

c8
gs 1253 843 4075 3634 MR c np
c11
  30   30 2378 3980 PO
gr

c11
gs 1253 843 4075 3634 MR c np
c16
  30   30 2986 4173 PO
gr

c16
gs 1253 843 4075 3634 MR c np
c9
  30   30 1475 2677 PO
gr

c9
gs 1253 843 4075 3634 MR c np
c26
  30   30 1511 2896 PO
gr

c26
gs 1253 843 4075 3634 MR c np
c23
  30   30 1434 2213 PO
gr

c23
gs 1253 843 4075 3634 MR c np
c19
  30   30 1548 2948 PO
gr

c19
gs 1253 843 4075 3634 MR c np
/c28 { 1.000000 0.625000 0.000000 sr} bdef
c28
  30   30 4798 4387 PO
gr

c28
gs 1253 843 4075 3634 MR c np
c20
  30   30 1468 2636 PO
gr

c20
gs 1253 843 4075 3634 MR c np
/c29 { 1.000000 0.562500 0.000000 sr} bdef
c29
  30   30 4728 4372 PO
gr

c29
gs 1253 843 4075 3634 MR c np
c25
  30   30 1565 3007 PO
gr

c25
gs 1253 843 4075 3634 MR c np
c10
  30   30 2822 4150 PO
gr

c10
gs 1253 843 4075 3634 MR c np
/c30 { 1.000000 0.500000 0.000000 sr} bdef
c30
  30   30 4636 4362 PO
gr

c30
gs 1253 843 4075 3634 MR c np
  30   30 1379 1390 PO
gr

gs 1253 843 4075 3634 MR c np
c12
  30   30 2781 4140 PO
gr

c12
gs 1253 843 4075 3634 MR c np
/c31 { 0.187500 1.000000 0.812500 sr} bdef
c31
  30   30 1362 1335 PO
gr

c31
gs 1253 843 4075 3634 MR c np
c14
  30   30 2689 4125 PO
gr

c14
gs 1253 843 4075 3634 MR c np
/c32 { 1.000000 0.937500 0.000000 sr} bdef
c32
  30   30 1411 2151 PO
gr

c32
gs 1253 843 4075 3634 MR c np
c11
  30   30 2524 4072 PO
gr

c11
gs 1253 843 4075 3634 MR c np
c19
  30   30 3598 4307 PO
gr

c19
gs 1253 843 4075 3634 MR c np
c12
  30   30 2613 4080 PO
gr

c12
gs 1253 843 4075 3634 MR c np
c21
  30   30 3009 4178 PO
gr

c21
gs 1253 843 4075 3634 MR c np
c26
  30   30 1548 2948 PO
gr

c26
gs 1253 843 4075 3634 MR c np
c10
  30   30 2905 4151 PO
gr

c10
gs 1253 843 4075 3634 MR c np
c29
  30   30 4728 4372 PO
gr

c29
gs 1253 843 4075 3634 MR c np
c16
  30   30 3108 4204 PO
gr

c16
gs 1253 843 4075 3634 MR c np
c13
  30   30 5041 4401 PO
gr

c13
gs 1253 843 4075 3634 MR c np
c14
  30   30 3689 4309 PO
gr

c14
gs 1253 843 4075 3634 MR c np
/c33 { 1.000000 0.687500 0.000000 sr} bdef
c33
  30   30 4934 4392 PO
gr

c33
gs 1253 843 4075 3634 MR c np
c13
  30   30 5059 4403 PO
gr

c13
gs 1253 843 4075 3634 MR c np
c9
  30   30 1475 2677 PO
gr

c9
gs 1253 843 4075 3634 MR c np
/c34 { 0.125000 1.000000 0.875000 sr} bdef
c34
  30   30 1325 1238 PO
gr

c34
gs 1253 843 4075 3634 MR c np
c23
  30   30 1498 2773 PO
gr

c23
gs 1253 843 4075 3634 MR c np
c20
  30   30 1362 1335 PO
gr

c20
gs 1253 843 4075 3634 MR c np
c24
  30   30 5171 4408 PO
gr

c24
gs 1253 843 4075 3634 MR c np
c33
  30   30 4934 4392 PO
gr

c33
gs 1253 843 4075 3634 MR c np
c29
  30   30 4798 4387 PO
gr

c29
gs 1253 843 4075 3634 MR c np
c23
  30   30 1498 2773 PO
gr

c23
gs 1253 843 4075 3634 MR c np
c17
  30   30 3270 4213 PO
gr

c17
gs 1253 843 4075 3634 MR c np
c26
  30   30 1511 2896 PO
gr

c26
gs 1253 843 4075 3634 MR c np
c8
  30   30 3108 4204 PO
gr

c8
gs 1253 843 4075 3634 MR c np
c23
  30   30 4287 4361 PO
gr

c23
gs 1253 843 4075 3634 MR c np
c30
  30   30 4636 4362 PO
gr

c30
gs 1253 843 4075 3634 MR c np
c34
  30   30 1325 1238 PO
gr

c34
gs 1253 843 4075 3634 MR c np
c14
  30   30 3747 4336 PO
gr

c14
gs 1253 843 4075 3634 MR c np
c18
  30   30 4155 4341 PO
gr

c18
gs 1253 843 4075 3634 MR c np
c27
  30   30 1434 2213 PO
gr

c27
gs 1253 843 4075 3634 MR c np
c20
  30   30 1436 2610 PO
gr

c20
gs 1253 843 4075 3634 MR c np
/c35 { 0.250000 1.000000 0.750000 sr} bdef
c35
  30   30 1379 1390 PO
gr

c35
gs 1253 843 4075 3634 MR c np
/c36 { 0.812500 1.000000 0.187500 sr} bdef
c36
  30   30 1411 2151 PO
gr

c36
gs 1253 843 4075 3634 MR c np
  30   30 1314  904 PO
gr

gs 1253 843 4075 3634 MR c np
/c37 { 0.000000 0.000000 0.562500 sr} bdef
c37
  30   30 5266 4415 PO
gr

c37
gs 1253 843 4075 3634 MR c np
/c38 { 0.000000 0.750000 1.000000 sr} bdef
c38
  30   30 1314  904 PO
gr

c38
gs 1253 843 4075 3634 MR c np
c27
  30   30 5266 4415 PO
gr

c27
gr

c27
0 sg
%%IncludeResource: font Helvetica
/Helvetica /ISOLatin1Encoding 120 FMSR

3131 4903 mt 
(Time) s
 546 2643 mt  -90 rotate
(Profit) s
90 rotate
2220  294 mt 
(eil51_n150_bounded-strongly-corr_01) s
 882 4658 mt 
( ) s
5615  431 mt 
( ) s
%%IncludeResource: font Symbol
/Symbol /ISOLatin1Encoding 120 FMSR

2433 4072 mt 
(\254) s
%%IncludeResource: font Helvetica
/Helvetica /ISOLatin1Encoding 120 FMSR

2551 4072 mt 
( EMO \(8260\)) s
gs 899 389 4733 4227 MR c np
0 j
gs 2637 3732 123 123 MR c np
30 39 -30 39 -30 -39 30 -39 2698 3832 5 MP
c19
PP
gr

c19
gr

c19
0 sg
%%IncludeResource: font Symbol
/Symbol /ISOLatin1Encoding 120 FMSR

2717 3836 mt 
(\254) s
%%IncludeResource: font Helvetica
/Helvetica /ISOLatin1Encoding 120 FMSR

2835 3836 mt 
( S5 \(6750\)) s
gs 899 389 4733 4227 MR c np
0 j
gs 2430 3980 123 123 MR c np
0 -48 -48 0 0 48 48 0 2467 4017 5 MP
c11
PP
gr

c11
gr

c11
0 sg
%%IncludeResource: font Symbol
/Symbol /ISOLatin1Encoding 120 FMSR

2510 4085 mt 
(\254) s
%%IncludeResource: font Helvetica
/Helvetica /ISOLatin1Encoding 120 FMSR

2628 4085 mt 
( MA2B \(8141\)) s
1 sg
0 4227 240 0 0 -4227 5811 4616 4 MP
PP
-240 0 0 4227 240 0 0 -4227 5811 4616 5 MP stroke
gs 5811 389 241 4228 MR c np
gs np 5811 389 mt 0 4227 rl 240 0 rl 0 -4227 rl cp c np
[240 0 0 4227 5811 389] cc
/picstr 1 string def
1 64 8 [1.000000 0 0 64.000000 0 0] L1i
262B2F34393E42474C555F68727B848E97A1AAB3BDC6D0D9E2DFDCD9D6D3D0CDCAC7C4C1BEBBB8B5
B2A99F968C837A70675D544B41382E251C1A18161513110F
gr
gr

0 sg
6562 2790 mt  -90 rotate
(TTP Score) s
90 rotate
4 w
DO
SO
6 w
5811 4616 mt 6051 4616 L
5811  389 mt 6051  389 L
5811 4616 mt 5811  389 L
6051 4616 mt 6051  389 L
5811 4616 mt 6051 4616 L
6051 4616 mt 6051  389 L
6051 4207 mt 6008 4207 L
5811 4207 mt 5853 4207 L
6085 4251 mt 
(-4000) s
6051 3584 mt 6008 3584 L
5811 3584 mt 5853 3584 L
6085 3628 mt 
(-2000) s
6051 2961 mt 6008 2961 L
5811 2961 mt 5853 2961 L
6085 3005 mt 
(0) s
6051 2338 mt 6008 2338 L
5811 2338 mt 5853 2338 L
6085 2382 mt 
(2000) s
6051 1715 mt 6008 1715 L
5811 1715 mt 5853 1715 L
6085 1759 mt 
(4000) s
6051 1092 mt 6008 1092 L
5811 1092 mt 5853 1092 L
6085 1136 mt 
(6000) s
6051  469 mt 6008  469 L
5811  469 mt 5853  469 L
6085  513 mt 
(8000) s
5811 4616 mt 6051 4616 L
5811  389 mt 6051  389 L
5811 4616 mt 5811  389 L
6051 4616 mt 6051  389 L

end %%Color Dict

eplot
%%EndObject

epage
end

showpage

%%Trailer
%%EOF
