%!PS-Adobe-2.0 EPSF-1.2
%%Creator: MATLAB, The MathWorks, Inc. Version 8.1.0.604 (R2013a). Operating System: Linux 3.14.27-100.fc19.x86_64 #1 SMP Wed Dec 17 19:36:34 UTC 2014 x86_64.
%%Title: ./eil51_n150_bounded-strongly-corr_01XX.eps
%%CreationDate: 11/08/2016  12:35:20
%%DocumentNeededFonts: Helvetica
%%DocumentProcessColors: Cyan Magenta Yellow Black
%%Pages: 1
%%BoundingBox:    52   199   573   602
%%EndComments

%%BeginProlog
% MathWorks dictionary
/MathWorks 160 dict begin
% definition operators
/bdef {bind def} bind def
/ldef {load def} bind def
/xdef {exch def} bdef
/xstore {exch store} bdef
% operator abbreviations
/c  /clip ldef
/cc /concat ldef
/cp /closepath ldef
/gr /grestore ldef
/gs /gsave ldef
/mt /moveto ldef
/np /newpath ldef
/cm /currentmatrix ldef
/sm /setmatrix ldef
/rm /rmoveto ldef
/rl /rlineto ldef
/s {show newpath} bdef
/sc {setcmykcolor} bdef
/sr /setrgbcolor ldef
/sg /setgray ldef
/w /setlinewidth ldef
/j /setlinejoin ldef
/cap /setlinecap ldef
/rc {rectclip} bdef
/rf {rectfill} bdef
% page state control
/pgsv () def
/bpage {/pgsv save def} bdef
/epage {pgsv restore} bdef
/bplot /gsave ldef
/eplot {stroke grestore} bdef
% orientation switch
/portraitMode 0 def /landscapeMode 1 def /rotateMode 2 def
% coordinate system mappings
/dpi2point 0 def
% font control
/FontSize 0 def
/FMS {/FontSize xstore findfont [FontSize 0 0 FontSize neg 0 0]
  makefont setfont} bdef
/reencode {exch dup where {pop load} {pop StandardEncoding} ifelse
  exch dup 3 1 roll findfont dup length dict begin
  { 1 index /FID ne {def}{pop pop} ifelse } forall
  /Encoding exch def currentdict end definefont pop} bdef
/isroman {findfont /CharStrings get /Agrave known} bdef
/FMSR {3 1 roll 1 index dup isroman {reencode} {pop pop} ifelse
  exch FMS} bdef
/csm {1 dpi2point div -1 dpi2point div scale neg translate
 dup landscapeMode eq {pop -90 rotate}
  {rotateMode eq {90 rotate} if} ifelse} bdef
% line types: solid, dotted, dashed, dotdash
/SO { [] 0 setdash } bdef
/DO { [.5 dpi2point mul 4 dpi2point mul] 0 setdash } bdef
/DA { [6 dpi2point mul] 0 setdash } bdef
/DD { [.5 dpi2point mul 4 dpi2point mul 6 dpi2point mul 4
  dpi2point mul] 0 setdash } bdef
% macros for lines and objects
/L {lineto stroke} bdef
/MP {3 1 roll moveto 1 sub {rlineto} repeat} bdef
/AP {{rlineto} repeat} bdef
/PDlw -1 def
/W {/PDlw currentlinewidth def setlinewidth} def
/PP {closepath eofill} bdef
/DP {closepath stroke} bdef
/MR {4 -2 roll moveto dup  0 exch rlineto exch 0 rlineto
  neg 0 exch rlineto closepath} bdef
/FR {MR stroke} bdef
/PR {MR fill} bdef
/L1i {{currentfile picstr readhexstring pop} image} bdef
/tMatrix matrix def
/MakeOval {newpath tMatrix currentmatrix pop translate scale
0 0 1 0 360 arc tMatrix setmatrix} bdef
/FO {MakeOval stroke} bdef
/PO {MakeOval fill} bdef
/PD {currentlinewidth 2 div 0 360 arc fill
   PDlw -1 eq not {PDlw w /PDlw -1 def} if} def
/FA {newpath tMatrix currentmatrix pop translate scale
  0 0 1 5 -2 roll arc tMatrix setmatrix stroke} bdef
/PA {newpath tMatrix currentmatrix pop	translate 0 0 moveto scale
  0 0 1 5 -2 roll arc closepath tMatrix setmatrix fill} bdef
/FAn {newpath tMatrix currentmatrix pop translate scale
  0 0 1 5 -2 roll arcn tMatrix setmatrix stroke} bdef
/PAn {newpath tMatrix currentmatrix pop translate 0 0 moveto scale
  0 0 1 5 -2 roll arcn closepath tMatrix setmatrix fill} bdef
/vradius 0 def /hradius 0 def /lry 0 def
/lrx 0 def /uly 0 def /ulx 0 def /rad 0 def
/MRR {/vradius xdef /hradius xdef /lry xdef /lrx xdef /uly xdef
  /ulx xdef newpath tMatrix currentmatrix pop ulx hradius add uly
  vradius add translate hradius vradius scale 0 0 1 180 270 arc 
  tMatrix setmatrix lrx hradius sub uly vradius add translate
  hradius vradius scale 0 0 1 270 360 arc tMatrix setmatrix
  lrx hradius sub lry vradius sub translate hradius vradius scale
  0 0 1 0 90 arc tMatrix setmatrix ulx hradius add lry vradius sub
  translate hradius vradius scale 0 0 1 90 180 arc tMatrix setmatrix
  closepath} bdef
/FRR {MRR stroke } bdef
/PRR {MRR fill } bdef
/MlrRR {/lry xdef /lrx xdef /uly xdef /ulx xdef /rad lry uly sub 2 div def
  newpath tMatrix currentmatrix pop ulx rad add uly rad add translate
  rad rad scale 0 0 1 90 270 arc tMatrix setmatrix lrx rad sub lry rad
  sub translate rad rad scale 0 0 1 270 90 arc tMatrix setmatrix
  closepath} bdef
/FlrRR {MlrRR stroke } bdef
/PlrRR {MlrRR fill } bdef
/MtbRR {/lry xdef /lrx xdef /uly xdef /ulx xdef /rad lrx ulx sub 2 div def
  newpath tMatrix currentmatrix pop ulx rad add uly rad add translate
  rad rad scale 0 0 1 180 360 arc tMatrix setmatrix lrx rad sub lry rad
  sub translate rad rad scale 0 0 1 0 180 arc tMatrix setmatrix
  closepath} bdef
/FtbRR {MtbRR stroke } bdef
/PtbRR {MtbRR fill } bdef
/stri 6 array def /dtri 6 array def
/smat 6 array def /dmat 6 array def
/tmat1 6 array def /tmat2 6 array def /dif 3 array def
/asub {/ind2 exch def /ind1 exch def dup dup
  ind1 get exch ind2 get sub exch } bdef
/tri_to_matrix {
  2 0 asub 3 1 asub 4 0 asub 5 1 asub
  dup 0 get exch 1 get 7 -1 roll astore } bdef
/compute_transform {
  dmat dtri tri_to_matrix tmat1 invertmatrix 
  smat stri tri_to_matrix tmat2 concatmatrix } bdef
/ds {stri astore pop} bdef
/dt {dtri astore pop} bdef
/db {2 copy /cols xdef /rows xdef mul dup string
  currentfile exch readhexstring pop
  /bmap xdef pop pop} bdef
/it {gs np dtri aload pop moveto lineto lineto cp c
  cols rows 8 compute_transform 
  {bmap} image gr}bdef
/il {newpath moveto lineto stroke}bdef
currentdict end def
%%EndProlog

%%BeginSetup
MathWorks begin

0 cap

end
%%EndSetup

%%Page: 1 1
%%BeginPageSetup
%%PageBoundingBox:    52   199   573   602
MathWorks begin
bpage
%%EndPageSetup

%%BeginObject: obj1
bplot

/dpi2point 12 def
portraitMode 0216 7344 csm

  410   110  6252  4845 MR c np
85 dict begin %Colortable dictionary
/c0 { 0.000000 0.000000 0.000000 sr} bdef
/c1 { 1.000000 1.000000 1.000000 sr} bdef
/c2 { 0.900000 0.000000 0.000000 sr} bdef
/c3 { 0.000000 0.820000 0.000000 sr} bdef
/c4 { 0.000000 0.000000 0.800000 sr} bdef
/c5 { 0.910000 0.820000 0.320000 sr} bdef
/c6 { 1.000000 0.260000 0.820000 sr} bdef
/c7 { 0.000000 0.820000 0.820000 sr} bdef
c0
1 j
1 sg
   0    0 6913 5186 PR
6 w
0 4226 4732 0 0 -4226 899 4615 4 MP
PP
-4732 0 0 4226 4732 0 0 -4226 899 4615 5 MP stroke
4 w
DO
SO
6 w
0 sg
 899 4615 mt 5631 4615 L
 899 4615 mt  899  389 L
 899 4615 mt  899 4567 L
%%IncludeResource: font Helvetica
/Helvetica /ISOLatin1Encoding 120 FMSR

 799 4760 mt 
(420) s
1424 4615 mt 1424 4567 L
1324 4760 mt 
(440) s
1950 4615 mt 1950 4567 L
1850 4760 mt 
(460) s
2476 4615 mt 2476 4567 L
2376 4760 mt 
(480) s
3002 4615 mt 3002 4567 L
2902 4760 mt 
(500) s
3527 4615 mt 3527 4567 L
3427 4760 mt 
(520) s
4053 4615 mt 4053 4567 L
3953 4760 mt 
(540) s
4579 4615 mt 4579 4567 L
4479 4760 mt 
(560) s
5105 4615 mt 5105 4567 L
5005 4760 mt 
(580) s
5631 4615 mt 5631 4567 L
5531 4760 mt 
(600) s
 899 4615 mt  946 4615 L
 728 4659 mt 
(-2) s
 899 4192 mt  946 4192 L
 628 4236 mt 
(-1.8) s
 899 3769 mt  946 3769 L
 628 3813 mt 
(-1.6) s
 899 3347 mt  946 3347 L
 628 3391 mt 
(-1.4) s
 899 2924 mt  946 2924 L
 628 2968 mt 
(-1.2) s
 899 2502 mt  946 2502 L
 728 2546 mt 
(-1) s
 899 2079 mt  946 2079 L
 628 2123 mt 
(-0.8) s
 899 1656 mt  946 1656 L
 628 1700 mt 
(-0.6) s
 899 1234 mt  946 1234 L
 628 1278 mt 
(-0.4) s
 899  811 mt  946  811 L
 628  855 mt 
(-0.2) s
 899  389 mt  946  389 L
 798  433 mt 
(0) s
 899  335 mt 
(x 10) s
%%IncludeResource: font Helvetica
/Helvetica /ISOLatin1Encoding 80 FMSR

1125  261 mt 
(4) s
gs 899 389 4733 4227 MR c np
0 j
gr

gs 1022 328 123 123 MR c np
/c8 { 0.000000 0.000000 0.562500 sr} bdef
c8
  30   30 1083  389 PO
gr

c8
gs 899 389 4733 4227 MR c np
0 j
gs 5075 4477 123 123 MR c np
/c9 { 0.562500 0.000000 0.000000 sr} bdef
c9
  30   30 5136 4538 PO
gr

c9
gr

c9
gs 1022 328 123 123 MR c np
c8
  30   30 1083  389 PO
gr

c8
gs 899 389 4733 4227 MR c np
0 j
gs 5075 4477 123 123 MR c np
c9
  30   30 5136 4538 PO
gr

c9
gs 4578 4421 123 123 MR c np
/c10 { 0.500000 0.000000 0.000000 sr} bdef
c10
  30   30 4639 4482 PO
gr

c10
gs 4841 4434 123 123 MR c np
c9
  30   30 4902 4495 PO
gr

c9
gs 1338 2591 123 123 MR c np
/c11 { 1.000000 1.000000 0.000000 sr} bdef
c11
  30   30 1399 2652 PO
gr

c11
gs 4513 4394 123 123 MR c np
c9
  30   30 4574 4455 PO
gr

c9
gs 4979 4449 123 123 MR c np
  30   30 5040 4510 PO
gr

gs 4301 4389 123 123 MR c np
c10
  30   30 4362 4450 PO
gr

c10
gs 1378 2647 123 123 MR c np
/c12 { 1.000000 0.937500 0.000000 sr} bdef
c12
  30   30 1439 2708 PO
gr

c12
gs 2523 3826 123 123 MR c np
/c13 { 0.812500 0.000000 0.000000 sr} bdef
c13
  30   30 2584 3887 PO
gr

c13
gs 1152 1709 123 123 MR c np
/c14 { 0.062500 1.000000 0.937500 sr} bdef
c14
  30   30 1213 1770 PO
gr

c14
gs 1115 1653 123 123 MR c np
/c15 { 0.000000 1.000000 1.000000 sr} bdef
c15
  30   30 1176 1714 PO
gr

c15
gs 1751 3232 123 123 MR c np
/c16 { 1.000000 0.312500 0.000000 sr} bdef
c16
  30   30 1812 3293 PO
gr

c16
gs 1811 3279 123 123 MR c np
  30   30 1872 3340 PO
gr

gs 3323 4180 123 123 MR c np
c9
  30   30 3384 4241 PO
gr

c9
gs 3352 4215 123 123 MR c np
c10
  30   30 3413 4276 PO
gr

c10
gs 2213 3632 123 123 MR c np
/c17 { 0.937500 0.000000 0.000000 sr} bdef
c17
  30   30 2274 3693 PO
gr

c17
gs 1461 2824 123 123 MR c np
/c18 { 1.000000 0.750000 0.000000 sr} bdef
c18
  30   30 1522 2885 PO
gr

c18
gs 3839 4306 123 123 MR c np
c10
  30   30 3900 4367 PO
gr

c10
gs 2102 3572 123 123 MR c np
/c19 { 1.000000 0.000000 0.000000 sr} bdef
c19
  30   30 2163 3633 PO
gr

c19
gs 1104 1504 123 123 MR c np
/c20 { 0.000000 0.812500 1.000000 sr} bdef
c20
  30   30 1165 1565 PO
gr

c20
gs 2002 3502 123 123 MR c np
/c21 { 1.000000 0.062500 0.000000 sr} bdef
c21
  30   30 2063 3563 PO
gr

c21
gs 3456 4219 123 123 MR c np
c9
  30   30 3517 4280 PO
gr

c9
gs 1954 3409 123 123 MR c np
/c22 { 1.000000 0.187500 0.000000 sr} bdef
c22
  30   30 2015 3470 PO
gr

c22
gs 2999 4074 123 123 MR c np
/c23 { 0.625000 0.000000 0.000000 sr} bdef
c23
  30   30 3060 4135 PO
gr

c23
gs 1427 2712 123 123 MR c np
/c24 { 1.000000 0.875000 0.000000 sr} bdef
c24
  30   30 1488 2773 PO
gr

c24
gs 1078 1284 123 123 MR c np
/c25 { 0.000000 0.625000 1.000000 sr} bdef
c25
  30   30 1139 1345 PO
gr

c25
gs 3221 4173 123 123 MR c np
c9
  30   30 3282 4234 PO
gr

c9
gs 3650 4298 123 123 MR c np
c10
  30   30 3711 4359 PO
gr

c10
gs 4856 4444 123 123 MR c np
c9
  30   30 4917 4505 PO
gr

c9
gs 1063 1136 123 123 MR c np
/c26 { 0.000000 0.437500 1.000000 sr} bdef
c26
  30   30 1124 1197 PO
gr

c26
gs 1181 2048 123 123 MR c np
/c27 { 0.437500 1.000000 0.562500 sr} bdef
c27
  30   30 1242 2109 PO
gr

c27
gs 1294 2456 123 123 MR c np
/c28 { 0.875000 1.000000 0.125000 sr} bdef
c28
  30   30 1355 2517 PO
gr

c28
gs 2864 4039 123 123 MR c np
c23
  30   30 2925 4100 PO
gr

c23
gs 1031 640 123 123 MR c np
/c29 { 0.000000 0.000000 0.875000 sr} bdef
c29
  30   30 1092  701 PO
gr

c29
gs 1039 789 123 123 MR c np
/c30 { 0.000000 0.062500 1.000000 sr} bdef
c30
  30   30 1100  850 PO
gr

c30
gs 1665 3092 123 123 MR c np
/c31 { 1.000000 0.500000 0.000000 sr} bdef
c31
  30   30 1726 3153 PO
gr

c31
gs 1241 2286 123 123 MR c np
/c32 { 0.687500 1.000000 0.312500 sr} bdef
c32
  30   30 1302 2347 PO
gr

c32
gs 3582 4261 123 123 MR c np
c10
  30   30 3643 4322 PO
gr

c10
gs 2450 3802 123 123 MR c np
c13
  30   30 2511 3863 PO
gr

c13
gs 1088 1412 123 123 MR c np
/c33 { 0.000000 0.750000 1.000000 sr} bdef
c33
  30   30 1149 1473 PO
gr

c33
gs 1078 1284 123 123 MR c np
c25
  30   30 1139 1345 PO
gr

c25
gs 1165 1927 123 123 MR c np
/c34 { 0.312500 1.000000 0.687500 sr} bdef
c34
  30   30 1226 1988 PO
gr

c34
gs 3119 4120 123 123 MR c np
c9
  30   30 3180 4181 PO
gr

c9
gs 3477 4252 123 123 MR c np
c10
  30   30 3538 4313 PO
gr

c10
gs 1604 3066 123 123 MR c np
c31
  30   30 1665 3127 PO
gr

c31
gs 2332 3755 123 123 MR c np
/c35 { 0.875000 0.000000 0.000000 sr} bdef
c35
  30   30 2393 3816 PO
gr

c35
gs 1542 2946 123 123 MR c np
/c36 { 1.000000 0.625000 0.000000 sr} bdef
c36
  30   30 1603 3007 PO
gr

c36
gs 1047 932 123 123 MR c np
/c37 { 0.000000 0.187500 1.000000 sr} bdef
c37
  30   30 1108  993 PO
gr

c37
gs 3897 4341 123 123 MR c np
c10
  30   30 3958 4402 PO
gr

c10
gs 1160 1801 123 123 MR c np
/c38 { 0.187500 1.000000 0.812500 sr} bdef
c38
  30   30 1221 1862 PO
gr

c38
gs 2247 3693 123 123 MR c np
c35
  30   30 2308 3754 PO
gr

c35
gs 2563 3879 123 123 MR c np
/c39 { 0.750000 0.000000 0.000000 sr} bdef
c39
  30   30 2624 3940 PO
gr

c39
gs 1534 2854 123 123 MR c np
/c40 { 1.000000 0.687500 0.000000 sr} bdef
c40
  30   30 1595 2915 PO
gr

c40
gs 1885 3400 123 123 MR c np
c22
  30   30 1946 3461 PO
gr

c22
gs 1294 2456 123 123 MR c np
c28
  30   30 1355 2517 PO
gr

c28
gs 1231 2175 123 123 MR c np
/c41 { 0.562500 1.000000 0.437500 sr} bdef
c41
  30   30 1292 2236 PO
gr

c41
gs 2707 3965 123 123 MR c np
/c42 { 0.687500 0.000000 0.000000 sr} bdef
c42
  30   30 2768 4026 PO
gr

c42
gs 2642 3940 123 123 MR c np
  30   30 2703 4001 PO
gr

gs 2707 3965 123 123 MR c np
  30   30 2768 4026 PO
gr

gs 3119 4120 123 123 MR c np
c9
  30   30 3180 4181 PO
gr

c9
gs 1165 1927 123 123 MR c np
c34
  30   30 1226 1988 PO
gr

c34
gs 1588 2987 123 123 MR c np
/c43 { 1.000000 0.562500 0.000000 sr} bdef
c43
  30   30 1649 3048 PO
gr

c43
gs 2072 3520 123 123 MR c np
c21
  30   30 2133 3581 PO
gr

c21
gs 2450 3802 123 123 MR c np
c13
  30   30 2511 3863 PO
gr

c13
gs 1275 2371 123 123 MR c np
/c44 { 0.812500 1.000000 0.187500 sr} bdef
c44
  30   30 1336 2432 PO
gr

c44
gs 3765 4304 123 123 MR c np
c10
  30   30 3826 4365 PO
gr

c10
gs 1826 3339 123 123 MR c np
/c45 { 1.000000 0.250000 0.000000 sr} bdef
c45
  30   30 1887 3400 PO
gr

c45
gs 1031 640 123 123 MR c np
c29
  30   30 1092  701 PO
gr

c29
gs 1729 3179 123 123 MR c np
/c46 { 1.000000 0.375000 0.000000 sr} bdef
c46
  30   30 1790 3240 PO
gr

c46
gs 1028 529 123 123 MR c np
/c47 { 0.000000 0.000000 0.750000 sr} bdef
c47
  30   30 1089  590 PO
gr

c47
gs 5074 4455 123 123 MR c np
c9
  30   30 5135 4516 PO
gr

c9
gs 1023 413 123 123 MR c np
/c48 { 0.000000 0.000000 0.625000 sr} bdef
c48
  30   30 1084  474 PO
gr

c48
gs 2808 4024 123 123 MR c np
c23
  30   30 2869 4085 PO
gr

c23
gs 2808 4024 123 123 MR c np
  30   30 2869 4085 PO
gr

gs 3994 4351 123 123 MR c np
c10
  30   30 4055 4412 PO
gr

c10
gs 1028 529 123 123 MR c np
c47
  30   30 1089  590 PO
gr

c47
gs 1063 1136 123 123 MR c np
c26
  30   30 1124 1197 PO
gr

c26
gs 4009 4368 123 123 MR c np
c10
  30   30 4070 4429 PO
gr

c10
gs 1213 2095 123 123 MR c np
/c49 { 0.500000 1.000000 0.500000 sr} bdef
c49
  30   30 1274 2156 PO
gr

c49
gs 4205 4380 123 123 MR c np
c10
  30   30 4266 4441 PO
gr

c10
gs 3221 4173 123 123 MR c np
c9
  30   30 3282 4234 PO
gr

c9
gs 3033 4098 123 123 MR c np
  30   30 3094 4159 PO
gr

gs 1058 1036 123 123 MR c np
/c50 { 0.000000 0.312500 1.000000 sr} bdef
c50
  30   30 1119 1097 PO
gr

c50
gs 1058 1036 123 123 MR c np
  30   30 1119 1097 PO
gr

gs 1729 3179 123 123 MR c np
c46
  30   30 1790 3240 PO
gr

c46
gs 4104 4372 123 123 MR c np
c10
  30   30 4165 4433 PO
gr

c10
gs 4205 4380 123 123 MR c np
  30   30 4266 4441 PO
gr

gs 2642 3940 123 123 MR c np
c42
  30   30 2703 4001 PO
gr

c42
gs 1507 2849 123 123 MR c np
c40
  30   30 1568 2910 PO
gr

c40
gs 4104 4372 123 123 MR c np
c10
  30   30 4165 4433 PO
gr

c10
gs 1275 2371 123 123 MR c np
c44
  30   30 1336 2432 PO
gr

c44
gs 1104 1504 123 123 MR c np
c20
  30   30 1165 1565 PO
gr

c20
gs 4301 4389 123 123 MR c np
c10
  30   30 4362 4450 PO
gr

c10
gs 1088 1412 123 123 MR c np
c33
  30   30 1149 1473 PO
gr

c33
gs 2563 3879 123 123 MR c np
c39
  30   30 2624 3940 PO
gr

c39
gs 1046 910 123 123 MR c np
c37
  30   30 1107  971 PO
gr

c37
gs 1040 811 123 123 MR c np
c30
  30   30 1101  872 PO
gr

c30
gr

c30
0 sg
%%IncludeResource: font Helvetica
/Helvetica /ISOLatin1Encoding 120 FMSR

3131 4903 mt 
(Time) s
 546 2643 mt  -90 rotate
(Profit) s
90 rotate
2220  294 mt 
(eil51_n150_bounded-strongly-corr_01) s
 882 4658 mt 
( ) s
5615  431 mt 
( ) s
%%IncludeResource: font Symbol
/Symbol /ISOLatin1Encoding 120 FMSR

4123 4472 mt 
(\254) s
%%IncludeResource: font Helvetica
/Helvetica /ISOLatin1Encoding 120 FMSR

4241 4472 mt 
( EMO \(8000\)) s
gs 899 389 4733 4227 MR c np
0 j
gs 5310 4319 123 123 MR c np
30 39 -30 39 -30 -39 30 -39 5371 4419 5 MP
c39
PP
gr

c39
gr

c39
0 sg
%%IncludeResource: font Symbol
/Symbol /ISOLatin1Encoding 120 FMSR

5424 4423 mt 
(\254) s
%%IncludeResource: font Helvetica
/Helvetica /ISOLatin1Encoding 120 FMSR

5542 4423 mt 
( S5 \(6750\)) s
gs 899 389 4733 4227 MR c np
0 j
gr

gs 4816 4498 123 123 MR c np
0 j
0 -48 -48 0 0 48 48 0 4853 4535 5 MP
c10
PP
gr

c10
gs 899 389 4733 4227 MR c np
gr

0 sg
%%IncludeResource: font Symbol
/Symbol /ISOLatin1Encoding 120 FMSR

4930 4602 mt 
(\254) s
%%IncludeResource: font Helvetica
/Helvetica /ISOLatin1Encoding 120 FMSR

5048 4602 mt 
( MA2B \(7982\)) s
1 sg
0 4227 240 0 0 -4227 5811 4616 4 MP
PP
-240 0 0 4227 240 0 0 -4227 5811 4616 5 MP stroke
gs 5811 389 241 4228 MR c np
gs np 5811 389 mt 0 4227 rl 240 0 rl 0 -4227 rl cp c np
[240 0 0 4227 5811 389] cc
/picstr 1 string def
1 64 8 [1.000000 0 0 64.000000 0 0] L1i
262B2F34393E42474C555F68727B848E97A1AAB3BDC6D0D9E2DFDCD9D6D3D0CDCAC7C4C1BEBBB8B5
B2A99F968C837A70675D544B41382E251C1A18161513110F
gr
gr

0 sg
6562 2790 mt  -90 rotate
(TTP Score) s
90 rotate
4 w
DO
SO
6 w
5811 4616 mt 6051 4616 L
5811  389 mt 6051  389 L
5811 4616 mt 5811  389 L
6051 4616 mt 6051  389 L
5811 4616 mt 6051 4616 L
6051 4616 mt 6051  389 L
6051 4418 mt 6008 4418 L
5811 4418 mt 5853 4418 L
6085 4462 mt 
(-8000) s
6051 3914 mt 6008 3914 L
5811 3914 mt 5853 3914 L
6085 3958 mt 
(-6000) s
6051 3411 mt 6008 3411 L
5811 3411 mt 5853 3411 L
6085 3455 mt 
(-4000) s
6051 2907 mt 6008 2907 L
5811 2907 mt 5853 2907 L
6085 2951 mt 
(-2000) s
6051 2403 mt 6008 2403 L
5811 2403 mt 5853 2403 L
6085 2447 mt 
(0) s
6051 1900 mt 6008 1900 L
5811 1900 mt 5853 1900 L
6085 1944 mt 
(2000) s
6051 1396 mt 6008 1396 L
5811 1396 mt 5853 1396 L
6085 1440 mt 
(4000) s
6051  892 mt 6008  892 L
5811  892 mt 5853  892 L
6085  936 mt 
(6000) s
5811 4616 mt 6051 4616 L
5811  389 mt 6051  389 L
5811 4616 mt 5811  389 L
6051 4616 mt 6051  389 L

end %%Color Dict

eplot
%%EndObject

epage
end

showpage

%%Trailer
%%EOF
