%!PS-Adobe-2.0 EPSF-1.2
%%Creator: MATLAB, The MathWorks, Inc. Version 8.1.0.604 (R2013a). Operating System: Linux 3.14.27-100.fc19.x86_64 #1 SMP Wed Dec 17 19:36:34 UTC 2014 x86_64.
%%Title: ./eil51_n150_bounded-strongly-corr_01.eps
%%CreationDate: 11/11/2016  19:14:33
%%DocumentNeededFonts: Helvetica
%%DocumentProcessColors: Cyan Magenta Yellow Black
%%Pages: 1
%%BoundingBox:    46   199   567   602
%%EndComments

%%BeginProlog
% MathWorks dictionary
/MathWorks 160 dict begin
% definition operators
/bdef {bind def} bind def
/ldef {load def} bind def
/xdef {exch def} bdef
/xstore {exch store} bdef
% operator abbreviations
/c  /clip ldef
/cc /concat ldef
/cp /closepath ldef
/gr /grestore ldef
/gs /gsave ldef
/mt /moveto ldef
/np /newpath ldef
/cm /currentmatrix ldef
/sm /setmatrix ldef
/rm /rmoveto ldef
/rl /rlineto ldef
/s {show newpath} bdef
/sc {setcmykcolor} bdef
/sr /setrgbcolor ldef
/sg /setgray ldef
/w /setlinewidth ldef
/j /setlinejoin ldef
/cap /setlinecap ldef
/rc {rectclip} bdef
/rf {rectfill} bdef
% page state control
/pgsv () def
/bpage {/pgsv save def} bdef
/epage {pgsv restore} bdef
/bplot /gsave ldef
/eplot {stroke grestore} bdef
% orientation switch
/portraitMode 0 def /landscapeMode 1 def /rotateMode 2 def
% coordinate system mappings
/dpi2point 0 def
% font control
/FontSize 0 def
/FMS {/FontSize xstore findfont [FontSize 0 0 FontSize neg 0 0]
  makefont setfont} bdef
/reencode {exch dup where {pop load} {pop StandardEncoding} ifelse
  exch dup 3 1 roll findfont dup length dict begin
  { 1 index /FID ne {def}{pop pop} ifelse } forall
  /Encoding exch def currentdict end definefont pop} bdef
/isroman {findfont /CharStrings get /Agrave known} bdef
/FMSR {3 1 roll 1 index dup isroman {reencode} {pop pop} ifelse
  exch FMS} bdef
/csm {1 dpi2point div -1 dpi2point div scale neg translate
 dup landscapeMode eq {pop -90 rotate}
  {rotateMode eq {90 rotate} if} ifelse} bdef
% line types: solid, dotted, dashed, dotdash
/SO { [] 0 setdash } bdef
/DO { [.5 dpi2point mul 4 dpi2point mul] 0 setdash } bdef
/DA { [6 dpi2point mul] 0 setdash } bdef
/DD { [.5 dpi2point mul 4 dpi2point mul 6 dpi2point mul 4
  dpi2point mul] 0 setdash } bdef
% macros for lines and objects
/L {lineto stroke} bdef
/MP {3 1 roll moveto 1 sub {rlineto} repeat} bdef
/AP {{rlineto} repeat} bdef
/PDlw -1 def
/W {/PDlw currentlinewidth def setlinewidth} def
/PP {closepath eofill} bdef
/DP {closepath stroke} bdef
/MR {4 -2 roll moveto dup  0 exch rlineto exch 0 rlineto
  neg 0 exch rlineto closepath} bdef
/FR {MR stroke} bdef
/PR {MR fill} bdef
/L1i {{currentfile picstr readhexstring pop} image} bdef
/tMatrix matrix def
/MakeOval {newpath tMatrix currentmatrix pop translate scale
0 0 1 0 360 arc tMatrix setmatrix} bdef
/FO {MakeOval stroke} bdef
/PO {MakeOval fill} bdef
/PD {currentlinewidth 2 div 0 360 arc fill
   PDlw -1 eq not {PDlw w /PDlw -1 def} if} def
/FA {newpath tMatrix currentmatrix pop translate scale
  0 0 1 5 -2 roll arc tMatrix setmatrix stroke} bdef
/PA {newpath tMatrix currentmatrix pop	translate 0 0 moveto scale
  0 0 1 5 -2 roll arc closepath tMatrix setmatrix fill} bdef
/FAn {newpath tMatrix currentmatrix pop translate scale
  0 0 1 5 -2 roll arcn tMatrix setmatrix stroke} bdef
/PAn {newpath tMatrix currentmatrix pop translate 0 0 moveto scale
  0 0 1 5 -2 roll arcn closepath tMatrix setmatrix fill} bdef
/vradius 0 def /hradius 0 def /lry 0 def
/lrx 0 def /uly 0 def /ulx 0 def /rad 0 def
/MRR {/vradius xdef /hradius xdef /lry xdef /lrx xdef /uly xdef
  /ulx xdef newpath tMatrix currentmatrix pop ulx hradius add uly
  vradius add translate hradius vradius scale 0 0 1 180 270 arc 
  tMatrix setmatrix lrx hradius sub uly vradius add translate
  hradius vradius scale 0 0 1 270 360 arc tMatrix setmatrix
  lrx hradius sub lry vradius sub translate hradius vradius scale
  0 0 1 0 90 arc tMatrix setmatrix ulx hradius add lry vradius sub
  translate hradius vradius scale 0 0 1 90 180 arc tMatrix setmatrix
  closepath} bdef
/FRR {MRR stroke } bdef
/PRR {MRR fill } bdef
/MlrRR {/lry xdef /lrx xdef /uly xdef /ulx xdef /rad lry uly sub 2 div def
  newpath tMatrix currentmatrix pop ulx rad add uly rad add translate
  rad rad scale 0 0 1 90 270 arc tMatrix setmatrix lrx rad sub lry rad
  sub translate rad rad scale 0 0 1 270 90 arc tMatrix setmatrix
  closepath} bdef
/FlrRR {MlrRR stroke } bdef
/PlrRR {MlrRR fill } bdef
/MtbRR {/lry xdef /lrx xdef /uly xdef /ulx xdef /rad lrx ulx sub 2 div def
  newpath tMatrix currentmatrix pop ulx rad add uly rad add translate
  rad rad scale 0 0 1 180 360 arc tMatrix setmatrix lrx rad sub lry rad
  sub translate rad rad scale 0 0 1 0 180 arc tMatrix setmatrix
  closepath} bdef
/FtbRR {MtbRR stroke } bdef
/PtbRR {MtbRR fill } bdef
/stri 6 array def /dtri 6 array def
/smat 6 array def /dmat 6 array def
/tmat1 6 array def /tmat2 6 array def /dif 3 array def
/asub {/ind2 exch def /ind1 exch def dup dup
  ind1 get exch ind2 get sub exch } bdef
/tri_to_matrix {
  2 0 asub 3 1 asub 4 0 asub 5 1 asub
  dup 0 get exch 1 get 7 -1 roll astore } bdef
/compute_transform {
  dmat dtri tri_to_matrix tmat1 invertmatrix 
  smat stri tri_to_matrix tmat2 concatmatrix } bdef
/ds {stri astore pop} bdef
/dt {dtri astore pop} bdef
/db {2 copy /cols xdef /rows xdef mul dup string
  currentfile exch readhexstring pop
  /bmap xdef pop pop} bdef
/it {gs np dtri aload pop moveto lineto lineto cp c
  cols rows 8 compute_transform 
  {bmap} image gr}bdef
/il {newpath moveto lineto stroke}bdef
currentdict end def
%%EndProlog

%%BeginSetup
MathWorks begin

0 cap

end
%%EndSetup

%%Page: 1 1
%%BeginPageSetup
%%PageBoundingBox:    46   199   567   602
MathWorks begin
bpage
%%EndPageSetup

%%BeginObject: obj1
bplot

/dpi2point 12 def
portraitMode 0216 7344 csm

  343   110  6249  4845 MR c np
85 dict begin %Colortable dictionary
/c0 { 0.000000 0.000000 0.000000 sr} bdef
/c1 { 1.000000 1.000000 1.000000 sr} bdef
/c2 { 0.900000 0.000000 0.000000 sr} bdef
/c3 { 0.000000 0.820000 0.000000 sr} bdef
/c4 { 0.000000 0.000000 0.800000 sr} bdef
/c5 { 0.910000 0.820000 0.320000 sr} bdef
/c6 { 1.000000 0.260000 0.820000 sr} bdef
/c7 { 0.000000 0.820000 0.820000 sr} bdef
c0
1 j
1 sg
   0    0 6913 5186 PR
6 w
0 4226 4732 0 0 -4226 899 4615 4 MP
PP
-4732 0 0 4226 4732 0 0 -4226 899 4615 5 MP stroke
4 w
DO
SO
6 w
0 sg
 899 4615 mt 5631 4615 L
 899 4615 mt  899  389 L
 899 4615 mt  899 4567 L
%%IncludeResource: font Helvetica
/Helvetica /ISOLatin1Encoding 120 FMSR

 799 4760 mt 
(560) s
1575 4615 mt 1575 4567 L
1475 4760 mt 
(570) s
2251 4615 mt 2251 4567 L
2151 4760 mt 
(580) s
2927 4615 mt 2927 4567 L
2827 4760 mt 
(590) s
3603 4615 mt 3603 4567 L
3503 4760 mt 
(600) s
4279 4615 mt 4279 4567 L
4179 4760 mt 
(610) s
4955 4615 mt 4955 4567 L
4855 4760 mt 
(620) s
5631 4615 mt 5631 4567 L
5531 4760 mt 
(630) s
 899 4615 mt  946 4615 L
 728 4659 mt 
(-2) s
 899 3910 mt  946 3910 L
 561 3954 mt 
(-1.98) s
 899 3206 mt  946 3206 L
 561 3250 mt 
(-1.96) s
 899 2502 mt  946 2502 L
 561 2546 mt 
(-1.94) s
 899 1797 mt  946 1797 L
 561 1841 mt 
(-1.92) s
 899 1093 mt  946 1093 L
 628 1137 mt 
(-1.9) s
 899  389 mt  946  389 L
 561  433 mt 
(-1.88) s
 899  335 mt 
(x 10) s
%%IncludeResource: font Helvetica
/Helvetica /ISOLatin1Encoding 80 FMSR

1125  261 mt 
(4) s
gs 899 389 4733 4227 MR c np
0 j
gr

gs 2523 1729 2757 2926 MR c np
/c8 { 0.000000 0.750000 1.000000 sr} bdef
c8
  30   30 4301 3671 PO
gr

c8
gs 899 389 4733 4227 MR c np
gr

gs 2523 1729 2757 2926 MR c np
  30   30 4301 3671 PO
gr

gs 899 389 4733 4227 MR c np
gr

gs 2523 1729 2757 2926 MR c np
  30   30 4301 3671 PO
gr

gs 899 389 4733 4227 MR c np
gr

gs 2523 1729 2757 2926 MR c np
  30   30 4301 3671 PO
gr

gs 899 389 4733 4227 MR c np
gr

gs 2523 1729 2757 2926 MR c np
  30   30 4301 3671 PO
gr

gs 899 389 4733 4227 MR c np
gr

gs 2523 1729 2757 2926 MR c np
  30   30 4301 3671 PO
gr

gs 899 389 4733 4227 MR c np
gr

gs 2523 1729 2757 2926 MR c np
  30   30 4139 3498 PO
gr

gs 899 389 4733 4227 MR c np
gr

gs 2523 1729 2757 2926 MR c np
  30   30 4143 3505 PO
gr

gs 899 389 4733 4227 MR c np
gr

gs 2523 1729 2757 2926 MR c np
  30   30 4625 4026 PO
gr

gs 899 389 4733 4227 MR c np
gr

gs 2523 1729 2757 2926 MR c np
  30   30 4625 4026 PO
gr

gs 899 389 4733 4227 MR c np
gr

gs 2523 1729 2757 2926 MR c np
  30   30 4424 3812 PO
gr

gs 899 389 4733 4227 MR c np
gr

gs 2523 1729 2757 2926 MR c np
  30   30 4229 3604 PO
gr

gs 899 389 4733 4227 MR c np
gr

gs 2523 1729 2757 2926 MR c np
  30   30 4229 3604 PO
gr

gs 899 389 4733 4227 MR c np
gr

gs 2523 1729 2757 2926 MR c np
  30   30 3085 2378 PO
gr

gs 899 389 4733 4227 MR c np
gr

gs 2523 1729 2757 2926 MR c np
  30   30 4568 3970 PO
gr

gs 899 389 4733 4227 MR c np
gr

gs 2523 1729 2757 2926 MR c np
  30   30 3886 3241 PO
gr

gs 899 389 4733 4227 MR c np
gr

gs 2523 1729 2757 2926 MR c np
  30   30 3387 2713 PO
gr

gs 899 389 4733 4227 MR c np
gr

gs 2523 1729 2757 2926 MR c np
  30   30 3270 2590 PO
gr

gs 899 389 4733 4227 MR c np
gr

gs 2523 1729 2757 2926 MR c np
/c9 { 0.000000 0.812500 1.000000 sr} bdef
c9
  30   30 4164 3551 PO
gr

c9
gs 899 389 4733 4227 MR c np
gr

gs 2523 1729 2757 2926 MR c np
  30   30 4164 3551 PO
gr

gs 899 389 4733 4227 MR c np
gr

gs 2523 1729 2757 2926 MR c np
  30   30 3110 2424 PO
gr

gs 899 389 4733 4227 MR c np
gr

gs 2523 1729 2757 2926 MR c np
  30   30 4572 3991 PO
gr

gs 899 389 4733 4227 MR c np
gr

gs 2523 1729 2757 2926 MR c np
  30   30 3597 2952 PO
gr

gs 899 389 4733 4227 MR c np
gr

gs 2523 1729 2757 2926 MR c np
  30   30 3597 2952 PO
gr

gs 899 389 4733 4227 MR c np
gr

gs 2523 1729 2757 2926 MR c np
  30   30 3057 2375 PO
gr

gs 899 389 4733 4227 MR c np
gr

gs 2523 1729 2757 2926 MR c np
  30   30 3057 2375 PO
gr

gs 899 389 4733 4227 MR c np
gr

gs 2523 1729 2757 2926 MR c np
  30   30 4699 4136 PO
gr

gs 899 389 4733 4227 MR c np
gr

gs 2523 1729 2757 2926 MR c np
  30   30 4699 4136 PO
gr

gs 899 389 4733 4227 MR c np
gr

gs 2523 1729 2757 2926 MR c np
  30   30 4003 3392 PO
gr

gs 899 389 4733 4227 MR c np
gr

gs 2523 1729 2757 2926 MR c np
  30   30 4003 3392 PO
gr

gs 899 389 4733 4227 MR c np
gr

gs 2523 1729 2757 2926 MR c np
  30   30 3418 2766 PO
gr

gs 899 389 4733 4227 MR c np
gr

gs 2523 1729 2757 2926 MR c np
  30   30 3462 2818 PO
gr

gs 899 389 4733 4227 MR c np
gr

gs 2523 1729 2757 2926 MR c np
  30   30 3462 2818 PO
gr

gs 899 389 4733 4227 MR c np
gr

gs 2523 1729 2757 2926 MR c np
  30   30 3825 3209 PO
gr

gs 899 389 4733 4227 MR c np
gr

gs 2523 1729 2757 2926 MR c np
  30   30 3971 3375 PO
gr

gs 899 389 4733 4227 MR c np
gr

gs 2523 1729 2757 2926 MR c np
  30   30 3568 2949 PO
gr

gs 899 389 4733 4227 MR c np
gr

gs 2523 1729 2757 2926 MR c np
  30   30 3568 2949 PO
gr

gs 899 389 4733 4227 MR c np
gr

gs 2523 1729 2757 2926 MR c np
  30   30 4352 3794 PO
gr

gs 899 389 4733 4227 MR c np
gr

gs 2523 1729 2757 2926 MR c np
  30   30 4352 3794 PO
gr

gs 899 389 4733 4227 MR c np
gr

gs 2523 1729 2757 2926 MR c np
  30   30 3796 3206 PO
gr

gs 899 389 4733 4227 MR c np
gr

gs 2523 1729 2757 2926 MR c np
  30   30 3796 3206 PO
gr

gs 899 389 4733 4227 MR c np
gr

gs 2523 1729 2757 2926 MR c np
  30   30 3796 3206 PO
gr

gs 899 389 4733 4227 MR c np
gr

gs 2523 1729 2757 2926 MR c np
  30   30 3942 3371 PO
gr

gs 899 389 4733 4227 MR c np
gr

gs 2523 1729 2757 2926 MR c np
  30   30 3942 3371 PO
gr

gs 899 389 4733 4227 MR c np
gr

gs 2523 1729 2757 2926 MR c np
  30   30 3942 3371 PO
gr

gs 899 389 4733 4227 MR c np
gr

gs 2523 1729 2757 2926 MR c np
  30   30 3603 3009 PO
gr

gs 899 389 4733 4227 MR c np
gr

gs 2523 1729 2757 2926 MR c np
  30   30 3603 3009 PO
gr

gs 899 389 4733 4227 MR c np
gr

gs 2523 1729 2757 2926 MR c np
  30   30 4323 3790 PO
gr

gs 899 389 4733 4227 MR c np
gr

gs 2523 1729 2757 2926 MR c np
  30   30 4323 3790 PO
gr

gs 899 389 4733 4227 MR c np
gr

gs 2523 1729 2757 2926 MR c np
  30   30 4323 3790 PO
gr

gs 899 389 4733 4227 MR c np
gr

gs 2523 1729 2757 2926 MR c np
  30   30 4323 3790 PO
gr

gs 899 389 4733 4227 MR c np
gr

gs 2523 1729 2757 2926 MR c np
  30   30 3796 3206 PO
gr

gs 899 389 4733 4227 MR c np
gr

gs 2523 1729 2757 2926 MR c np
  30   30 3568 2949 PO
gr

gs 899 389 4733 4227 MR c np
gr

gs 2523 1729 2757 2926 MR c np
c8
  30   30 3415 2716 PO
gr

c8
gs 899 389 4733 4227 MR c np
gr

gs 2523 1729 2757 2926 MR c np
  30   30 3263 2554 PO
gr

gs 899 389 4733 4227 MR c np
gr

gs 2523 1729 2757 2926 MR c np
  30   30 4093 3445 PO
gr

gs 899 389 4733 4227 MR c np
gr

gs 2523 1729 2757 2926 MR c np
c9
  30   30 4200 3600 PO
gr

c9
gs 899 389 4733 4227 MR c np
gr

gs 2523 1729 2757 2926 MR c np
c8
  30   30 3915 3245 PO
gr

c8
gs 899 389 4733 4227 MR c np
gr

gs 2523 1729 2757 2926 MR c np
  30   30 3387 2713 PO
gr

gs 899 389 4733 4227 MR c np
gr

gs 2523 1729 2757 2926 MR c np
c9
  30   30 3597 2952 PO
gr

c9
gs 899 389 4733 4227 MR c np
gr

gs 2523 1729 2757 2926 MR c np
  30   30 3603 3009 PO
gr

gs 899 389 4733 4227 MR c np
gr

gs 2523 1729 2757 2926 MR c np
  30   30 3057 2375 PO
gr

gs 899 389 4733 4227 MR c np
gr

gs 2523 1729 2757 2926 MR c np
  30   30 3942 3371 PO
gr

gs 899 389 4733 4227 MR c np
gr

gs 2523 1729 2757 2926 MR c np
c8
  30   30 3263 2575 PO
gr

c8
gs 899 389 4733 4227 MR c np
gr

gs 2523 1729 2757 2926 MR c np
  30   30 3262 2547 PO
gr

gs 899 389 4733 4227 MR c np
gr

gs 2523 1729 2757 2926 MR c np
c9
  30   30 4700 4157 PO
gr

c9
gs 899 389 4733 4227 MR c np
gr

gs 2523 1729 2757 2926 MR c np
  30   30 4323 3790 PO
gr

gs 899 389 4733 4227 MR c np
gr

gs 2523 1729 2757 2926 MR c np
c8
  30   30 4805 4178 PO
gr

c8
gs 899 389 4733 4227 MR c np
gr

gs 2523 1729 2757 2926 MR c np
  30   30 3263 2554 PO
gr

gs 899 389 4733 4227 MR c np
gr

gs 2523 1729 2757 2926 MR c np
  30   30 3703 3012 PO
gr

gs 899 389 4733 4227 MR c np
gr

gs 2523 1729 2757 2926 MR c np
  30   30 4260 3625 PO
gr

gs 899 389 4733 4227 MR c np
gr

gs 2523 1729 2757 2926 MR c np
  30   30 4098 3452 PO
gr

gs 899 389 4733 4227 MR c np
gr

gs 2523 1729 2757 2926 MR c np
  30   30 4139 3498 PO
gr

gs 899 389 4733 4227 MR c np
gr

gs 2523 1729 2757 2926 MR c np
  30   30 3721 3030 PO
gr

gs 899 389 4733 4227 MR c np
gr

gs 2523 1729 2757 2926 MR c np
c9
  30   30 3728 3086 PO
gr

c9
gs 899 389 4733 4227 MR c np
gr

gs 2523 1729 2757 2926 MR c np
  30   30 3462 2818 PO
gr

gs 899 389 4733 4227 MR c np
gr

gs 2523 1729 2757 2926 MR c np
  30   30 3794 3185 PO
gr

gs 899 389 4733 4227 MR c np
gr

gs 2523 1729 2757 2926 MR c np
c8
  30   30 4093 3445 PO
gr

c8
gs 899 389 4733 4227 MR c np
gr

gs 2523 1729 2757 2926 MR c np
  30   30 3262 2547 PO
gr

gs 899 389 4733 4227 MR c np
gr

gs 2523 1729 2757 2926 MR c np
  30   30 3263 2575 PO
gr

gs 899 389 4733 4227 MR c np
gr

gs 2523 1729 2757 2926 MR c np
  30   30 3562 2843 PO
gr

gs 899 389 4733 4227 MR c np
gr

gs 2523 1729 2757 2926 MR c np
  30   30 4143 3505 PO
gr

gs 899 389 4733 4227 MR c np
gr

gs 2523 1729 2757 2926 MR c np
  30   30 3085 2378 PO
gr

gs 899 389 4733 4227 MR c np
gr

gs 2523 1729 2757 2926 MR c np
  30   30 4139 3498 PO
gr

gs 899 389 4733 4227 MR c np
gr

gs 2523 1729 2757 2926 MR c np
  30   30 4093 3424 PO
gr

gs 899 389 4733 4227 MR c np
gr

gs 2523 1729 2757 2926 MR c np
  30   30 4197 3579 PO
gr

gs 899 389 4733 4227 MR c np
gr

gs 2523 1729 2757 2926 MR c np
  30   30 3919 3287 PO
gr

gs 899 389 4733 4227 MR c np
gr

gs 2523 1729 2757 2926 MR c np
c9
  30   30 3461 2797 PO
gr

c9
gs 899 389 4733 4227 MR c np
gr

gs 2523 1729 2757 2926 MR c np
c8
  30   30 3242 2530 PO
gr

c8
gs 899 389 4733 4227 MR c np
gr

gs 2523 1729 2757 2926 MR c np
  30   30 4098 3452 PO
gr

gs 899 389 4733 4227 MR c np
gr

gs 2523 1729 2757 2926 MR c np
  30   30 3382 2656 PO
gr

gs 899 389 4733 4227 MR c np
gr

gs 2523 1729 2757 2926 MR c np
  30   30 4464 3819 PO
gr

gs 899 389 4733 4227 MR c np
gr

gs 2523 1729 2757 2926 MR c np
  30   30 3752 3104 PO
gr

gs 899 389 4733 4227 MR c np
gr

gs 2523 1729 2757 2926 MR c np
c9
  30   30 3418 2766 PO
gr

c9
gs 899 389 4733 4227 MR c np
gr

gs 2523 1729 2757 2926 MR c np
c8
  30   30 4123 3470 PO
gr

c8
gs 899 389 4733 4227 MR c np
gr

gs 2523 1729 2757 2926 MR c np
  30   30 4260 3625 PO
gr

gs 899 389 4733 4227 MR c np
gr

gs 2523 1729 2757 2926 MR c np
  30   30 4229 3604 PO
gr

gs 899 389 4733 4227 MR c np
gr

gs 2523 1729 2757 2926 MR c np
c9
  30   30 3971 3375 PO
gr

c9
gs 899 389 4733 4227 MR c np
gr

gs 2523 1729 2757 2926 MR c np
  30   30 3933 3315 PO
gr

gs 899 389 4733 4227 MR c np
gr

gs 2523 1729 2757 2926 MR c np
  30   30 4572 3991 PO
gr

gs 899 389 4733 4227 MR c np
gr

gs 2523 1729 2757 2926 MR c np
c8
  30   30 4822 4213 PO
gr

c8
gs 899 389 4733 4227 MR c np
gr

gs 2523 1729 2757 2926 MR c np
c9
  30   30 3767 3160 PO
gr

c9
gs 899 389 4733 4227 MR c np
gr

gs 2523 1729 2757 2926 MR c np
c8
  30   30 4822 4213 PO
gr

c8
gs 899 389 4733 4227 MR c np
gr

gs 2523 1729 2757 2926 MR c np
  30   30 4674 4044 PO
gr

gs 899 389 4733 4227 MR c np
gr

gs 2523 1729 2757 2926 MR c np
  30   30 4262 3628 PO
gr

gs 899 389 4733 4227 MR c np
gr

gs 2523 1729 2757 2926 MR c np
  30   30 3566 2885 PO
gr

gs 899 389 4733 4227 MR c np
gr

gs 2523 1729 2757 2926 MR c np
  30   30 4262 3628 PO
gr

gs 899 389 4733 4227 MR c np
gr

gs 2523 1729 2757 2926 MR c np
  30   30 3242 2530 PO
gr

gs 899 389 4733 4227 MR c np
gr

gs 2523 1729 2757 2926 MR c np
  30   30 3270 2590 PO
gr

gs 899 389 4733 4227 MR c np
gr

gs 2523 1729 2757 2926 MR c np
c9
  30   30 4699 4136 PO
gr

c9
gs 899 389 4733 4227 MR c np
gr

gs 2523 1729 2757 2926 MR c np
c8
  30   30 4301 3671 PO
gr

c8
gs 899 389 4733 4227 MR c np
gr

gs 2523 1729 2757 2926 MR c np
c9
  30   30 3971 3375 PO
gr

c9
gs 899 389 4733 4227 MR c np
gr

gs 2523 1729 2757 2926 MR c np
c8
  30   30 3227 2505 PO
gr

c8
gs 899 389 4733 4227 MR c np
gr

gs 2523 1729 2757 2926 MR c np
c9
  30   30 4352 3794 PO
gr

c9
gs 899 389 4733 4227 MR c np
gr

gs 2523 1729 2757 2926 MR c np
c8
  30   30 4143 3505 PO
gr

c8
gs 899 389 4733 4227 MR c np
gr

gs 2523 1729 2757 2926 MR c np
  30   30 4775 4174 PO
gr

gs 899 389 4733 4227 MR c np
gr

gs 2523 1729 2757 2926 MR c np
c9
  30   30 3794 3185 PO
gr

c9
gs 899 389 4733 4227 MR c np
gr

gs 2523 1729 2757 2926 MR c np
  30   30 4164 3551 PO
gr

gs 899 389 4733 4227 MR c np
gr

gs 2523 1729 2757 2926 MR c np
c8
  30   30 4229 3604 PO
gr

c8
gs 899 389 4733 4227 MR c np
gr

gs 2523 1729 2757 2926 MR c np
c9
  30   30 4200 3600 PO
gr

c9
gs 899 389 4733 4227 MR c np
gr

gs 2523 1729 2757 2926 MR c np
  30   30 3796 3206 PO
gr

gs 899 389 4733 4227 MR c np
gr

gs 2523 1729 2757 2926 MR c np
c8
  30   30 4123 3470 PO
gr

c8
gs 899 389 4733 4227 MR c np
gr

gs 2523 1729 2757 2926 MR c np
  30   30 4197 3579 PO
gr

gs 899 389 4733 4227 MR c np
gr

gs 2523 1729 2757 2926 MR c np
  30   30 3204 2456 PO
gr

gs 899 389 4733 4227 MR c np
gr

gs 2523 1729 2757 2926 MR c np
  30   30 3919 3287 PO
gr

gs 899 389 4733 4227 MR c np
gr

gs 2523 1729 2757 2926 MR c np
c9
  30   30 3110 2424 PO
gr

c9
gs 899 389 4733 4227 MR c np
gr

gs 2523 1729 2757 2926 MR c np
c8
  30   30 4828 4234 PO
gr

c8
gs 899 389 4733 4227 MR c np
gr

gs 2523 1729 2757 2926 MR c np
  30   30 4424 3812 PO
gr

gs 899 389 4733 4227 MR c np
gr

gs 2523 1729 2757 2926 MR c np
c9
  30   30 4307 3734 PO
gr

c9
gs 899 389 4733 4227 MR c np
gr

gs 2523 1729 2757 2926 MR c np
c8
  30   30 3886 3241 PO
gr

c8
gs 899 389 4733 4227 MR c np
gr

gs 2523 1729 2757 2926 MR c np
c9
  30   30 3825 3209 PO
gr

c9
gs 899 389 4733 4227 MR c np
gr

gs 2523 1729 2757 2926 MR c np
c8
  30   30 3357 2628 PO
gr

c8
gs 899 389 4733 4227 MR c np
gr

gs 2523 1729 2757 2926 MR c np
  30   30 3227 2505 PO
gr

gs 899 389 4733 4227 MR c np
gr

gs 2523 1729 2757 2926 MR c np
c9
  30   30 4003 3392 PO
gr

c9
gs 899 389 4733 4227 MR c np
gr

gs 2523 1729 2757 2926 MR c np
c8
  30   30 2914 2167 PO
gr

c8
gs 899 389 4733 4227 MR c np
gr

gs 2523 1729 2757 2926 MR c np
c9
  30   30 3461 2797 PO
gr

c9
gs 899 389 4733 4227 MR c np
gr

gs 2523 1729 2757 2926 MR c np
c8
  30   30 4805 4178 PO
gr

c8
gs 899 389 4733 4227 MR c np
gr

gs 2523 1729 2757 2926 MR c np
  30   30 3566 2885 PO
gr

gs 899 389 4733 4227 MR c np
gr

gs 2523 1729 2757 2926 MR c np
  30   30 3886 3241 PO
gr

gs 899 389 4733 4227 MR c np
gr

gs 2523 1729 2757 2926 MR c np
c9
  30   30 3825 3209 PO
gr

c9
gs 899 389 4733 4227 MR c np
gr

gs 2523 1729 2757 2926 MR c np
  30   30 3933 3315 PO
gr

gs 899 389 4733 4227 MR c np
gr

gs 2523 1729 2757 2926 MR c np
c8
  30   30 3915 3245 PO
gr

c8
gs 899 389 4733 4227 MR c np
gr

gs 2523 1729 2757 2926 MR c np
  30   30 4625 4026 PO
gr

gs 899 389 4733 4227 MR c np
gr

gs 2523 1729 2757 2926 MR c np
  30   30 3721 3030 PO
gr

gs 899 389 4733 4227 MR c np
gr

gs 2523 1729 2757 2926 MR c np
  30   30 3085 2378 PO
gr

gs 899 389 4733 4227 MR c np
gr

gs 2523 1729 2757 2926 MR c np
c9
  30   30 4572 3991 PO
gr

c9
gs 899 389 4733 4227 MR c np
gr

gs 2523 1729 2757 2926 MR c np
c8
  30   30 3415 2716 PO
gr

c8
gs 899 389 4733 4227 MR c np
gr

gs 2523 1729 2757 2926 MR c np
c9
  30   30 4352 3794 PO
gr

c9
gs 899 389 4733 4227 MR c np
gr

gs 2523 1729 2757 2926 MR c np
  30   30 4164 3551 PO
gr

gs 899 389 4733 4227 MR c np
gr

gs 2523 1729 2757 2926 MR c np
  30   30 4307 3734 PO
gr

gs 899 389 4733 4227 MR c np
gr

gs 2523 1729 2757 2926 MR c np
c8
  30   30 3752 3104 PO
gr

c8
gs 899 389 4733 4227 MR c np
gr

gs 2523 1729 2757 2926 MR c np
c9
  30   30 3728 3086 PO
gr

c9
gs 899 389 4733 4227 MR c np
gr

gs 2523 1729 2757 2926 MR c np
c8
  30   30 3382 2656 PO
gr

c8
gs 899 389 4733 4227 MR c np
gr

gs 2523 1729 2757 2926 MR c np
  30   30 4775 4174 PO
gr

gs 899 389 4733 4227 MR c np
gr

gs 2523 1729 2757 2926 MR c np
  30   30 4424 3812 PO
gr

gs 899 389 4733 4227 MR c np
gr

gs 2523 1729 2757 2926 MR c np
  30   30 4828 4234 PO
gr

gs 899 389 4733 4227 MR c np
gr

gs 2523 1729 2757 2926 MR c np
c9
  30   30 3767 3160 PO
gr

c9
gs 899 389 4733 4227 MR c np
gr

gs 2523 1729 2757 2926 MR c np
  30   30 3057 2375 PO
gr

gs 899 389 4733 4227 MR c np
gr

gs 2523 1729 2757 2926 MR c np
c8
  30   30 3387 2713 PO
gr

c8
gs 899 389 4733 4227 MR c np
gr

gs 2523 1729 2757 2926 MR c np
c9
  30   30 3597 2952 PO
gr

c9
gs 899 389 4733 4227 MR c np
gr

gs 2523 1729 2757 2926 MR c np
  30   30 3942 3371 PO
gr

gs 899 389 4733 4227 MR c np
gr

gs 2523 1729 2757 2926 MR c np
c8
  30   30 4625 4026 PO
gr

c8
gs 899 389 4733 4227 MR c np
gr

gs 2523 1729 2757 2926 MR c np
c9
  30   30 4323 3790 PO
gr

c9
gs 899 389 4733 4227 MR c np
gr

gs 2523 1729 2757 2926 MR c np
c8
  30   30 2914 2167 PO
gr

c8
gs 899 389 4733 4227 MR c np
gr

gs 2523 1729 2757 2926 MR c np
c9
  30   30 4699 4136 PO
gr

c9
gs 899 389 4733 4227 MR c np
gr

gs 2523 1729 2757 2926 MR c np
  30   30 3568 2949 PO
gr

gs 899 389 4733 4227 MR c np
gr

gs 2523 1729 2757 2926 MR c np
c8
  30   30 4464 3819 PO
gr

c8
gs 899 389 4733 4227 MR c np
gr

gs 2523 1729 2757 2926 MR c np
c9
  30   30 3418 2766 PO
gr

c9
gs 899 389 4733 4227 MR c np
gr

gs 2523 1729 2757 2926 MR c np
  30   30 4700 4157 PO
gr

gs 899 389 4733 4227 MR c np
gr

gs 2523 1729 2757 2926 MR c np
c8
  30   30 4568 3970 PO
gr

c8
gs 899 389 4733 4227 MR c np
gr

gs 2523 1729 2757 2926 MR c np
  30   30 4568 3970 PO
gr

gs 899 389 4733 4227 MR c np
gr

gs 2523 1729 2757 2926 MR c np
  30   30 4301 3671 PO
gr

gs 899 389 4733 4227 MR c np
gr

gs 2523 1729 2757 2926 MR c np
  30   30 3270 2590 PO
gr

gs 899 389 4733 4227 MR c np
gr

gs 2523 1729 2757 2926 MR c np
c9
  30   30 4003 3392 PO
gr

c9
gs 899 389 4733 4227 MR c np
gr

gs 2523 1729 2757 2926 MR c np
c8
  30   30 3049 2318 PO
gr

c8
gs 899 389 4733 4227 MR c np
gr

gs 2523 1729 2757 2926 MR c np
  30   30 4093 3424 PO
gr

gs 899 389 4733 4227 MR c np
gr

gs 2523 1729 2757 2926 MR c np
  30   30 3357 2628 PO
gr

gs 899 389 4733 4227 MR c np
gr

gs 2523 1729 2757 2926 MR c np
  30   30 3703 3012 PO
gr

gs 899 389 4733 4227 MR c np
gr

gs 2523 1729 2757 2926 MR c np
  30   30 4489 3871 PO
gr

gs 899 389 4733 4227 MR c np
gr

gs 2523 1729 2757 2926 MR c np
c9
  30   30 3462 2818 PO
gr

c9
gs 899 389 4733 4227 MR c np
gr

gs 2523 1729 2757 2926 MR c np
c8
  30   30 2964 2213 PO
gr

c8
gs 899 389 4733 4227 MR c np
gr

gs 2523 1729 2757 2926 MR c np
  30   30 4489 3871 PO
gr

gs 899 389 4733 4227 MR c np
gr

gs 2523 1729 2757 2926 MR c np
  30   30 4674 4044 PO
gr

gs 899 389 4733 4227 MR c np
gr

gs 2523 1729 2757 2926 MR c np
c9
  30   30 3110 2424 PO
gr

c9
gs 899 389 4733 4227 MR c np
gr

gs 2523 1729 2757 2926 MR c np
c8
  30   30 3049 2318 PO
gr

c8
gs 899 389 4733 4227 MR c np
gr

gs 2523 1729 2757 2926 MR c np
  30   30 3562 2843 PO
gr

gs 899 389 4733 4227 MR c np
gr

gs 2523 1729 2757 2926 MR c np
  30   30 3204 2456 PO
gr

gs 899 389 4733 4227 MR c np
gr

gs 2523 1729 2757 2926 MR c np
  30   30 2964 2213 PO
gr

gs 899 389 4733 4227 MR c np
gr

gs 2523 1729 2757 2926 MR c np
c9
  30   30 3603 3009 PO
gr

c9
gs 899 389 4733 4227 MR c np
gr

gs 2523 1729 2757 2926 MR c np
c8
  30   30 2895 2128 PO
gr

c8
gs 899 389 4733 4227 MR c np
gr

gs 2523 1729 2757 2926 MR c np
  30   30 2895 2128 PO
gr

gs 899 389 4733 4227 MR c np
gr

gs 2523 1729 2757 2926 MR c np
  30   30 5141 4576 PO
gr

gs 899 389 4733 4227 MR c np
gr

gs 2523 1729 2757 2926 MR c np
  30   30 4888 4287 PO
gr

gs 899 389 4733 4227 MR c np
gr

gs 2523 1729 2757 2926 MR c np
  30   30 2751 1980 PO
gr

gs 899 389 4733 4227 MR c np
gr

gs 2523 1729 2757 2926 MR c np
  30   30 2751 1980 PO
gr

gs 899 389 4733 4227 MR c np
gr

gs 2523 1729 2757 2926 MR c np
  30   30 4888 4287 PO
gr

gs 899 389 4733 4227 MR c np
gr

gs 2523 1729 2757 2926 MR c np
  30   30 5141 4576 PO
gr

gs 899 389 4733 4227 MR c np
gr

gs 2523 1729 2757 2926 MR c np
  30   30 2584 1790 PO
gr

gs 899 389 4733 4227 MR c np
gr

gs 2523 1729 2757 2926 MR c np
  30   30 2584 1790 PO
gr

gs 899 389 4733 4227 MR c np
gr

gs 2523 1729 2757 2926 MR c np
  30   30 5218 4593 PO
gr

gs 899 389 4733 4227 MR c np
gr

0 sg
%%IncludeResource: font Helvetica
/Helvetica /ISOLatin1Encoding 120 FMSR

3131 4903 mt 
(Time) s
 479 2643 mt  -90 rotate
(Profit) s
90 rotate
2220  294 mt 
(eil51_n150_bounded-strongly-corr_01) s
 882 4658 mt 
( ) s
5615  431 mt 
( ) s
%%IncludeResource: font Symbol
/Symbol /ISOLatin1Encoding 120 FMSR

4458 3840 mt 
(\254) s
%%IncludeResource: font Helvetica
/Helvetica /ISOLatin1Encoding 120 FMSR

4576 3840 mt 
( EMO \(7205\)) s
gs 899 389 4733 4227 MR c np
0 j
gs 2874 641 123 123 MR c np
30 39 -30 39 -30 -39 30 -39 2935 741 5 MP
/c10 { 0.000000 0.000000 0.562500 sr} bdef
c10
PP
gr

c10
gr

c10
0 sg
%%IncludeResource: font Symbol
/Symbol /ISOLatin1Encoding 120 FMSR

3070  752 mt 
(\254) s
%%IncludeResource: font Helvetica
/Helvetica /ISOLatin1Encoding 120 FMSR

3188  752 mt 
( S5 \(6750\)) s
gs 899 389 4733 4227 MR c np
0 j
gs 1394 3955 123 123 MR c np
0 -48 -48 0 0 48 48 0 1431 3992 5 MP
/c11 { 0.500000 0.000000 0.000000 sr} bdef
c11
PP
gr

c11
gr

c11
0 sg
%%IncludeResource: font Symbol
/Symbol /ISOLatin1Encoding 120 FMSR

1590 4066 mt 
(\254) s
%%IncludeResource: font Helvetica
/Helvetica /ISOLatin1Encoding 120 FMSR

1708 4066 mt 
( MA2B \(8141\)) s
1 sg
0 4227 240 0 0 -4227 5811 4616 4 MP
PP
-240 0 0 4227 240 0 0 -4227 5811 4616 5 MP stroke
0 sg
6492 2790 mt  -90 rotate
(TTP Score) s
90 rotate
gs 5811 389 241 4228 MR c np
gs np 5811 389 mt 0 4227 rl 240 0 rl 0 -4227 rl cp c np
[240 0 0 4227 5811 389] cc
/picstr 1 string def
1 64 8 [1.000000 0 0 64.000000 0 0] L1i
262B2F34393E42474C555F68727B848E97A1AAB3BDC6D0D9E2DFDCD9D6D3D0CDCAC7C4C1BEBBB8B5
B2A99F968C837A70675D544B41382E251C1A18161513110F
gr
gr

4 w
DO
SO
6 w
5811 4616 mt 6051 4616 L
5811  389 mt 6051  389 L
5811 4616 mt 5811  389 L
6051 4616 mt 6051  389 L
5811 4616 mt 6051 4616 L
6051 4616 mt 6051  389 L
6051 4464 mt 6008 4464 L
5811 4464 mt 5853 4464 L
6085 4508 mt 
(6800) s
6051 3856 mt 6008 3856 L
5811 3856 mt 5853 3856 L
6085 3900 mt 
(7000) s
6051 3249 mt 6008 3249 L
5811 3249 mt 5853 3249 L
6085 3293 mt 
(7200) s
6051 2641 mt 6008 2641 L
5811 2641 mt 5853 2641 L
6085 2685 mt 
(7400) s
6051 2033 mt 6008 2033 L
5811 2033 mt 5853 2033 L
6085 2077 mt 
(7600) s
6051 1426 mt 6008 1426 L
5811 1426 mt 5853 1426 L
6085 1470 mt 
(7800) s
6051  818 mt 6008  818 L
5811  818 mt 5853  818 L
6085  862 mt 
(8000) s
5811 4616 mt 6051 4616 L
5811  389 mt 6051  389 L
5811 4616 mt 5811  389 L
6051 4616 mt 6051  389 L

end %%Color Dict

eplot
%%EndObject

epage
end

showpage

%%Trailer
%%EOF
