%!PS-Adobe-2.0 EPSF-1.2
%%Creator: MATLAB, The MathWorks, Inc. Version 8.1.0.604 (R2013a). Operating System: Linux 3.14.27-100.fc19.x86_64 #1 SMP Wed Dec 17 19:36:34 UTC 2014 x86_64.
%%Title: ./eil51_n150_bounded-strongly-corr_01.eps
%%CreationDate: 11/14/2016  18:01:59
%%DocumentNeededFonts: Helvetica
%%DocumentProcessColors: Cyan Magenta Yellow Black
%%Pages: 1
%%BoundingBox:    52   199   567   602
%%EndComments

%%BeginProlog
% MathWorks dictionary
/MathWorks 160 dict begin
% definition operators
/bdef {bind def} bind def
/ldef {load def} bind def
/xdef {exch def} bdef
/xstore {exch store} bdef
% operator abbreviations
/c  /clip ldef
/cc /concat ldef
/cp /closepath ldef
/gr /grestore ldef
/gs /gsave ldef
/mt /moveto ldef
/np /newpath ldef
/cm /currentmatrix ldef
/sm /setmatrix ldef
/rm /rmoveto ldef
/rl /rlineto ldef
/s {show newpath} bdef
/sc {setcmykcolor} bdef
/sr /setrgbcolor ldef
/sg /setgray ldef
/w /setlinewidth ldef
/j /setlinejoin ldef
/cap /setlinecap ldef
/rc {rectclip} bdef
/rf {rectfill} bdef
% page state control
/pgsv () def
/bpage {/pgsv save def} bdef
/epage {pgsv restore} bdef
/bplot /gsave ldef
/eplot {stroke grestore} bdef
% orientation switch
/portraitMode 0 def /landscapeMode 1 def /rotateMode 2 def
% coordinate system mappings
/dpi2point 0 def
% font control
/FontSize 0 def
/FMS {/FontSize xstore findfont [FontSize 0 0 FontSize neg 0 0]
  makefont setfont} bdef
/reencode {exch dup where {pop load} {pop StandardEncoding} ifelse
  exch dup 3 1 roll findfont dup length dict begin
  { 1 index /FID ne {def}{pop pop} ifelse } forall
  /Encoding exch def currentdict end definefont pop} bdef
/isroman {findfont /CharStrings get /Agrave known} bdef
/FMSR {3 1 roll 1 index dup isroman {reencode} {pop pop} ifelse
  exch FMS} bdef
/csm {1 dpi2point div -1 dpi2point div scale neg translate
 dup landscapeMode eq {pop -90 rotate}
  {rotateMode eq {90 rotate} if} ifelse} bdef
% line types: solid, dotted, dashed, dotdash
/SO { [] 0 setdash } bdef
/DO { [.5 dpi2point mul 4 dpi2point mul] 0 setdash } bdef
/DA { [6 dpi2point mul] 0 setdash } bdef
/DD { [.5 dpi2point mul 4 dpi2point mul 6 dpi2point mul 4
  dpi2point mul] 0 setdash } bdef
% macros for lines and objects
/L {lineto stroke} bdef
/MP {3 1 roll moveto 1 sub {rlineto} repeat} bdef
/AP {{rlineto} repeat} bdef
/PDlw -1 def
/W {/PDlw currentlinewidth def setlinewidth} def
/PP {closepath eofill} bdef
/DP {closepath stroke} bdef
/MR {4 -2 roll moveto dup  0 exch rlineto exch 0 rlineto
  neg 0 exch rlineto closepath} bdef
/FR {MR stroke} bdef
/PR {MR fill} bdef
/L1i {{currentfile picstr readhexstring pop} image} bdef
/tMatrix matrix def
/MakeOval {newpath tMatrix currentmatrix pop translate scale
0 0 1 0 360 arc tMatrix setmatrix} bdef
/FO {MakeOval stroke} bdef
/PO {MakeOval fill} bdef
/PD {currentlinewidth 2 div 0 360 arc fill
   PDlw -1 eq not {PDlw w /PDlw -1 def} if} def
/FA {newpath tMatrix currentmatrix pop translate scale
  0 0 1 5 -2 roll arc tMatrix setmatrix stroke} bdef
/PA {newpath tMatrix currentmatrix pop	translate 0 0 moveto scale
  0 0 1 5 -2 roll arc closepath tMatrix setmatrix fill} bdef
/FAn {newpath tMatrix currentmatrix pop translate scale
  0 0 1 5 -2 roll arcn tMatrix setmatrix stroke} bdef
/PAn {newpath tMatrix currentmatrix pop translate 0 0 moveto scale
  0 0 1 5 -2 roll arcn closepath tMatrix setmatrix fill} bdef
/vradius 0 def /hradius 0 def /lry 0 def
/lrx 0 def /uly 0 def /ulx 0 def /rad 0 def
/MRR {/vradius xdef /hradius xdef /lry xdef /lrx xdef /uly xdef
  /ulx xdef newpath tMatrix currentmatrix pop ulx hradius add uly
  vradius add translate hradius vradius scale 0 0 1 180 270 arc 
  tMatrix setmatrix lrx hradius sub uly vradius add translate
  hradius vradius scale 0 0 1 270 360 arc tMatrix setmatrix
  lrx hradius sub lry vradius sub translate hradius vradius scale
  0 0 1 0 90 arc tMatrix setmatrix ulx hradius add lry vradius sub
  translate hradius vradius scale 0 0 1 90 180 arc tMatrix setmatrix
  closepath} bdef
/FRR {MRR stroke } bdef
/PRR {MRR fill } bdef
/MlrRR {/lry xdef /lrx xdef /uly xdef /ulx xdef /rad lry uly sub 2 div def
  newpath tMatrix currentmatrix pop ulx rad add uly rad add translate
  rad rad scale 0 0 1 90 270 arc tMatrix setmatrix lrx rad sub lry rad
  sub translate rad rad scale 0 0 1 270 90 arc tMatrix setmatrix
  closepath} bdef
/FlrRR {MlrRR stroke } bdef
/PlrRR {MlrRR fill } bdef
/MtbRR {/lry xdef /lrx xdef /uly xdef /ulx xdef /rad lrx ulx sub 2 div def
  newpath tMatrix currentmatrix pop ulx rad add uly rad add translate
  rad rad scale 0 0 1 180 360 arc tMatrix setmatrix lrx rad sub lry rad
  sub translate rad rad scale 0 0 1 0 180 arc tMatrix setmatrix
  closepath} bdef
/FtbRR {MtbRR stroke } bdef
/PtbRR {MtbRR fill } bdef
/stri 6 array def /dtri 6 array def
/smat 6 array def /dmat 6 array def
/tmat1 6 array def /tmat2 6 array def /dif 3 array def
/asub {/ind2 exch def /ind1 exch def dup dup
  ind1 get exch ind2 get sub exch } bdef
/tri_to_matrix {
  2 0 asub 3 1 asub 4 0 asub 5 1 asub
  dup 0 get exch 1 get 7 -1 roll astore } bdef
/compute_transform {
  dmat dtri tri_to_matrix tmat1 invertmatrix 
  smat stri tri_to_matrix tmat2 concatmatrix } bdef
/ds {stri astore pop} bdef
/dt {dtri astore pop} bdef
/db {2 copy /cols xdef /rows xdef mul dup string
  currentfile exch readhexstring pop
  /bmap xdef pop pop} bdef
/it {gs np dtri aload pop moveto lineto lineto cp c
  cols rows 8 compute_transform 
  {bmap} image gr}bdef
/il {newpath moveto lineto stroke}bdef
currentdict end def
%%EndProlog

%%BeginSetup
MathWorks begin

0 cap

end
%%EndSetup

%%Page: 1 1
%%BeginPageSetup
%%PageBoundingBox:    52   199   567   602
MathWorks begin
bpage
%%EndPageSetup

%%BeginObject: obj1
bplot

/dpi2point 12 def
portraitMode 0216 7344 csm

  410   110  6182  4845 MR c np
85 dict begin %Colortable dictionary
/c0 { 0.000000 0.000000 0.000000 sr} bdef
/c1 { 1.000000 1.000000 1.000000 sr} bdef
/c2 { 0.900000 0.000000 0.000000 sr} bdef
/c3 { 0.000000 0.820000 0.000000 sr} bdef
/c4 { 0.000000 0.000000 0.800000 sr} bdef
/c5 { 0.910000 0.820000 0.320000 sr} bdef
/c6 { 1.000000 0.260000 0.820000 sr} bdef
/c7 { 0.000000 0.820000 0.820000 sr} bdef
c0
1 j
1 sg
   0    0 6913 5186 PR
6 w
0 4226 4732 0 0 -4226 899 4615 4 MP
PP
-4732 0 0 4226 4732 0 0 -4226 899 4615 5 MP stroke
4 w
DO
SO
6 w
0 sg
 899 4615 mt 5631 4615 L
 899 4615 mt  899  389 L
 899 4615 mt  899 4567 L
%%IncludeResource: font Helvetica
/Helvetica /ISOLatin1Encoding 120 FMSR

 799 4760 mt 
(450) s
1490 4615 mt 1490 4567 L
1390 4760 mt 
(500) s
2082 4615 mt 2082 4567 L
1982 4760 mt 
(550) s
2673 4615 mt 2673 4567 L
2573 4760 mt 
(600) s
3265 4615 mt 3265 4567 L
3165 4760 mt 
(650) s
3856 4615 mt 3856 4567 L
3756 4760 mt 
(700) s
4448 4615 mt 4448 4567 L
4348 4760 mt 
(750) s
5039 4615 mt 5039 4567 L
4939 4760 mt 
(800) s
5631 4615 mt 5631 4567 L
5531 4760 mt 
(850) s
 899 4615 mt  946 4615 L
 628 4659 mt 
(-2.2) s
 899 3910 mt  946 3910 L
 728 3954 mt 
(-2) s
 899 3206 mt  946 3206 L
 628 3250 mt 
(-1.8) s
 899 2502 mt  946 2502 L
 628 2546 mt 
(-1.6) s
 899 1797 mt  946 1797 L
 628 1841 mt 
(-1.4) s
 899 1093 mt  946 1093 L
 628 1137 mt 
(-1.2) s
 899  389 mt  946  389 L
 728  433 mt 
(-1) s
 899  335 mt 
(x 10) s
%%IncludeResource: font Helvetica
/Helvetica /ISOLatin1Encoding 80 FMSR

1125  261 mt 
(4) s
gs 899 389 4733 4227 MR c np
0 j
gr

gs 952 526 4713 3881 MR c np
/c8 { 1.000000 0.375000 0.000000 sr} bdef
c8
  30   30 3666 4159 PO
gr

c8
gs 899 389 4733 4227 MR c np
gr

gs 952 526 4713 3881 MR c np
/c9 { 0.687500 0.000000 0.000000 sr} bdef
c9
  30   30 2034 3607 PO
gr

c9
gs 899 389 4733 4227 MR c np
gr

gs 952 526 4713 3881 MR c np
/c10 { 1.000000 0.000000 0.000000 sr} bdef
c10
  30   30 1562 3102 PO
gr

c10
gs 899 389 4733 4227 MR c np
gr

gs 952 526 4713 3881 MR c np
/c11 { 1.000000 1.000000 0.000000 sr} bdef
c11
  30   30 4467 4256 PO
gr

c11
gs 899 389 4733 4227 MR c np
gr

gs 952 526 4713 3881 MR c np
/c12 { 1.000000 0.312500 0.000000 sr} bdef
c12
  30   30 3484 4095 PO
gr

c12
gs 899 389 4733 4227 MR c np
gr

gs 952 526 4713 3881 MR c np
/c13 { 1.000000 0.062500 0.000000 sr} bdef
c13
  30   30 2678 3937 PO
gr

c13
gs 899 389 4733 4227 MR c np
gr

gs 952 526 4713 3881 MR c np
c9
  30   30 1976 3563 PO
gr

c9
gs 899 389 4733 4227 MR c np
gr

gs 952 526 4713 3881 MR c np
c13
  30   30 1533 3068 PO
gr

c13
gs 899 389 4733 4227 MR c np
gr

gs 952 526 4713 3881 MR c np
/c14 { 0.812500 1.000000 0.187500 sr} bdef
c14
  30   30 3433 4068 PO
gr

c14
gs 899 389 4733 4227 MR c np
gr

gs 952 526 4713 3881 MR c np
c9
  30   30 1936 3529 PO
gr

c9
gs 899 389 4733 4227 MR c np
gr

gs 952 526 4713 3881 MR c np
/c15 { 0.812500 0.000000 0.000000 sr} bdef
c15
  30   30 1756 3351 PO
gr

c15
gs 899 389 4733 4227 MR c np
gr

gs 952 526 4713 3881 MR c np
c9
  30   30 2203 3709 PO
gr

c9
gs 899 389 4733 4227 MR c np
gr

gs 952 526 4713 3881 MR c np
/c16 { 1.000000 0.187500 0.000000 sr} bdef
c16
  30   30 1485 2958 PO
gr

c16
gs 899 389 4733 4227 MR c np
gr

gs 952 526 4713 3881 MR c np
c9
  30   30 1914 3509 PO
gr

c9
gs 899 389 4733 4227 MR c np
gr

gs 952 526 4713 3881 MR c np
c10
  30   30 2502 3851 PO
gr

c10
gs 899 389 4733 4227 MR c np
gr

gs 952 526 4713 3881 MR c np
c13
  30   30 1516 3042 PO
gr

c13
gs 899 389 4733 4227 MR c np
gr

gs 952 526 4713 3881 MR c np
c15
  30   30 1871 3473 PO
gr

c15
gs 899 389 4733 4227 MR c np
gr

gs 952 526 4713 3881 MR c np
c13
  30   30 1516 3042 PO
gr

c13
gs 899 389 4733 4227 MR c np
gr

gs 952 526 4713 3881 MR c np
/c17 { 1.000000 0.812500 0.000000 sr} bdef
c17
  30   30 3489 4095 PO
gr

c17
gs 899 389 4733 4227 MR c np
gr

gs 952 526 4713 3881 MR c np
c12
  30   30 3522 4097 PO
gr

c12
gs 899 389 4733 4227 MR c np
gr

gs 952 526 4713 3881 MR c np
c15
  30   30 1731 3318 PO
gr

c15
gs 899 389 4733 4227 MR c np
gr

gs 952 526 4713 3881 MR c np
c9
  30   30 2424 3843 PO
gr

c9
gs 899 389 4733 4227 MR c np
gr

gs 952 526 4713 3881 MR c np
/c18 { 0.750000 0.000000 0.000000 sr} bdef
c18
  30   30 2605 3917 PO
gr

c18
gs 899 389 4733 4227 MR c np
gr

gs 952 526 4713 3881 MR c np
c12
  30   30 3522 4097 PO
gr

c12
gs 899 389 4733 4227 MR c np
gr

gs 952 526 4713 3881 MR c np
c15
  30   30 1701 3290 PO
gr

c15
gs 899 389 4733 4227 MR c np
gr

gs 952 526 4713 3881 MR c np
  30   30 1731 3318 PO
gr

gs 899 389 4733 4227 MR c np
gr

gs 952 526 4713 3881 MR c np
c12
  30   30 3444 4075 PO
gr

c12
gs 899 389 4733 4227 MR c np
gr

gs 952 526 4713 3881 MR c np
c9
  30   30 1886 3484 PO
gr

c9
gs 899 389 4733 4227 MR c np
gr

gs 952 526 4713 3881 MR c np
  30   30 1899 3501 PO
gr

gs 899 389 4733 4227 MR c np
gr

gs 952 526 4713 3881 MR c np
c10
  30   30 1545 3078 PO
gr

c10
gs 899 389 4733 4227 MR c np
gr

gs 952 526 4713 3881 MR c np
c16
  30   30 1422 2886 PO
gr

c16
gs 899 389 4733 4227 MR c np
gr

gs 952 526 4713 3881 MR c np
/c19 { 1.000000 0.250000 0.000000 sr} bdef
c19
  30   30 1414 2855 PO
gr

c19
gs 899 389 4733 4227 MR c np
gr

gs 952 526 4713 3881 MR c np
c8
  30   30 3559 4101 PO
gr

c8
gs 899 389 4733 4227 MR c np
gr

gs 952 526 4713 3881 MR c np
/c20 { 1.000000 0.500000 0.000000 sr} bdef
c20
  30   30 1701 3290 PO
gr

c20
gs 899 389 4733 4227 MR c np
gr

gs 952 526 4713 3881 MR c np
/c21 { 0.937500 0.000000 0.000000 sr} bdef
c21
  30   30 1607 3154 PO
gr

c21
gs 899 389 4733 4227 MR c np
gr

gs 952 526 4713 3881 MR c np
c8
  30   30 3554 4098 PO
gr

c8
gs 899 389 4733 4227 MR c np
gr

gs 952 526 4713 3881 MR c np
c9
  30   30 2369 3822 PO
gr

c9
gs 899 389 4733 4227 MR c np
gr

gs 952 526 4713 3881 MR c np
/c22 { 0.625000 0.000000 0.000000 sr} bdef
c22
  30   30 2397 3837 PO
gr

c22
gs 899 389 4733 4227 MR c np
gr

gs 952 526 4713 3881 MR c np
c9
  30   30 1966 3552 PO
gr

c9
gs 899 389 4733 4227 MR c np
gr

gs 952 526 4713 3881 MR c np
c19
  30   30 1414 2855 PO
gr

c19
gs 899 389 4733 4227 MR c np
gr

gs 952 526 4713 3881 MR c np
c9
  30   30 2178 3689 PO
gr

c9
gs 899 389 4733 4227 MR c np
gr

gs 952 526 4713 3881 MR c np
c18
  30   30 2708 3951 PO
gr

c18
gs 899 389 4733 4227 MR c np
gr

gs 952 526 4713 3881 MR c np
c9
  30   30 2137 3651 PO
gr

c9
gs 899 389 4733 4227 MR c np
gr

gs 952 526 4713 3881 MR c np
c18
  30   30 1817 3416 PO
gr

c18
gs 899 389 4733 4227 MR c np
gr

gs 952 526 4713 3881 MR c np
  30   30 2678 3937 PO
gr

gs 899 389 4733 4227 MR c np
gr

gs 952 526 4713 3881 MR c np
c16
  30   30 2287 3759 PO
gr

c16
gs 899 389 4733 4227 MR c np
gr

gs 952 526 4713 3881 MR c np
/c23 { 0.875000 0.000000 0.000000 sr} bdef
c23
  30   30 1691 3273 PO
gr

c23
gs 899 389 4733 4227 MR c np
gr

gs 952 526 4713 3881 MR c np
c13
  30   30 1514 3029 PO
gr

c13
gs 899 389 4733 4227 MR c np
gr

gs 952 526 4713 3881 MR c np
c16
  30   30 1440 2911 PO
gr

c16
gs 899 389 4733 4227 MR c np
gr

gs 952 526 4713 3881 MR c np
c9
  30   30 2424 3843 PO
gr

c9
gs 899 389 4733 4227 MR c np
gr

gs 952 526 4713 3881 MR c np
c11
  30   30 4481 4257 PO
gr

c11
gs 899 389 4733 4227 MR c np
gr

gs 952 526 4713 3881 MR c np
c8
  30   30 3599 4135 PO
gr

c8
gs 899 389 4733 4227 MR c np
gr

gs 952 526 4713 3881 MR c np
c9
  30   30 1914 3509 PO
gr

c9
gs 899 389 4733 4227 MR c np
gr

gs 952 526 4713 3881 MR c np
c15
  30   30 2844 3995 PO
gr

c15
gs 899 389 4733 4227 MR c np
gr

gs 952 526 4713 3881 MR c np
c12
  30   30 1588 3149 PO
gr

c12
gs 899 389 4733 4227 MR c np
gr

gs 952 526 4713 3881 MR c np
c18
  30   30 1852 3443 PO
gr

c18
gs 899 389 4733 4227 MR c np
gr

gs 952 526 4713 3881 MR c np
c12
  30   30 3484 4095 PO
gr

c12
gs 899 389 4733 4227 MR c np
gr

gs 952 526 4713 3881 MR c np
c9
  30   30 2203 3709 PO
gr

c9
gs 899 389 4733 4227 MR c np
gr

gs 952 526 4713 3881 MR c np
  30   30 1936 3529 PO
gr

gs 899 389 4733 4227 MR c np
gr

gs 952 526 4713 3881 MR c np
c18
  30   30 2631 3918 PO
gr

c18
gs 899 389 4733 4227 MR c np
gr

gs 952 526 4713 3881 MR c np
  30   30 2534 3852 PO
gr

gs 899 389 4733 4227 MR c np
gr

gs 952 526 4713 3881 MR c np
  30   30 1831 3432 PO
gr

gs 899 389 4733 4227 MR c np
gr

gs 952 526 4713 3881 MR c np
/c24 { 1.000000 0.875000 0.000000 sr} bdef
c24
  30   30 2210 3721 PO
gr

c24
gs 899 389 4733 4227 MR c np
gr

gs 952 526 4713 3881 MR c np
c9
  30   30 2166 3669 PO
gr

c9
gs 899 389 4733 4227 MR c np
gr

gs 952 526 4713 3881 MR c np
c23
  30   30 1691 3273 PO
gr

c23
gs 899 389 4733 4227 MR c np
gr

gs 952 526 4713 3881 MR c np
c18
  30   30 2502 3851 PO
gr

c18
gs 899 389 4733 4227 MR c np
gr

gs 952 526 4713 3881 MR c np
c16
  30   30 1458 2928 PO
gr

c16
gs 899 389 4733 4227 MR c np
gr

gs 952 526 4713 3881 MR c np
c8
  30   30 3599 4135 PO
gr

c8
gs 899 389 4733 4227 MR c np
gr

gs 952 526 4713 3881 MR c np
c9
  30   30 2461 3851 PO
gr

c9
gs 899 389 4733 4227 MR c np
gr

gs 952 526 4713 3881 MR c np
c13
  30   30 1533 3068 PO
gr

c13
gs 899 389 4733 4227 MR c np
gr

gs 952 526 4713 3881 MR c np
c22
  30   30 2369 3822 PO
gr

c22
gs 899 389 4733 4227 MR c np
gr

gs 952 526 4713 3881 MR c np
c15
  30   30 1755 3334 PO
gr

c15
gs 899 389 4733 4227 MR c np
gr

gs 952 526 4713 3881 MR c np
c23
  30   30 1645 3220 PO
gr

c23
gs 899 389 4733 4227 MR c np
gr

gs 952 526 4713 3881 MR c np
c22
  30   30 2397 3837 PO
gr

c22
gs 899 389 4733 4227 MR c np
gr

gs 952 526 4713 3881 MR c np
c10
  30   30 1555 3097 PO
gr

c10
gs 899 389 4733 4227 MR c np
gr

gs 952 526 4713 3881 MR c np
c11
  30   30 1232 2256 PO
gr

c11
gs 899 389 4733 4227 MR c np
gr

gs 952 526 4713 3881 MR c np
c23
  30   30 1645 3220 PO
gr

c23
gs 899 389 4733 4227 MR c np
gr

gs 952 526 4713 3881 MR c np
/c25 { 1.000000 0.125000 0.000000 sr} bdef
c25
  30   30 1464 2948 PO
gr

c25
gs 899 389 4733 4227 MR c np
gr

gs 952 526 4713 3881 MR c np
c15
  30   30 1767 3352 PO
gr

c15
gs 899 389 4733 4227 MR c np
gr

gs 952 526 4713 3881 MR c np
c19
  30   30 1418 2878 PO
gr

c19
gs 899 389 4733 4227 MR c np
gr

gs 952 526 4713 3881 MR c np
c9
  30   30 1976 3563 PO
gr

c9
gs 899 389 4733 4227 MR c np
gr

gs 952 526 4713 3881 MR c np
c11
  30   30 1232 2256 PO
gr

c11
gs 899 389 4733 4227 MR c np
gr

gs 952 526 4713 3881 MR c np
c9
  30   30 2455 3849 PO
gr

c9
gs 899 389 4733 4227 MR c np
gr

gs 952 526 4713 3881 MR c np
/c26 { 1.000000 0.625000 0.000000 sr} bdef
c26
  30   30 4043 4230 PO
gr

c26
gs 899 389 4733 4227 MR c np
gr

gs 952 526 4713 3881 MR c np
c8
  30   30 3644 4158 PO
gr

c8
gs 899 389 4733 4227 MR c np
gr

gs 952 526 4713 3881 MR c np
c22
  30   30 2315 3784 PO
gr

c22
gs 899 389 4733 4227 MR c np
gr

gs 952 526 4713 3881 MR c np
c9
  30   30 2237 3727 PO
gr

c9
gs 899 389 4733 4227 MR c np
gr

gs 952 526 4713 3881 MR c np
c8
  30   30 3622 4138 PO
gr

c8
gs 899 389 4733 4227 MR c np
gr

gs 952 526 4713 3881 MR c np
c18
  30   30 2701 3944 PO
gr

c18
gs 899 389 4733 4227 MR c np
gr

gs 952 526 4713 3881 MR c np
c22
  30   30 2237 3738 PO
gr

c22
gs 899 389 4733 4227 MR c np
gr

gs 952 526 4713 3881 MR c np
c25
  30   30 2605 3917 PO
gr

c25
gs 899 389 4733 4227 MR c np
gr

gs 952 526 4713 3881 MR c np
c9
  30   30 2272 3747 PO
gr

c9
gs 899 389 4733 4227 MR c np
gr

gs 952 526 4713 3881 MR c np
c12
  30   30 3444 4075 PO
gr

c12
gs 899 389 4733 4227 MR c np
gr

gs 952 526 4713 3881 MR c np
c16
  30   30 1440 2911 PO
gr

c16
gs 899 389 4733 4227 MR c np
gr

gs 952 526 4713 3881 MR c np
c26
  30   30 1276 2534 PO
gr

c26
gs 899 389 4733 4227 MR c np
gr

gs 952 526 4713 3881 MR c np
c9
  30   30 2034 3607 PO
gr

c9
gs 899 389 4733 4227 MR c np
gr

gs 952 526 4713 3881 MR c np
  30   30 2178 3689 PO
gr

gs 899 389 4733 4227 MR c np
gr

gs 952 526 4713 3881 MR c np
c18
  30   30 2571 3870 PO
gr

c18
gs 899 389 4733 4227 MR c np
gr

gs 952 526 4713 3881 MR c np
c19
  30   30 3365 4034 PO
gr

c19
gs 899 389 4733 4227 MR c np
gr

gs 952 526 4713 3881 MR c np
c15
  30   30 1796 3381 PO
gr

c15
gs 899 389 4733 4227 MR c np
gr

gs 952 526 4713 3881 MR c np
/c27 { 1.000000 0.562500 0.000000 sr} bdef
c27
  30   30 1285 2571 PO
gr

c27
gs 899 389 4733 4227 MR c np
gr

gs 952 526 4713 3881 MR c np
c21
  30   30 1625 3190 PO
gr

c21
gs 899 389 4733 4227 MR c np
gr

gs 952 526 4713 3881 MR c np
c8
  30   30 1354 2743 PO
gr

c8
gs 899 389 4733 4227 MR c np
gr

gs 952 526 4713 3881 MR c np
c15
  30   30 2806 3989 PO
gr

c15
gs 899 389 4733 4227 MR c np
gr

gs 952 526 4713 3881 MR c np
c27
  30   30 1778 3380 PO
gr

c27
gs 899 389 4733 4227 MR c np
gr

gs 952 526 4713 3881 MR c np
c26
  30   30 4079 4242 PO
gr

c26
gs 899 389 4733 4227 MR c np
gr

gs 952 526 4713 3881 MR c np
c15
  30   30 2737 3957 PO
gr

c15
gs 899 389 4733 4227 MR c np
gr

gs 952 526 4713 3881 MR c np
c25
  30   30 1494 3000 PO
gr

c25
gs 899 389 4733 4227 MR c np
gr

gs 952 526 4713 3881 MR c np
c27
  30   30 1285 2571 PO
gr

c27
gs 899 389 4733 4227 MR c np
gr

gs 952 526 4713 3881 MR c np
c11
  30   30 4481 4257 PO
gr

c11
gs 899 389 4733 4227 MR c np
gr

gs 952 526 4713 3881 MR c np
c10
  30   30 1581 3133 PO
gr

c10
gs 899 389 4733 4227 MR c np
gr

gs 952 526 4713 3881 MR c np
c9
  30   30 2111 3643 PO
gr

c9
gs 899 389 4733 4227 MR c np
gr

gs 952 526 4713 3881 MR c np
c19
  30   30 1625 3190 PO
gr

c19
gs 899 389 4733 4227 MR c np
gr

gs 952 526 4713 3881 MR c np
c13
  30   30 1507 3018 PO
gr

c13
gs 899 389 4733 4227 MR c np
gr

gs 952 526 4713 3881 MR c np
c10
  30   30 1570 3120 PO
gr

c10
gs 899 389 4733 4227 MR c np
gr

gs 952 526 4713 3881 MR c np
c9
  30   30 1943 3544 PO
gr

c9
gs 899 389 4733 4227 MR c np
gr

gs 952 526 4713 3881 MR c np
c11
  30   30 4533 4278 PO
gr

c11
gs 899 389 4733 4227 MR c np
gr

gs 952 526 4713 3881 MR c np
c18
  30   30 2554 3860 PO
gr

c18
gs 899 389 4733 4227 MR c np
gr

gs 952 526 4713 3881 MR c np
c9
  30   30 2310 3769 PO
gr

c9
gs 899 389 4733 4227 MR c np
gr

gs 952 526 4713 3881 MR c np
c11
  30   30 1240 2267 PO
gr

c11
gs 899 389 4733 4227 MR c np
gr

gs 952 526 4713 3881 MR c np
/c28 { 1.000000 0.687500 0.000000 sr} bdef
c28
  30   30 1270 2488 PO
gr

c28
gs 899 389 4733 4227 MR c np
gr

gs 952 526 4713 3881 MR c np
c25
  30   30 1492 2967 PO
gr

c25
gs 899 389 4733 4227 MR c np
gr

gs 952 526 4713 3881 MR c np
c22
  30   30 2010 3600 PO
gr

c22
gs 899 389 4733 4227 MR c np
gr

gs 952 526 4713 3881 MR c np
c12
  30   30 1406 2828 PO
gr

c12
gs 899 389 4733 4227 MR c np
gr

gs 952 526 4713 3881 MR c np
/c29 { 1.000000 0.437500 0.000000 sr} bdef
c29
  30   30 1406 2828 PO
gr

c29
gs 899 389 4733 4227 MR c np
gr

gs 952 526 4713 3881 MR c np
c23
  30   30 1654 3240 PO
gr

c23
gs 899 389 4733 4227 MR c np
gr

gs 952 526 4713 3881 MR c np
c8
  30   30 1354 2743 PO
gr

c8
gs 899 389 4733 4227 MR c np
gr

gs 952 526 4713 3881 MR c np
c21
  30   30 1609 3161 PO
gr

c21
gs 899 389 4733 4227 MR c np
gr

gs 952 526 4713 3881 MR c np
c15
  30   30 2806 3989 PO
gr

c15
gs 899 389 4733 4227 MR c np
gr

gs 952 526 4713 3881 MR c np
c18
  30   30 1801 3403 PO
gr

c18
gs 899 389 4733 4227 MR c np
gr

gs 952 526 4713 3881 MR c np
c15
  30   30 1716 3310 PO
gr

c15
gs 899 389 4733 4227 MR c np
gr

gs 952 526 4713 3881 MR c np
c27
  30   30 1310 2607 PO
gr

c27
gs 899 389 4733 4227 MR c np
gr

gs 952 526 4713 3881 MR c np
c15
  30   30 2343 3816 PO
gr

c15
gs 899 389 4733 4227 MR c np
gr

gs 952 526 4713 3881 MR c np
c18
  30   30 2573 3898 PO
gr

c18
gs 899 389 4733 4227 MR c np
gr

gs 952 526 4713 3881 MR c np
c8
  30   30 3671 4164 PO
gr

c8
gs 899 389 4733 4227 MR c np
gr

gs 952 526 4713 3881 MR c np
c12
  30   30 3559 4123 PO
gr

c12
gs 899 389 4733 4227 MR c np
gr

gs 952 526 4713 3881 MR c np
/c30 { 1.000000 0.750000 0.000000 sr} bdef
c30
  30   30 1276 2534 PO
gr

c30
gs 899 389 4733 4227 MR c np
gr

gs 952 526 4713 3881 MR c np
c9
  30   30 2338 3785 PO
gr

c9
gs 899 389 4733 4227 MR c np
gr

gs 952 526 4713 3881 MR c np
  30   30 2106 3631 PO
gr

gs 899 389 4733 4227 MR c np
gr

gs 952 526 4713 3881 MR c np
c17
  30   30 2844 3995 PO
gr

c17
gs 899 389 4733 4227 MR c np
gr

gs 952 526 4713 3881 MR c np
c12
  30   30 3422 4051 PO
gr

c12
gs 899 389 4733 4227 MR c np
gr

gs 952 526 4713 3881 MR c np
c20
  30   30 1292 2607 PO
gr

c20
gs 899 389 4733 4227 MR c np
gr

gs 952 526 4713 3881 MR c np
c18
  30   30 2651 3931 PO
gr

c18
gs 899 389 4733 4227 MR c np
gr

gs 952 526 4713 3881 MR c np
/c31 { 0.750000 1.000000 0.250000 sr} bdef
c31
  30   30 1248 2310 PO
gr

c31
gs 899 389 4733 4227 MR c np
gr

gs 952 526 4713 3881 MR c np
/c32 { 0.937500 1.000000 0.062500 sr} bdef
c32
  30   30 1201 2224 PO
gr

c32
gs 899 389 4733 4227 MR c np
gr

gs 952 526 4713 3881 MR c np
/c33 { 1.000000 0.937500 0.000000 sr} bdef
c33
  30   30 1167 2074 PO
gr

c33
gs 899 389 4733 4227 MR c np
gr

gs 952 526 4713 3881 MR c np
c23
  30   30 2905 3995 PO
gr

c23
gs 899 389 4733 4227 MR c np
gr

gs 952 526 4713 3881 MR c np
c12
  30   30 1377 2784 PO
gr

c12
gs 899 389 4733 4227 MR c np
gr

gs 952 526 4713 3881 MR c np
c29
  30   30 1352 2711 PO
gr

c29
gs 899 389 4733 4227 MR c np
gr

gs 952 526 4713 3881 MR c np
c19
  30   30 3373 4046 PO
gr

c19
gs 899 389 4733 4227 MR c np
gr

gs 952 526 4713 3881 MR c np
c27
  30   30 3956 4208 PO
gr

c27
gs 899 389 4733 4227 MR c np
gr

gs 952 526 4713 3881 MR c np
c22
  30   30 2054 3628 PO
gr

c22
gs 899 389 4733 4227 MR c np
gr

gs 952 526 4713 3881 MR c np
c23
  30   30 1674 3247 PO
gr

c23
gs 899 389 4733 4227 MR c np
gr

gs 952 526 4713 3881 MR c np
c22
  30   30 1993 3591 PO
gr

c22
gs 899 389 4733 4227 MR c np
gr

gs 952 526 4713 3881 MR c np
c12
  30   30 1377 2784 PO
gr

c12
gs 899 389 4733 4227 MR c np
gr

gs 952 526 4713 3881 MR c np
/c34 { 0.687500 1.000000 0.312500 sr} bdef
c34
  30   30 1314 2641 PO
gr

c34
gs 899 389 4733 4227 MR c np
gr

gs 952 526 4713 3881 MR c np
c18
  30   30 2750 3977 PO
gr

c18
gs 899 389 4733 4227 MR c np
gr

gs 952 526 4713 3881 MR c np
c19
  30   30 3329 4026 PO
gr

c19
gs 899 389 4733 4227 MR c np
gr

gs 952 526 4713 3881 MR c np
c26
  30   30 4043 4230 PO
gr

c26
gs 899 389 4733 4227 MR c np
gr

gs 952 526 4713 3881 MR c np
/c35 { 0.062500 1.000000 0.937500 sr} bdef
c35
  30   30 5382 4283 PO
gr

c35
gs 899 389 4733 4227 MR c np
gr

gs 952 526 4713 3881 MR c np
c8
  30   30 3715 4173 PO
gr

c8
gs 899 389 4733 4227 MR c np
gr

gs 952 526 4713 3881 MR c np
c28
  30   30 3912 4208 PO
gr

c28
gs 899 389 4733 4227 MR c np
gr

gs 952 526 4713 3881 MR c np
/c36 { 0.125000 1.000000 0.875000 sr} bdef
c36
  30   30 5462 4304 PO
gr

c36
gs 899 389 4733 4227 MR c np
gr

gs 952 526 4713 3881 MR c np
c27
  30   30 3972 4222 PO
gr

c27
gs 899 389 4733 4227 MR c np
gr

gs 952 526 4713 3881 MR c np
  30   30 1352 2711 PO
gr

gs 899 389 4733 4227 MR c np
gr

gs 952 526 4713 3881 MR c np
c20
  30   30 1314 2641 PO
gr

c20
gs 899 389 4733 4227 MR c np
gr

gs 952 526 4713 3881 MR c np
/c37 { 0.000000 0.312500 1.000000 sr} bdef
c37
  30   30 1027 1069 PO
gr

c37
gs 899 389 4733 4227 MR c np
gr

gs 952 526 4713 3881 MR c np
/c38 { 0.000000 0.375000 1.000000 sr} bdef
c38
  30   30 1039 1137 PO
gr

c38
gs 899 389 4733 4227 MR c np
gr

gs 952 526 4713 3881 MR c np
c34
  30   30 1145 2042 PO
gr

c34
gs 899 389 4733 4227 MR c np
gr

gs 952 526 4713 3881 MR c np
c28
  30   30 1270 2488 PO
gr

c28
gs 899 389 4733 4227 MR c np
gr

gs 952 526 4713 3881 MR c np
c17
  30   30 1267 2404 PO
gr

c17
gs 899 389 4733 4227 MR c np
gr

gs 952 526 4713 3881 MR c np
  30   30 1267 2404 PO
gr

gs 899 389 4733 4227 MR c np
gr

gs 952 526 4713 3881 MR c np
c33
  30   30 1248 2310 PO
gr

c33
gs 899 389 4733 4227 MR c np
gr

gs 952 526 4713 3881 MR c np
/c39 { 0.000000 0.125000 1.000000 sr} bdef
c39
  30   30 5462 4304 PO
gr

c39
gs 899 389 4733 4227 MR c np
gr

gs 952 526 4713 3881 MR c np
/c40 { 0.000000 1.000000 1.000000 sr} bdef
c40
  30   30 5601 4310 PO
gr

c40
gs 899 389 4733 4227 MR c np
gr

gs 952 526 4713 3881 MR c np
c23
  30   30 2905 3995 PO
gr

c23
gs 899 389 4733 4227 MR c np
gr

gs 952 526 4713 3881 MR c np
c13
  30   30 3088 4007 PO
gr

c13
gs 899 389 4733 4227 MR c np
gr

gs 952 526 4713 3881 MR c np
/c41 { 0.562500 1.000000 0.437500 sr} bdef
c41
  30   30 1083 1901 PO
gr

c41
gs 899 389 4733 4227 MR c np
gr

gs 952 526 4713 3881 MR c np
c34
  30   30 1145 2042 PO
gr

c34
gs 899 389 4733 4227 MR c np
gr

gs 952 526 4713 3881 MR c np
c27
  30   30 3912 4208 PO
gr

c27
gs 899 389 4733 4227 MR c np
gr

gs 952 526 4713 3881 MR c np
c31
  30   30 1167 2074 PO
gr

c31
gs 899 389 4733 4227 MR c np
gr

gs 952 526 4713 3881 MR c np
c8
  30   30 3715 4173 PO
gr

c8
gs 899 389 4733 4227 MR c np
gr

gs 952 526 4713 3881 MR c np
c41
  30   30 1201 2224 PO
gr

c41
gs 899 389 4733 4227 MR c np
gr

gs 952 526 4713 3881 MR c np
/c42 { 0.312500 1.000000 0.687500 sr} bdef
c42
  30   30 1068 1731 PO
gr

c42
gs 899 389 4733 4227 MR c np
gr

gs 952 526 4713 3881 MR c np
c28
  30   30 3089 4010 PO
gr

c28
gs 899 389 4733 4227 MR c np
gr

gs 952 526 4713 3881 MR c np
c19
  30   30 3312 4011 PO
gr

c19
gs 899 389 4733 4227 MR c np
gr

gs 952 526 4713 3881 MR c np
c38
  30   30 1039 1137 PO
gr

c38
gs 899 389 4733 4227 MR c np
gr

gs 952 526 4713 3881 MR c np
/c43 { 0.000000 0.687500 1.000000 sr} bdef
c43
  30   30 1056 1338 PO
gr

c43
gs 899 389 4733 4227 MR c np
gr

gs 952 526 4713 3881 MR c np
c41
  30   30 1083 1901 PO
gr

c41
gs 899 389 4733 4227 MR c np
gr

gs 952 526 4713 3881 MR c np
c11
  30   30 4467 4256 PO
gr

c11
gs 899 389 4733 4227 MR c np
gr

gs 952 526 4713 3881 MR c np
c26
  30   30 4079 4242 PO
gr

c26
gs 899 389 4733 4227 MR c np
gr

gs 952 526 4713 3881 MR c np
c14
  30   30 1068 1731 PO
gr

c14
gs 899 389 4733 4227 MR c np
gr

gs 952 526 4713 3881 MR c np
c43
  30   30 1056 1338 PO
gr

c43
gs 899 389 4733 4227 MR c np
gr

gs 952 526 4713 3881 MR c np
c35
  30   30 1027 1069 PO
gr

c35
gs 899 389 4733 4227 MR c np
gr

gs 952 526 4713 3881 MR c np
c11
  30   30 4533 4278 PO
gr

c11
gs 899 389 4733 4227 MR c np
gr

gs 952 526 4713 3881 MR c np
c36
  30   30 5382 4283 PO
gr

c36
gs 899 389 4733 4227 MR c np
gr

gs 952 526 4713 3881 MR c np
/c44 { 0.250000 1.000000 0.750000 sr} bdef
c44
  30   30 1013  587 PO
gr

c44
gs 899 389 4733 4227 MR c np
gr

gs 952 526 4713 3881 MR c np
c35
  30   30 5603 4345 PO
gr

c35
gs 899 389 4733 4227 MR c np
gr

gs 952 526 4713 3881 MR c np
  30   30 5603 4345 PO
gr

gs 899 389 4733 4227 MR c np
gr

gs 952 526 4713 3881 MR c np
/c45 { 0.000000 0.000000 0.562500 sr} bdef
c45
  30   30 1013  587 PO
gr

c45
gs 899 389 4733 4227 MR c np
gr

0 sg
%%IncludeResource: font Helvetica
/Helvetica /ISOLatin1Encoding 120 FMSR

3131 4903 mt 
(Time) s
 546 2643 mt  -90 rotate
(Profit) s
90 rotate
2220  294 mt 
(eil51_n150_bounded-strongly-corr_01) s
 882 4658 mt 
( ) s
5615  431 mt 
( ) s
%%IncludeResource: font Symbol
/Symbol /ISOLatin1Encoding 120 FMSR

2392 3866 mt 
(\254) s
%%IncludeResource: font Helvetica
/Helvetica /ISOLatin1Encoding 120 FMSR

2510 3866 mt 
( EMO \(7937\)) s
gs 899 389 4733 4227 MR c np
0 j
gs 2495 3458 123 123 MR c np
30 39 -30 39 -30 -39 30 -39 2556 3558 5 MP
c12
PP
gr

c12
gr

c12
0 sg
%%IncludeResource: font Symbol
/Symbol /ISOLatin1Encoding 120 FMSR

2580 3563 mt 
(\254) s
%%IncludeResource: font Helvetica
/Helvetica /ISOLatin1Encoding 120 FMSR

2698 3563 mt 
( S5 \(6750\)) s
gs 899 389 4733 4227 MR c np
0 j
gs 2236 3789 123 123 MR c np
0 -48 -48 0 0 48 48 0 2273 3826 5 MP
/c46 { 0.562500 0.000000 0.000000 sr} bdef
c46
PP
gr

c46
gr

c46
0 sg
%%IncludeResource: font Symbol
/Symbol /ISOLatin1Encoding 120 FMSR

2321 3894 mt 
(\254) s
%%IncludeResource: font Helvetica
/Helvetica /ISOLatin1Encoding 120 FMSR

2439 3894 mt 
( MA2B \(8141\)) s
gs 899 389 4733 4227 MR c np
0 j
gs 2553 3686 123 123 MR c np
-34 59 -34 -59 68 0 2580 3767 4 MP
c10
PP
gr

c10
gs 2154 3652 123 123 MR c np
-34 59 -34 -59 68 0 2181 3733 4 MP
c9
PP
gr

c9
gs 2466 3604 123 123 MR c np
-34 59 -34 -59 68 0 2493 3685 4 MP
c13
PP
gr

c13
gs 2822 3384 123 123 MR c np
-34 59 -34 -59 68 0 2849 3465 4 MP
c30
PP
gr

c30
gs 2628 3610 123 123 MR c np
-34 59 -34 -59 68 0 2655 3691 4 MP
c16
PP
gr

c16
gs 2231 3717 123 123 MR c np
-34 59 -34 -59 68 0 2258 3798 4 MP
c22
PP
gr

c22
gs 2079 3674 123 123 MR c np
-34 59 -34 -59 68 0 2106 3755 4 MP
c46
PP
gr

c46
gs 2444 3677 123 123 MR c np
-34 59 -34 -59 68 0 2471 3758 4 MP
c21
PP
gr

c21
gs 2398 3536 123 123 MR c np
-34 59 -34 -59 68 0 2425 3617 4 MP
c13
PP
gr

c13
gs 2217 3753 123 123 MR c np
-34 59 -34 -59 68 0 2244 3834 4 MP
c46
PP
gr

c46
gs 2179 3789 123 123 MR c np
-34 59 -34 -59 68 0 2206 3870 4 MP
/c47 { 0.500000 0.000000 0.000000 sr} bdef
c47
PP
gr

c47
gs 2390 3517 123 123 MR c np
-34 59 -34 -59 68 0 2417 3598 4 MP
c25
PP
gr

c25
gs 2553 3713 123 123 MR c np
-34 59 -34 -59 68 0 2580 3794 4 MP
c21
PP
gr

c21
gs 2432 3603 123 123 MR c np
-34 59 -34 -59 68 0 2459 3684 4 MP
c10
PP
gr

c10
gs 2074 3724 123 123 MR c np
-34 59 -34 -59 68 0 2101 3805 4 MP
c47
PP
gr

c47
gs 2122 3724 123 123 MR c np
-34 59 -34 -59 68 0 2149 3805 4 MP
PP
gr

gs 2342 3746 123 123 MR c np
-34 59 -34 -59 68 0 2369 3827 4 MP
c9
PP
gr

c9
gs 2340 3746 123 123 MR c np
-34 59 -34 -59 68 0 2367 3827 4 MP
PP
gr

gs 2340 3746 123 123 MR c np
-34 59 -34 -59 68 0 2367 3827 4 MP
PP
gr

gs 2598 3652 123 123 MR c np
-34 59 -34 -59 68 0 2625 3733 4 MP
c25
PP
gr

c25
gs 2340 3746 123 123 MR c np
-34 59 -34 -59 68 0 2367 3827 4 MP
c9
PP
gr

c9
gs 2043 3674 123 123 MR c np
-34 59 -34 -59 68 0 2070 3755 4 MP
c47
PP
gr

c47
gs 2443 3807 123 123 MR c np
-34 59 -34 -59 68 0 2470 3888 4 MP
c9
PP
gr

c9
gs 2128 3724 123 123 MR c np
-34 59 -34 -59 68 0 2155 3805 4 MP
c47
PP
gr

c47
gs 2586 3619 123 123 MR c np
-34 59 -34 -59 68 0 2613 3700 4 MP
c25
PP
gr

c25
gs 2432 3603 123 123 MR c np
-34 59 -34 -59 68 0 2459 3684 4 MP
c10
PP
gr

c10
gs 2340 3746 123 123 MR c np
-34 59 -34 -59 68 0 2367 3827 4 MP
c9
PP
gr

c9
gs 2179 3789 123 123 MR c np
-34 59 -34 -59 68 0 2206 3870 4 MP
c47
PP
gr

c47
gs 2256 3380 123 123 MR c np
-34 59 -34 -59 68 0 2283 3461 4 MP
c16
PP
gr

c16
gs 2342 3746 123 123 MR c np
-34 59 -34 -59 68 0 2369 3827 4 MP
c9
PP
gr

c9
gs 2334 3746 123 123 MR c np
-34 59 -34 -59 68 0 2361 3827 4 MP
PP
gr

gs 2128 3724 123 123 MR c np
-34 59 -34 -59 68 0 2155 3805 4 MP
c47
PP
gr

c47
gs 2491 3410 123 123 MR c np
-34 59 -34 -59 68 0 2518 3491 4 MP
c8
PP
gr

c8
gs 2340 3746 123 123 MR c np
-34 59 -34 -59 68 0 2367 3827 4 MP
c9
PP
gr

c9
gs 2852 3688 123 123 MR c np
-34 59 -34 -59 68 0 2879 3769 4 MP
c12
PP
gr

c12
gs 2342 3746 123 123 MR c np
-34 59 -34 -59 68 0 2369 3827 4 MP
c9
PP
gr

c9
gs 2335 3746 123 123 MR c np
-34 59 -34 -59 68 0 2362 3827 4 MP
PP
gr

gs 2342 3746 123 123 MR c np
-34 59 -34 -59 68 0 2369 3827 4 MP
PP
gr

gs 2043 3674 123 123 MR c np
-34 59 -34 -59 68 0 2070 3755 4 MP
c47
PP
gr

c47
gs 2074 3724 123 123 MR c np
-34 59 -34 -59 68 0 2101 3805 4 MP
PP
gr

gs 2340 3746 123 123 MR c np
-34 59 -34 -59 68 0 2367 3827 4 MP
c9
PP
gr

c9
gs 2804 3707 123 123 MR c np
-34 59 -34 -59 68 0 2831 3788 4 MP
c16
PP
gr

c16
gs 2074 3724 123 123 MR c np
-34 59 -34 -59 68 0 2101 3805 4 MP
c47
PP
gr

c47
gs 2340 3746 123 123 MR c np
-34 59 -34 -59 68 0 2367 3827 4 MP
c9
PP
gr

c9
gs 2340 3746 123 123 MR c np
-34 59 -34 -59 68 0 2367 3827 4 MP
PP
gr

gs 2340 3746 123 123 MR c np
-34 59 -34 -59 68 0 2367 3827 4 MP
PP
gr

gs 2128 3724 123 123 MR c np
-34 59 -34 -59 68 0 2155 3805 4 MP
c47
PP
gr

c47
gs 2570 3595 123 123 MR c np
-34 59 -34 -59 68 0 2597 3676 4 MP
c16
PP
gr

c16
gs 2866 3481 123 123 MR c np
-34 59 -34 -59 68 0 2893 3562 4 MP
c26
PP
gr

c26
gs 2334 3746 123 123 MR c np
-34 59 -34 -59 68 0 2361 3827 4 MP
c9
PP
gr

c9
gs 2340 3746 123 123 MR c np
-34 59 -34 -59 68 0 2367 3827 4 MP
PP
gr

gs 2334 3746 123 123 MR c np
-34 59 -34 -59 68 0 2361 3827 4 MP
PP
gr

gs 2043 3674 123 123 MR c np
-34 59 -34 -59 68 0 2070 3755 4 MP
c47
PP
gr

c47
gs 2128 3724 123 123 MR c np
-34 59 -34 -59 68 0 2155 3805 4 MP
PP
gr

gs 2432 3603 123 123 MR c np
-34 59 -34 -59 68 0 2459 3684 4 MP
c10
PP
gr

c10
gs 2340 3746 123 123 MR c np
-34 59 -34 -59 68 0 2367 3827 4 MP
c9
PP
gr

c9
gs 2465 3609 123 123 MR c np
-34 59 -34 -59 68 0 2492 3690 4 MP
c13
PP
gr

c13
gs 2340 3746 123 123 MR c np
-34 59 -34 -59 68 0 2367 3827 4 MP
c9
PP
gr

c9
gs 2399 3536 123 123 MR c np
-34 59 -34 -59 68 0 2426 3617 4 MP
c13
PP
gr

c13
gs 2399 3536 123 123 MR c np
-34 59 -34 -59 68 0 2426 3617 4 MP
PP
gr

gs 2654 3707 123 123 MR c np
-34 59 -34 -59 68 0 2681 3788 4 MP
PP
gr

gs 2462 3752 123 123 MR c np
-34 59 -34 -59 68 0 2489 3833 4 MP
c15
PP
gr

c15
gs 2340 3746 123 123 MR c np
-34 59 -34 -59 68 0 2367 3827 4 MP
c9
PP
gr

c9
gs 2792 3712 123 123 MR c np
-34 59 -34 -59 68 0 2819 3793 4 MP
c16
PP
gr

c16
gs 2065 3724 123 123 MR c np
-34 59 -34 -59 68 0 2092 3805 4 MP
c47
PP
gr

c47
gs 2335 3746 123 123 MR c np
-34 59 -34 -59 68 0 2362 3827 4 MP
c9
PP
gr

c9
gs 2340 3746 123 123 MR c np
-34 59 -34 -59 68 0 2367 3827 4 MP
PP
gr

gs 2571 3707 123 123 MR c np
-34 59 -34 -59 68 0 2598 3788 4 MP
c10
PP
gr

c10
gs 2335 3746 123 123 MR c np
-34 59 -34 -59 68 0 2362 3827 4 MP
c9
PP
gr

c9
gs 2340 3746 123 123 MR c np
-34 59 -34 -59 68 0 2367 3827 4 MP
PP
gr

gs 2342 3746 123 123 MR c np
-34 59 -34 -59 68 0 2369 3827 4 MP
PP
gr

gs 2598 3601 123 123 MR c np
-34 59 -34 -59 68 0 2625 3682 4 MP
c16
PP
gr

c16
gs 2306 3707 123 123 MR c np
-34 59 -34 -59 68 0 2333 3788 4 MP
c18
PP
gr

c18
gs 2334 3746 123 123 MR c np
-34 59 -34 -59 68 0 2361 3827 4 MP
c9
PP
gr

c9
gs 2334 3746 123 123 MR c np
-34 59 -34 -59 68 0 2361 3827 4 MP
PP
gr

gs 2342 3746 123 123 MR c np
-34 59 -34 -59 68 0 2369 3827 4 MP
PP
gr

gs 2340 3746 123 123 MR c np
-34 59 -34 -59 68 0 2367 3827 4 MP
PP
gr

gs 2340 3746 123 123 MR c np
-34 59 -34 -59 68 0 2367 3827 4 MP
PP
gr

gs 2335 3746 123 123 MR c np
-34 59 -34 -59 68 0 2362 3827 4 MP
PP
gr

gs 2074 3724 123 123 MR c np
-34 59 -34 -59 68 0 2101 3805 4 MP
c47
PP
gr

c47
gs 2340 3746 123 123 MR c np
-34 59 -34 -59 68 0 2367 3827 4 MP
c9
PP
gr

c9
gs 2334 3746 123 123 MR c np
-34 59 -34 -59 68 0 2361 3827 4 MP
PP
gr

gs 2850 3657 123 123 MR c np
-34 59 -34 -59 68 0 2877 3738 4 MP
c12
PP
gr

c12
gs 2340 3746 123 123 MR c np
-34 59 -34 -59 68 0 2367 3827 4 MP
c9
PP
gr

c9
gs 2633 3602 123 123 MR c np
-34 59 -34 -59 68 0 2660 3683 4 MP
c16
PP
gr

c16
gs 2340 3746 123 123 MR c np
-34 59 -34 -59 68 0 2367 3827 4 MP
c9
PP
gr

c9
gs 2340 3746 123 123 MR c np
-34 59 -34 -59 68 0 2367 3827 4 MP
PP
gr

gs 2340 3746 123 123 MR c np
-34 59 -34 -59 68 0 2367 3827 4 MP
PP
gr

gs 2353 3536 123 123 MR c np
-34 59 -34 -59 68 0 2380 3617 4 MP
c13
PP
gr

c13
gs 2342 3746 123 123 MR c np
-34 59 -34 -59 68 0 2369 3827 4 MP
c9
PP
gr

c9
gs 2432 3603 123 123 MR c np
-34 59 -34 -59 68 0 2459 3684 4 MP
c10
PP
gr

c10
gs 2340 3746 123 123 MR c np
-34 59 -34 -59 68 0 2367 3827 4 MP
c9
PP
gr

c9
gs 2534 3718 123 123 MR c np
-34 59 -34 -59 68 0 2561 3799 4 MP
c21
PP
gr

c21
gs 2342 3746 123 123 MR c np
-34 59 -34 -59 68 0 2369 3827 4 MP
c9
PP
gr

c9
gs 2457 3707 123 123 MR c np
-34 59 -34 -59 68 0 2484 3788 4 MP
c23
PP
gr

c23
gs 2334 3746 123 123 MR c np
-34 59 -34 -59 68 0 2361 3827 4 MP
c9
PP
gr

c9
gs 2334 3746 123 123 MR c np
-34 59 -34 -59 68 0 2361 3827 4 MP
PP
gr

gs 2340 3746 123 123 MR c np
-34 59 -34 -59 68 0 2367 3827 4 MP
PP
gr

gs 2399 3536 123 123 MR c np
-34 59 -34 -59 68 0 2426 3617 4 MP
c13
PP
gr

c13
gs 2342 3746 123 123 MR c np
-34 59 -34 -59 68 0 2369 3827 4 MP
c9
PP
gr

c9
gr

c9
0 sg
%%IncludeResource: font Symbol
/Symbol /ISOLatin1Encoding 120 FMSR

2149 3828 mt 
(\254) s
%%IncludeResource: font Helvetica
/Helvetica /ISOLatin1Encoding 120 FMSR

2267 3828 mt 
( DP \(8254\)) s
1 sg
0 4227 240 0 0 -4227 5811 4616 4 MP
PP
-240 0 0 4227 240 0 0 -4227 5811 4616 5 MP stroke
0 sg
6492 2790 mt  -90 rotate
(TTP Score) s
90 rotate
gs 5811 389 241 4228 MR c np
gs np 5811 389 mt 0 4227 rl 240 0 rl 0 -4227 rl cp c np
[240 0 0 4227 5811 389] cc
/picstr 1 string def
1 64 8 [1.000000 0 0 64.000000 0 0] L1i
262B2F34393E42474C555F68727B848E97A1AAB3BDC6D0D9E2DFDCD9D6D3D0CDCAC7C4C1BEBBB8B5
B2A99F968C837A70675D544B41382E251C1A18161513110F
gr
gr

4 w
DO
SO
6 w
5811 4616 mt 6051 4616 L
5811  389 mt 6051  389 L
5811 4616 mt 5811  389 L
6051 4616 mt 6051  389 L
5811 4616 mt 6051 4616 L
6051 4616 mt 6051  389 L
6051 4089 mt 6008 4089 L
5811 4089 mt 5853 4089 L
6085 4133 mt 
(2000) s
6051 3497 mt 6008 3497 L
5811 3497 mt 5853 3497 L
6085 3541 mt 
(3000) s
6051 2905 mt 6008 2905 L
5811 2905 mt 5853 2905 L
6085 2949 mt 
(4000) s
6051 2314 mt 6008 2314 L
5811 2314 mt 5853 2314 L
6085 2358 mt 
(5000) s
6051 1722 mt 6008 1722 L
5811 1722 mt 5853 1722 L
6085 1766 mt 
(6000) s
6051 1130 mt 6008 1130 L
5811 1130 mt 5853 1130 L
6085 1174 mt 
(7000) s
6051  539 mt 6008  539 L
5811  539 mt 5853  539 L
6085  583 mt 
(8000) s
5811 4616 mt 6051 4616 L
5811  389 mt 6051  389 L
5811 4616 mt 5811  389 L
6051 4616 mt 6051  389 L

end %%Color Dict

eplot
%%EndObject

epage
end

showpage

%%Trailer
%%EOF
