%!PS-Adobe-2.0 EPSF-1.2
%%Creator: MATLAB, The MathWorks, Inc. Version 8.1.0.604 (R2013a). Operating System: Linux 3.14.27-100.fc19.x86_64 #1 SMP Wed Dec 17 19:36:34 UTC 2014 x86_64.
%%Title: ./rat783_n2346_bounded-strongly-corr_01.eps
%%CreationDate: 11/11/2016  19:03:42
%%DocumentNeededFonts: Helvetica
%%DocumentProcessColors: Cyan Magenta Yellow Black
%%Pages: 1
%%BoundingBox:    46   198   564   602
%%EndComments

%%BeginProlog
% MathWorks dictionary
/MathWorks 160 dict begin
% definition operators
/bdef {bind def} bind def
/ldef {load def} bind def
/xdef {exch def} bdef
/xstore {exch store} bdef
% operator abbreviations
/c  /clip ldef
/cc /concat ldef
/cp /closepath ldef
/gr /grestore ldef
/gs /gsave ldef
/mt /moveto ldef
/np /newpath ldef
/cm /currentmatrix ldef
/sm /setmatrix ldef
/rm /rmoveto ldef
/rl /rlineto ldef
/s {show newpath} bdef
/sc {setcmykcolor} bdef
/sr /setrgbcolor ldef
/sg /setgray ldef
/w /setlinewidth ldef
/j /setlinejoin ldef
/cap /setlinecap ldef
/rc {rectclip} bdef
/rf {rectfill} bdef
% page state control
/pgsv () def
/bpage {/pgsv save def} bdef
/epage {pgsv restore} bdef
/bplot /gsave ldef
/eplot {stroke grestore} bdef
% orientation switch
/portraitMode 0 def /landscapeMode 1 def /rotateMode 2 def
% coordinate system mappings
/dpi2point 0 def
% font control
/FontSize 0 def
/FMS {/FontSize xstore findfont [FontSize 0 0 FontSize neg 0 0]
  makefont setfont} bdef
/reencode {exch dup where {pop load} {pop StandardEncoding} ifelse
  exch dup 3 1 roll findfont dup length dict begin
  { 1 index /FID ne {def}{pop pop} ifelse } forall
  /Encoding exch def currentdict end definefont pop} bdef
/isroman {findfont /CharStrings get /Agrave known} bdef
/FMSR {3 1 roll 1 index dup isroman {reencode} {pop pop} ifelse
  exch FMS} bdef
/csm {1 dpi2point div -1 dpi2point div scale neg translate
 dup landscapeMode eq {pop -90 rotate}
  {rotateMode eq {90 rotate} if} ifelse} bdef
% line types: solid, dotted, dashed, dotdash
/SO { [] 0 setdash } bdef
/DO { [.5 dpi2point mul 4 dpi2point mul] 0 setdash } bdef
/DA { [6 dpi2point mul] 0 setdash } bdef
/DD { [.5 dpi2point mul 4 dpi2point mul 6 dpi2point mul 4
  dpi2point mul] 0 setdash } bdef
% macros for lines and objects
/L {lineto stroke} bdef
/MP {3 1 roll moveto 1 sub {rlineto} repeat} bdef
/AP {{rlineto} repeat} bdef
/PDlw -1 def
/W {/PDlw currentlinewidth def setlinewidth} def
/PP {closepath eofill} bdef
/DP {closepath stroke} bdef
/MR {4 -2 roll moveto dup  0 exch rlineto exch 0 rlineto
  neg 0 exch rlineto closepath} bdef
/FR {MR stroke} bdef
/PR {MR fill} bdef
/L1i {{currentfile picstr readhexstring pop} image} bdef
/tMatrix matrix def
/MakeOval {newpath tMatrix currentmatrix pop translate scale
0 0 1 0 360 arc tMatrix setmatrix} bdef
/FO {MakeOval stroke} bdef
/PO {MakeOval fill} bdef
/PD {currentlinewidth 2 div 0 360 arc fill
   PDlw -1 eq not {PDlw w /PDlw -1 def} if} def
/FA {newpath tMatrix currentmatrix pop translate scale
  0 0 1 5 -2 roll arc tMatrix setmatrix stroke} bdef
/PA {newpath tMatrix currentmatrix pop	translate 0 0 moveto scale
  0 0 1 5 -2 roll arc closepath tMatrix setmatrix fill} bdef
/FAn {newpath tMatrix currentmatrix pop translate scale
  0 0 1 5 -2 roll arcn tMatrix setmatrix stroke} bdef
/PAn {newpath tMatrix currentmatrix pop translate 0 0 moveto scale
  0 0 1 5 -2 roll arcn closepath tMatrix setmatrix fill} bdef
/vradius 0 def /hradius 0 def /lry 0 def
/lrx 0 def /uly 0 def /ulx 0 def /rad 0 def
/MRR {/vradius xdef /hradius xdef /lry xdef /lrx xdef /uly xdef
  /ulx xdef newpath tMatrix currentmatrix pop ulx hradius add uly
  vradius add translate hradius vradius scale 0 0 1 180 270 arc 
  tMatrix setmatrix lrx hradius sub uly vradius add translate
  hradius vradius scale 0 0 1 270 360 arc tMatrix setmatrix
  lrx hradius sub lry vradius sub translate hradius vradius scale
  0 0 1 0 90 arc tMatrix setmatrix ulx hradius add lry vradius sub
  translate hradius vradius scale 0 0 1 90 180 arc tMatrix setmatrix
  closepath} bdef
/FRR {MRR stroke } bdef
/PRR {MRR fill } bdef
/MlrRR {/lry xdef /lrx xdef /uly xdef /ulx xdef /rad lry uly sub 2 div def
  newpath tMatrix currentmatrix pop ulx rad add uly rad add translate
  rad rad scale 0 0 1 90 270 arc tMatrix setmatrix lrx rad sub lry rad
  sub translate rad rad scale 0 0 1 270 90 arc tMatrix setmatrix
  closepath} bdef
/FlrRR {MlrRR stroke } bdef
/PlrRR {MlrRR fill } bdef
/MtbRR {/lry xdef /lrx xdef /uly xdef /ulx xdef /rad lrx ulx sub 2 div def
  newpath tMatrix currentmatrix pop ulx rad add uly rad add translate
  rad rad scale 0 0 1 180 360 arc tMatrix setmatrix lrx rad sub lry rad
  sub translate rad rad scale 0 0 1 0 180 arc tMatrix setmatrix
  closepath} bdef
/FtbRR {MtbRR stroke } bdef
/PtbRR {MtbRR fill } bdef
/stri 6 array def /dtri 6 array def
/smat 6 array def /dmat 6 array def
/tmat1 6 array def /tmat2 6 array def /dif 3 array def
/asub {/ind2 exch def /ind1 exch def dup dup
  ind1 get exch ind2 get sub exch } bdef
/tri_to_matrix {
  2 0 asub 3 1 asub 4 0 asub 5 1 asub
  dup 0 get exch 1 get 7 -1 roll astore } bdef
/compute_transform {
  dmat dtri tri_to_matrix tmat1 invertmatrix 
  smat stri tri_to_matrix tmat2 concatmatrix } bdef
/ds {stri astore pop} bdef
/dt {dtri astore pop} bdef
/db {2 copy /cols xdef /rows xdef mul dup string
  currentfile exch readhexstring pop
  /bmap xdef pop pop} bdef
/it {gs np dtri aload pop moveto lineto lineto cp c
  cols rows 8 compute_transform 
  {bmap} image gr}bdef
/il {newpath moveto lineto stroke}bdef
currentdict end def
%%EndProlog

%%BeginSetup
MathWorks begin

0 cap

end
%%EndSetup

%%Page: 1 1
%%BeginPageSetup
%%PageBoundingBox:    46   198   564   602
MathWorks begin
bpage
%%EndPageSetup

%%BeginObject: obj1
bplot

/dpi2point 12 def
portraitMode 0216 7344 csm

  343   110  6216  4853 MR c np
85 dict begin %Colortable dictionary
/c0 { 0.000000 0.000000 0.000000 sr} bdef
/c1 { 1.000000 1.000000 1.000000 sr} bdef
/c2 { 0.900000 0.000000 0.000000 sr} bdef
/c3 { 0.000000 0.820000 0.000000 sr} bdef
/c4 { 0.000000 0.000000 0.800000 sr} bdef
/c5 { 0.910000 0.820000 0.320000 sr} bdef
/c6 { 1.000000 0.260000 0.820000 sr} bdef
/c7 { 0.000000 0.820000 0.820000 sr} bdef
c0
1 j
1 sg
   0    0 6913 5186 PR
6 w
0 4226 4732 0 0 -4226 899 4615 4 MP
PP
-4732 0 0 4226 4732 0 0 -4226 899 4615 5 MP stroke
4 w
DO
SO
6 w
0 sg
 899 4615 mt 5631 4615 L
 899 4615 mt  899  389 L
 899 4615 mt  899 4567 L
%%IncludeResource: font Helvetica
/Helvetica /ISOLatin1Encoding 120 FMSR

 783 4760 mt 
(1.15) s
1575 4615 mt 1575 4567 L
1492 4760 mt 
(1.2) s
2251 4615 mt 2251 4567 L
2135 4760 mt 
(1.25) s
2927 4615 mt 2927 4567 L
2844 4760 mt 
(1.3) s
3603 4615 mt 3603 4567 L
3487 4760 mt 
(1.35) s
4279 4615 mt 4279 4567 L
4196 4760 mt 
(1.4) s
4955 4615 mt 4955 4567 L
4839 4760 mt 
(1.45) s
5631 4615 mt 5631 4567 L
5548 4760 mt 
(1.5) s
5361 4962 mt 
(x 10) s
%%IncludeResource: font Helvetica
/Helvetica /ISOLatin1Encoding 80 FMSR

5587 4888 mt 
(4) s
 899 4615 mt  946 4615 L
%%IncludeResource: font Helvetica
/Helvetica /ISOLatin1Encoding 120 FMSR

 561 4659 mt 
(-3.35) s
 899 3910 mt  946 3910 L
 628 3954 mt 
(-3.3) s
 899 3206 mt  946 3206 L
 561 3250 mt 
(-3.25) s
 899 2502 mt  946 2502 L
 628 2546 mt 
(-3.2) s
 899 1797 mt  946 1797 L
 561 1841 mt 
(-3.15) s
 899 1093 mt  946 1093 L
 628 1137 mt 
(-3.1) s
 899  389 mt  946  389 L
 561  433 mt 
(-3.05) s
 899  335 mt 
(x 10) s
%%IncludeResource: font Helvetica
/Helvetica /ISOLatin1Encoding 80 FMSR

1125  261 mt 
(5) s
gs 899 389 4733 4227 MR c np
0 j
gs 4708 4063 123 123 MR c np
/c8 { 0.000000 0.437500 1.000000 sr} bdef
c8
  30   30 4769 4124 PO
gr

c8
gs 4708 4063 123 123 MR c np
  30   30 4769 4124 PO
gr

gs 4708 4063 123 123 MR c np
  30   30 4769 4124 PO
gr

gs 4708 4063 123 123 MR c np
  30   30 4769 4124 PO
gr

gs 4623 3880 123 123 MR c np
/c9 { 0.000000 0.375000 1.000000 sr} bdef
c9
  30   30 4684 3941 PO
gr

c9
gs 4665 3907 123 123 MR c np
/c10 { 0.000000 0.312500 1.000000 sr} bdef
c10
  30   30 4726 3968 PO
gr

c10
gs 4665 3907 123 123 MR c np
  30   30 4726 3968 PO
gr

gs 4873 4111 123 123 MR c np
/c11 { 0.000000 0.187500 1.000000 sr} bdef
c11
  30   30 4934 4172 PO
gr

c11
gs 4986 4216 123 123 MR c np
/c12 { 0.000000 0.125000 1.000000 sr} bdef
c12
  30   30 5047 4277 PO
gr

c12
gs 4873 4111 123 123 MR c np
  30   30 4934 4172 PO
gr

gs 5134 4235 123 123 MR c np
/c13 { 0.000000 0.000000 0.937500 sr} bdef
c13
  30   30 5195 4296 PO
gr

c13
gs 5137 4248 123 123 MR c np
  30   30 5198 4309 PO
gr

gs 5134 4235 123 123 MR c np
  30   30 5195 4296 PO
gr

gs 5134 4235 123 123 MR c np
  30   30 5195 4296 PO
gr

gs 4665 3907 123 123 MR c np
  30   30 4726 3968 PO
gr

gs 4873 4111 123 123 MR c np
/c14 { 0.000000 0.000000 0.875000 sr} bdef
c14
  30   30 4934 4172 PO
gr

c14
gs 5134 4235 123 123 MR c np
/c15 { 0.000000 0.000000 0.812500 sr} bdef
c15
  30   30 5195 4296 PO
gr

c15
gs 5134 4235 123 123 MR c np
  30   30 5195 4296 PO
gr

gs 5297 4301 123 123 MR c np
/c16 { 0.000000 0.000000 0.750000 sr} bdef
c16
  30   30 5358 4362 PO
gr

c16
gs 5297 4301 123 123 MR c np
/c17 { 0.000000 0.000000 0.625000 sr} bdef
c17
  30   30 5358 4362 PO
gr

c17
gs 4665 3907 123 123 MR c np
/c18 { 0.000000 0.000000 0.562500 sr} bdef
c18
  30   30 4726 3968 PO
gr

c18
gr

c18
0 sg
%%IncludeResource: font Helvetica
/Helvetica /ISOLatin1Encoding 120 FMSR

3131 4903 mt 
(Time) s
 479 2643 mt  -90 rotate
(Profit) s
90 rotate
2144  294 mt 
(rat783_n2346_bounded-strongly-corr_01) s
 882 4658 mt 
( ) s
5615  431 mt 
( ) s
%%IncludeResource: font Symbol
/Symbol /ISOLatin1Encoding 120 FMSR

4772 4168 mt 
(\254) s
%%IncludeResource: font Helvetica
/Helvetica /ISOLatin1Encoding 120 FMSR

4890 4168 mt 
( EMO \(107174\)) s
gs 899 389 4733 4227 MR c np
0 j
gs 1139 867 123 123 MR c np
30 39 -30 39 -30 -39 30 -39 1200 967 5 MP
/c19 { 1.000000 0.062500 0.000000 sr} bdef
c19
PP
gr

c19
gr

c19
0 sg
%%IncludeResource: font Symbol
/Symbol /ISOLatin1Encoding 120 FMSR

1203  972 mt 
(\254) s
%%IncludeResource: font Helvetica
/Helvetica /ISOLatin1Encoding 120 FMSR

1321  972 mt 
( S5 \(125719\)) s
gs 899 389 4733 4227 MR c np
0 j
gs 1367 1840 123 123 MR c np
0 -48 -48 0 0 48 48 0 1404 1877 5 MP
/c20 { 0.500000 0.000000 0.000000 sr} bdef
c20
PP
gr

c20
gr

c20
0 sg
%%IncludeResource: font Symbol
/Symbol /ISOLatin1Encoding 120 FMSR

1431 1944 mt 
(\254) s
%%IncludeResource: font Helvetica
/Helvetica /ISOLatin1Encoding 120 FMSR

1549 1944 mt 
( MA2B \(129981\)) s
1 sg
0 4228 240 0 0 -4228 5811 4616 4 MP
PP
-240 0 0 4228 240 0 0 -4228 5811 4616 5 MP stroke
0 sg
6459 2790 mt  -90 rotate
(TTP Score) s
90 rotate
gs 5811 389 241 4228 MR c np
gs np 5811 389 mt 0 4227 rl 240 0 rl 0 -4227 rl cp c np
[240 0 0 4227 5811 389] cc
/picstr 1 string def
1 64 8 [1.000000 0 0 64.000000 0 0] L1i
262B2F34393E42474C555F68727B848E97A1AAB3BDC6D0D9E2DFDCD9D6D3D0CDCAC7C4C1BEBBB8B5
B2A99F968C837A70675D544B41382E251C1A18161513110F
gr
gr

4 w
DO
SO
6 w
5811 4616 mt 6051 4616 L
5811  388 mt 6051  388 L
5811 4616 mt 5811  388 L
6051 4616 mt 6051  388 L
5811 4616 mt 6051 4616 L
6051 4616 mt 6051  388 L
6051 3991 mt 6008 3991 L
5811 3991 mt 5853 3991 L
6085 4035 mt 
(1.05) s
6051 3270 mt 6008 3270 L
5811 3270 mt 5853 3270 L
6085 3314 mt 
(1.1) s
6051 2549 mt 6008 2549 L
5811 2549 mt 5853 2549 L
6085 2593 mt 
(1.15) s
6051 1828 mt 6008 1828 L
5811 1828 mt 5853 1828 L
6085 1872 mt 
(1.2) s
6051 1107 mt 6008 1107 L
5811 1107 mt 5853 1107 L
6085 1151 mt 
(1.25) s
6051  335 mt 
(x 10) s
%%IncludeResource: font Helvetica
/Helvetica /ISOLatin1Encoding 80 FMSR

6277  261 mt 
(5) s
5811 4616 mt 6051 4616 L
5811  388 mt 6051  388 L
5811 4616 mt 5811  388 L
6051 4616 mt 6051  388 L

end %%Color Dict

eplot
%%EndObject

epage
end

showpage

%%Trailer
%%EOF
