49056.01950104711  -11463.0  1651.7960997905775 4543  8463
54974.67566393473  -16965.0  5970.064867213054 1041  11965
52089.41509123358  -14761.0  4343.116981753283 2145  10861
60443.90276525614  -18590.0  6501.219446948771 16  12990
60443.90276525614  -18590.0  6501.219446948771 16  12990
49282.33637100747  -12842.0  2985.5327257985045 3964  9042
55390.93103027733  -17404.0  6325.813793944533 602  12404
51500.56709046189  -14120.0  3819.886581907622 3086  9920
52434.32083911433  -16129.0  5642.135832177133 1577  11429
70575.77429119889  -19074.0  4958.845141760221 232  12774
56869.20062282527  -17527.0  6153.159875434945 379  12627
64760.57215857111  -18662.0  5709.8855682857775 44  12962
73222.96101987494  -19760.0  5115.407796025011 246  12760
53724.01208675678  -16298.0  5553.197582648643 1508  11498
70817.55371662501  -19494.0  5330.489256674997 12  12994
76995.47036392105  -20100.0  4700.90592721579 6  13000
76008.0430137094  -20064.0  4862.391397258121 42  12964
54791.02369686388  -16849.0  5890.795260627223 957  12049
58222.97729228196  -18146.0  6501.404541543607 260  12746
60048.81956036969  -18486.0  6476.236087926061 120  12886
89068.94661756621  -20358.0  2544.2106764867567 48  12958
60443.90276525614  -18590.0  6501.219446948771 16  12990
57745.56429700843  -18012.0  6462.887140598314 294  12712
59448.93956816858  -18231.0  6341.212086366284 75  12931
65504.39145479294  -19011.0  5910.121709041412 95  12911
60048.81956036969  -18486.0  6476.236087926061 120  12886
56869.77918151863  -17717.0  6343.044163696273 289  12717
78099.95549626053  -20200.0  4580.008900747893 106  12900
59302.76894905821  -18176.0  6315.446210188356 30  12976
78731.00329012568  -20347.0  4600.799341974864 59  12947
56131.16342645711  -17419.0  6192.767314708577 587  12419
76008.0430137094  -20064.0  4862.391397258121 346  12660
70817.55371662501  -19494.0  5330.489256674997 974  12032
89068.94661756621  -20358.0  2544.2106764867567 751  12255
51500.56709046189  -14120.0  3819.886581907622 628  12378
55390.93103027733  -17404.0  6325.813793944533 401  12605
76008.0430137094  -20064.0  4862.391397258121 165  12841
49056.01950104711  -11463.0  1651.7960997905775 1573  11433
78731.00329012568  -20347.0  4600.799341974864 4  13002
76995.47036392105  -20100.0  4700.90592721579 1261  11745
56869.77918151863  -17717.0  6343.044163696273 480  12526
55390.93103027733  -17404.0  6325.813793944533 280  12726
53724.01208675678  -16298.0  5553.197582648643 7  12999
60443.90276525614  -18590.0  6501.219446948771 314  12692
73222.96101987494  -19760.0  5115.407796025011 210  12796
78099.95549626053  -20200.0  4580.008900747893 100  12906
51500.56709046189  -14120.0  3819.886581907622 43  12963
60443.90276525614  -18590.0  6501.219446948771 69  12937
52089.41509123358  -14761.0  4343.116981753283 171  12835
64760.57215857111  -18662.0  5709.8855682857775 395  12611
89068.94661756621  -20358.0  2544.2106764867567 120  12886
54974.67566393473  -16965.0  5970.064867213054 528  12478
76008.0430137094  -20064.0  4862.391397258121 965  12041
54974.67566393473  -16965.0  5970.064867213054 500  12506
54974.67566393473  -16965.0  5970.064867213054 29  12977
57745.56429700843  -18012.0  6462.887140598314 249  12757
56869.20062282527  -17527.0  6153.159875434945 142  12864
59302.76894905821  -18176.0  6315.446210188356 29  12977
51500.56709046189  -14120.0  3819.886581907622 490  12516
64760.57215857111  -18662.0  5709.8855682857775 148  12858
49282.33637100747  -12842.0  2985.5327257985045 171  12835
78731.00329012568  -20347.0  4600.799341974864 780  12226
49056.01950104711  -11463.0  1651.7960997905775 68  12938
59302.76894905821  -18176.0  6315.446210188356 1508  11498
65504.39145479294  -19011.0  5910.121709041412 196  12810
53724.01208675678  -16298.0  5553.197582648643 38  12968
51500.56709046189  -14120.0  3819.886581907622 311  12695
70575.77429119889  -19074.0  4958.845141760221 678  12328
58222.97729228196  -18146.0  6501.404541543607 76  12930
59448.93956816858  -18231.0  6341.212086366284 501  12505
60048.81956036969  -18486.0  6476.236087926061 611  12395
78731.00329012568  -20347.0  4600.799341974864 2744  10262
76995.47036392105  -20100.0  4700.90592721579 271  12735
78099.95549626053  -20200.0  4580.008900747893 184  12822
52089.41509123358  -14761.0  4343.116981753283 249  12757
89068.94661756621  -20358.0  2544.2106764867567 142  12864
65504.39145479294  -19011.0  5910.121709041412 766  12240
89068.94661756621  -20358.0  2544.2106764867567 330  12676
70575.77429119889  -19074.0  4958.845141760221 154  12852
60443.90276525614  -18590.0  6501.219446948771 4574  8432
60048.81956036969  -18486.0  6476.236087926061 267  12739
64760.57215857111  -18662.0  5709.8855682857775 385  12621
54791.02369686388  -16849.0  5890.795260627223 1039  11967
65504.39145479294  -19011.0  5910.121709041412 2497  10509
70575.77429119889  -19074.0  4958.845141760221 723  12283
59448.93956816858  -18231.0  6341.212086366284 133  12873
58222.97729228196  -18146.0  6501.404541543607 452  12554
65504.39145479294  -19011.0  5910.121709041412 36  12970
