%!PS-Adobe-2.0 EPSF-1.2
%%Creator: MATLAB, The MathWorks, Inc. Version 8.1.0.604 (R2013a). Operating System: Linux 3.14.27-100.fc19.x86_64 #1 SMP Wed Dec 17 19:36:34 UTC 2014 x86_64.
%%Title: ./u159_n158_bounded-strongly-corr_01.eps
%%CreationDate: 11/08/2016  14:06:58
%%DocumentNeededFonts: Helvetica
%%DocumentProcessColors: Cyan Magenta Yellow Black
%%Pages: 1
%%BoundingBox:    52   198   567   602
%%EndComments

%%BeginProlog
% MathWorks dictionary
/MathWorks 160 dict begin
% definition operators
/bdef {bind def} bind def
/ldef {load def} bind def
/xdef {exch def} bdef
/xstore {exch store} bdef
% operator abbreviations
/c  /clip ldef
/cc /concat ldef
/cp /closepath ldef
/gr /grestore ldef
/gs /gsave ldef
/mt /moveto ldef
/np /newpath ldef
/cm /currentmatrix ldef
/sm /setmatrix ldef
/rm /rmoveto ldef
/rl /rlineto ldef
/s {show newpath} bdef
/sc {setcmykcolor} bdef
/sr /setrgbcolor ldef
/sg /setgray ldef
/w /setlinewidth ldef
/j /setlinejoin ldef
/cap /setlinecap ldef
/rc {rectclip} bdef
/rf {rectfill} bdef
% page state control
/pgsv () def
/bpage {/pgsv save def} bdef
/epage {pgsv restore} bdef
/bplot /gsave ldef
/eplot {stroke grestore} bdef
% orientation switch
/portraitMode 0 def /landscapeMode 1 def /rotateMode 2 def
% coordinate system mappings
/dpi2point 0 def
% font control
/FontSize 0 def
/FMS {/FontSize xstore findfont [FontSize 0 0 FontSize neg 0 0]
  makefont setfont} bdef
/reencode {exch dup where {pop load} {pop StandardEncoding} ifelse
  exch dup 3 1 roll findfont dup length dict begin
  { 1 index /FID ne {def}{pop pop} ifelse } forall
  /Encoding exch def currentdict end definefont pop} bdef
/isroman {findfont /CharStrings get /Agrave known} bdef
/FMSR {3 1 roll 1 index dup isroman {reencode} {pop pop} ifelse
  exch FMS} bdef
/csm {1 dpi2point div -1 dpi2point div scale neg translate
 dup landscapeMode eq {pop -90 rotate}
  {rotateMode eq {90 rotate} if} ifelse} bdef
% line types: solid, dotted, dashed, dotdash
/SO { [] 0 setdash } bdef
/DO { [.5 dpi2point mul 4 dpi2point mul] 0 setdash } bdef
/DA { [6 dpi2point mul] 0 setdash } bdef
/DD { [.5 dpi2point mul 4 dpi2point mul 6 dpi2point mul 4
  dpi2point mul] 0 setdash } bdef
% macros for lines and objects
/L {lineto stroke} bdef
/MP {3 1 roll moveto 1 sub {rlineto} repeat} bdef
/AP {{rlineto} repeat} bdef
/PDlw -1 def
/W {/PDlw currentlinewidth def setlinewidth} def
/PP {closepath eofill} bdef
/DP {closepath stroke} bdef
/MR {4 -2 roll moveto dup  0 exch rlineto exch 0 rlineto
  neg 0 exch rlineto closepath} bdef
/FR {MR stroke} bdef
/PR {MR fill} bdef
/L1i {{currentfile picstr readhexstring pop} image} bdef
/tMatrix matrix def
/MakeOval {newpath tMatrix currentmatrix pop translate scale
0 0 1 0 360 arc tMatrix setmatrix} bdef
/FO {MakeOval stroke} bdef
/PO {MakeOval fill} bdef
/PD {currentlinewidth 2 div 0 360 arc fill
   PDlw -1 eq not {PDlw w /PDlw -1 def} if} def
/FA {newpath tMatrix currentmatrix pop translate scale
  0 0 1 5 -2 roll arc tMatrix setmatrix stroke} bdef
/PA {newpath tMatrix currentmatrix pop	translate 0 0 moveto scale
  0 0 1 5 -2 roll arc closepath tMatrix setmatrix fill} bdef
/FAn {newpath tMatrix currentmatrix pop translate scale
  0 0 1 5 -2 roll arcn tMatrix setmatrix stroke} bdef
/PAn {newpath tMatrix currentmatrix pop translate 0 0 moveto scale
  0 0 1 5 -2 roll arcn closepath tMatrix setmatrix fill} bdef
/vradius 0 def /hradius 0 def /lry 0 def
/lrx 0 def /uly 0 def /ulx 0 def /rad 0 def
/MRR {/vradius xdef /hradius xdef /lry xdef /lrx xdef /uly xdef
  /ulx xdef newpath tMatrix currentmatrix pop ulx hradius add uly
  vradius add translate hradius vradius scale 0 0 1 180 270 arc 
  tMatrix setmatrix lrx hradius sub uly vradius add translate
  hradius vradius scale 0 0 1 270 360 arc tMatrix setmatrix
  lrx hradius sub lry vradius sub translate hradius vradius scale
  0 0 1 0 90 arc tMatrix setmatrix ulx hradius add lry vradius sub
  translate hradius vradius scale 0 0 1 90 180 arc tMatrix setmatrix
  closepath} bdef
/FRR {MRR stroke } bdef
/PRR {MRR fill } bdef
/MlrRR {/lry xdef /lrx xdef /uly xdef /ulx xdef /rad lry uly sub 2 div def
  newpath tMatrix currentmatrix pop ulx rad add uly rad add translate
  rad rad scale 0 0 1 90 270 arc tMatrix setmatrix lrx rad sub lry rad
  sub translate rad rad scale 0 0 1 270 90 arc tMatrix setmatrix
  closepath} bdef
/FlrRR {MlrRR stroke } bdef
/PlrRR {MlrRR fill } bdef
/MtbRR {/lry xdef /lrx xdef /uly xdef /ulx xdef /rad lrx ulx sub 2 div def
  newpath tMatrix currentmatrix pop ulx rad add uly rad add translate
  rad rad scale 0 0 1 180 360 arc tMatrix setmatrix lrx rad sub lry rad
  sub translate rad rad scale 0 0 1 0 180 arc tMatrix setmatrix
  closepath} bdef
/FtbRR {MtbRR stroke } bdef
/PtbRR {MtbRR fill } bdef
/stri 6 array def /dtri 6 array def
/smat 6 array def /dmat 6 array def
/tmat1 6 array def /tmat2 6 array def /dif 3 array def
/asub {/ind2 exch def /ind1 exch def dup dup
  ind1 get exch ind2 get sub exch } bdef
/tri_to_matrix {
  2 0 asub 3 1 asub 4 0 asub 5 1 asub
  dup 0 get exch 1 get 7 -1 roll astore } bdef
/compute_transform {
  dmat dtri tri_to_matrix tmat1 invertmatrix 
  smat stri tri_to_matrix tmat2 concatmatrix } bdef
/ds {stri astore pop} bdef
/dt {dtri astore pop} bdef
/db {2 copy /cols xdef /rows xdef mul dup string
  currentfile exch readhexstring pop
  /bmap xdef pop pop} bdef
/it {gs np dtri aload pop moveto lineto lineto cp c
  cols rows 8 compute_transform 
  {bmap} image gr}bdef
/il {newpath moveto lineto stroke}bdef
currentdict end def
%%EndProlog

%%BeginSetup
MathWorks begin

0 cap

end
%%EndSetup

%%Page: 1 1
%%BeginPageSetup
%%PageBoundingBox:    52   198   567   602
MathWorks begin
bpage
%%EndPageSetup

%%BeginObject: obj1
bplot

/dpi2point 12 def
portraitMode 0216 7344 csm

  410   110  6182  4853 MR c np
85 dict begin %Colortable dictionary
/c0 { 0.000000 0.000000 0.000000 sr} bdef
/c1 { 1.000000 1.000000 1.000000 sr} bdef
/c2 { 0.900000 0.000000 0.000000 sr} bdef
/c3 { 0.000000 0.820000 0.000000 sr} bdef
/c4 { 0.000000 0.000000 0.800000 sr} bdef
/c5 { 0.910000 0.820000 0.320000 sr} bdef
/c6 { 1.000000 0.260000 0.820000 sr} bdef
/c7 { 0.000000 0.820000 0.820000 sr} bdef
c0
1 j
1 sg
   0    0 6913 5186 PR
6 w
0 4226 4732 0 0 -4226 899 4615 4 MP
PP
-4732 0 0 4226 4732 0 0 -4226 899 4615 5 MP stroke
4 w
DO
SO
6 w
0 sg
 899 4615 mt 5631 4615 L
 899 4615 mt  899  389 L
 899 4615 mt  899 4567 L
%%IncludeResource: font Helvetica
/Helvetica /ISOLatin1Encoding 120 FMSR

 816 4760 mt 
(4.5) s
1424 4615 mt 1424 4567 L
1391 4760 mt 
(5) s
1950 4615 mt 1950 4567 L
1867 4760 mt 
(5.5) s
2476 4615 mt 2476 4567 L
2443 4760 mt 
(6) s
3002 4615 mt 3002 4567 L
2919 4760 mt 
(6.5) s
3527 4615 mt 3527 4567 L
3494 4760 mt 
(7) s
4053 4615 mt 4053 4567 L
3970 4760 mt 
(7.5) s
4579 4615 mt 4579 4567 L
4546 4760 mt 
(8) s
5105 4615 mt 5105 4567 L
5022 4760 mt 
(8.5) s
5631 4615 mt 5631 4567 L
5598 4760 mt 
(9) s
5361 4962 mt 
(x 10) s
%%IncludeResource: font Helvetica
/Helvetica /ISOLatin1Encoding 80 FMSR

5587 4888 mt 
(4) s
 899 4615 mt  946 4615 L
%%IncludeResource: font Helvetica
/Helvetica /ISOLatin1Encoding 120 FMSR

 628 4659 mt 
(-2.1) s
 899 4192 mt  946 4192 L
 728 4236 mt 
(-2) s
 899 3769 mt  946 3769 L
 628 3813 mt 
(-1.9) s
 899 3347 mt  946 3347 L
 628 3391 mt 
(-1.8) s
 899 2924 mt  946 2924 L
 628 2968 mt 
(-1.7) s
 899 2502 mt  946 2502 L
 628 2546 mt 
(-1.6) s
 899 2079 mt  946 2079 L
 628 2123 mt 
(-1.5) s
 899 1656 mt  946 1656 L
 628 1700 mt 
(-1.4) s
 899 1234 mt  946 1234 L
 628 1278 mt 
(-1.3) s
 899  811 mt  946  811 L
 628  855 mt 
(-1.2) s
 899  389 mt  946  389 L
 628  433 mt 
(-1.1) s
 899  335 mt 
(x 10) s
%%IncludeResource: font Helvetica
/Helvetica /ISOLatin1Encoding 80 FMSR

1125  261 mt 
(4) s
gs 899 389 4733 4227 MR c np
0 j
gs 1264 523 123 123 MR c np
/c8 { 0.000000 0.000000 0.562500 sr} bdef
c8
  30   30 1325  584 PO
gr

c8
gs 1886 2848 123 123 MR c np
/c9 { 1.000000 1.000000 0.000000 sr} bdef
c9
  30   30 1947 2909 PO
gr

c9
gs 1583 1917 123 123 MR c np
/c10 { 0.062500 1.000000 0.937500 sr} bdef
c10
  30   30 1644 1978 PO
gr

c10
gs 2462 3535 123 123 MR c np
/c11 { 1.000000 0.687500 0.000000 sr} bdef
c11
  30   30 2523 3596 PO
gr

c11
gs 2462 3535 123 123 MR c np
  30   30 2523 3596 PO
gr

gs 1288 1106 123 123 MR c np
/c12 { 0.000000 0.312500 1.000000 sr} bdef
c12
  30   30 1349 1167 PO
gr

c12
gs 1930 3034 123 123 MR c np
/c13 { 1.000000 0.812500 0.000000 sr} bdef
c13
  30   30 1991 3095 PO
gr

c13
gs 1521 1646 123 123 MR c np
/c14 { 0.000000 0.750000 1.000000 sr} bdef
c14
  30   30 1582 1707 PO
gr

c14
gs 1619 2495 123 123 MR c np
/c15 { 0.812500 1.000000 0.187500 sr} bdef
c15
  30   30 1680 2556 PO
gr

c15
gs 3527 3740 123 123 MR c np
/c16 { 0.437500 1.000000 0.562500 sr} bdef
c16
  30   30 3588 3801 PO
gr

c16
gs 2086 3086 123 123 MR c np
/c17 { 1.000000 0.875000 0.000000 sr} bdef
c17
  30   30 2147 3147 PO
gr

c17
gs 2915 3565 123 123 MR c np
/c18 { 0.875000 1.000000 0.125000 sr} bdef
c18
  30   30 2976 3626 PO
gr

c18
gs 3805 4029 123 123 MR c np
/c19 { 0.500000 1.000000 0.500000 sr} bdef
c19
  30   30 3866 4090 PO
gr

c19
gs 1755 2566 123 123 MR c np
/c20 { 0.750000 1.000000 0.250000 sr} bdef
c20
  30   30 1816 2627 PO
gr

c20
gs 3552 3917 123 123 MR c np
/c21 { 0.625000 1.000000 0.375000 sr} bdef
c21
  30   30 3613 3978 PO
gr

c21
gs 4202 4173 123 123 MR c np
/c22 { 0.250000 1.000000 0.750000 sr} bdef
c22
  30   30 4263 4234 PO
gr

c22
gs 4098 4158 123 123 MR c np
/c23 { 0.375000 1.000000 0.625000 sr} bdef
c23
  30   30 4159 4219 PO
gr

c23
gs 1867 2799 123 123 MR c np
/c24 { 0.937500 1.000000 0.062500 sr} bdef
c24
  30   30 1928 2860 PO
gr

c24
gs 2228 3347 123 123 MR c np
c11
  30   30 2289 3408 PO
gr

c11
gs 2420 3491 123 123 MR c np
  30   30 2481 3552 PO
gr

gs 5472 4282 123 123 MR c np
/c25 { 0.000000 0.062500 1.000000 sr} bdef
c25
  30   30 5533 4343 PO
gr

c25
gs 2462 3535 123 123 MR c np
c11
  30   30 2523 3596 PO
gr

c11
gs 2178 3291 123 123 MR c np
/c26 { 1.000000 0.750000 0.000000 sr} bdef
c26
  30   30 2239 3352 PO
gr

c26
gs 2357 3383 123 123 MR c np
c13
  30   30 2418 3444 PO
gr

c13
gs 2994 3713 123 123 MR c np
c24
  30   30 3055 3774 PO
gr

c24
gs 2420 3491 123 123 MR c np
c11
  30   30 2481 3552 PO
gr

c11
gs 2086 3166 123 123 MR c np
c13
  30   30 2147 3227 PO
gr

c13
gs 4318 4215 123 123 MR c np
/c27 { 0.187500 1.000000 0.812500 sr} bdef
c27
  30   30 4379 4276 PO
gr

c27
gs 2342 3360 123 123 MR c np
c13
  30   30 2403 3421 PO
gr

c13
gs 4385 4278 123 123 MR c np
c27
  30   30 4446 4339 PO
gr

c27
gs 2008 3040 123 123 MR c np
c17
  30   30 2069 3101 PO
gr

c17
gs 4098 4158 123 123 MR c np
c23
  30   30 4159 4219 PO
gr

c23
gs 3552 3917 123 123 MR c np
c21
  30   30 3613 3978 PO
gr

c21
gs 5472 4282 123 123 MR c np
c25
  30   30 5533 4343 PO
gr

c25
gs 1521 1646 123 123 MR c np
c14
  30   30 1582 1707 PO
gr

c14
gs 1930 3034 123 123 MR c np
c13
  30   30 1991 3095 PO
gr

c13
gs 4098 4158 123 123 MR c np
c23
  30   30 4159 4219 PO
gr

c23
gs 1264 523 123 123 MR c np
c8
  30   30 1325  584 PO
gr

c8
gs 4385 4278 123 123 MR c np
c27
  30   30 4446 4339 PO
gr

c27
gs 4202 4173 123 123 MR c np
c22
  30   30 4263 4234 PO
gr

c22
gs 2086 3166 123 123 MR c np
c13
  30   30 2147 3227 PO
gr

c13
gs 1930 3034 123 123 MR c np
  30   30 1991 3095 PO
gr

gs 1755 2566 123 123 MR c np
c20
  30   30 1816 2627 PO
gr

c20
gs 2462 3535 123 123 MR c np
c11
  30   30 2523 3596 PO
gr

c11
gs 3805 4029 123 123 MR c np
c19
  30   30 3866 4090 PO
gr

c19
gs 4318 4215 123 123 MR c np
c27
  30   30 4379 4276 PO
gr

c27
gs 1521 1646 123 123 MR c np
c14
  30   30 1582 1707 PO
gr

c14
gs 2462 3535 123 123 MR c np
c11
  30   30 2523 3596 PO
gr

c11
gs 1583 1917 123 123 MR c np
c10
  30   30 1644 1978 PO
gr

c10
gs 2915 3565 123 123 MR c np
c18
  30   30 2976 3626 PO
gr

c18
gs 5472 4282 123 123 MR c np
c25
  30   30 5533 4343 PO
gr

c25
gs 1886 2848 123 123 MR c np
c9
  30   30 1947 2909 PO
gr

c9
gs 4098 4158 123 123 MR c np
c23
  30   30 4159 4219 PO
gr

c23
gs 1886 2848 123 123 MR c np
c9
  30   30 1947 2909 PO
gr

c9
gs 1886 2848 123 123 MR c np
  30   30 1947 2909 PO
gr

gs 2178 3291 123 123 MR c np
c26
  30   30 2239 3352 PO
gr

c26
gs 2086 3086 123 123 MR c np
c17
  30   30 2147 3147 PO
gr

c17
gs 2342 3360 123 123 MR c np
c13
  30   30 2403 3421 PO
gr

c13
gs 1521 1646 123 123 MR c np
c14
  30   30 1582 1707 PO
gr

c14
gs 2915 3565 123 123 MR c np
c18
  30   30 2976 3626 PO
gr

c18
gs 1288 1106 123 123 MR c np
c12
  30   30 1349 1167 PO
gr

c12
gs 4385 4278 123 123 MR c np
c27
  30   30 4446 4339 PO
gr

c27
gs 1264 523 123 123 MR c np
c8
  30   30 1325  584 PO
gr

c8
gs 2342 3360 123 123 MR c np
c13
  30   30 2403 3421 PO
gr

c13
gs 2994 3713 123 123 MR c np
c24
  30   30 3055 3774 PO
gr

c24
gs 1755 2566 123 123 MR c np
c20
  30   30 1816 2627 PO
gr

c20
gs 1521 1646 123 123 MR c np
c14
  30   30 1582 1707 PO
gr

c14
gs 3527 3740 123 123 MR c np
c16
  30   30 3588 3801 PO
gr

c16
gs 2228 3347 123 123 MR c np
c11
  30   30 2289 3408 PO
gr

c11
gs 2357 3383 123 123 MR c np
c13
  30   30 2418 3444 PO
gr

c13
gs 2420 3491 123 123 MR c np
c11
  30   30 2481 3552 PO
gr

c11
gs 4385 4278 123 123 MR c np
c27
  30   30 4446 4339 PO
gr

c27
gs 4202 4173 123 123 MR c np
c22
  30   30 4263 4234 PO
gr

c22
gs 4318 4215 123 123 MR c np
c27
  30   30 4379 4276 PO
gr

c27
gs 1583 1917 123 123 MR c np
c10
  30   30 1644 1978 PO
gr

c10
gs 5472 4282 123 123 MR c np
c25
  30   30 5533 4343 PO
gr

c25
gs 2994 3713 123 123 MR c np
c24
  30   30 3055 3774 PO
gr

c24
gs 5472 4282 123 123 MR c np
c25
  30   30 5533 4343 PO
gr

c25
gs 3527 3740 123 123 MR c np
c16
  30   30 3588 3801 PO
gr

c16
gs 2462 3535 123 123 MR c np
c11
  30   30 2523 3596 PO
gr

c11
gs 2420 3491 123 123 MR c np
  30   30 2481 3552 PO
gr

gs 2915 3565 123 123 MR c np
c18
  30   30 2976 3626 PO
gr

c18
gs 1867 2799 123 123 MR c np
c24
  30   30 1928 2860 PO
gr

c24
gs 2994 3713 123 123 MR c np
  30   30 3055 3774 PO
gr

gs 3527 3740 123 123 MR c np
c16
  30   30 3588 3801 PO
gr

c16
gs 2357 3383 123 123 MR c np
c13
  30   30 2418 3444 PO
gr

c13
gs 2228 3347 123 123 MR c np
c11
  30   30 2289 3408 PO
gr

c11
gs 2994 3713 123 123 MR c np
c24
  30   30 3055 3774 PO
gr

c24
gr

c24
0 sg
%%IncludeResource: font Helvetica
/Helvetica /ISOLatin1Encoding 120 FMSR

3131 4903 mt 
(Time) s
 546 2643 mt  -90 rotate
(Profit) s
90 rotate
2213  294 mt 
(u159_n158_bounded-strongly-corr_01) s
 882 4658 mt 
( ) s
5615  431 mt 
( ) s
%%IncludeResource: font Symbol
/Symbol /ISOLatin1Encoding 120 FMSR

2289 3452 mt 
(\254) s
%%IncludeResource: font Helvetica
/Helvetica /ISOLatin1Encoding 120 FMSR

2407 3452 mt 
( EMO \(6501\)) s
gs 899 389 4733 4227 MR c np
0 j
gs 2119 4161 123 123 MR c np
30 39 -30 39 -30 -39 30 -39 2180 4261 5 MP
/c28 { 0.500000 0.000000 0.000000 sr} bdef
c28
PP
gr

c28
gr

c28
0 sg
%%IncludeResource: font Symbol
/Symbol /ISOLatin1Encoding 120 FMSR

2180 4266 mt 
(\254) s
%%IncludeResource: font Helvetica
/Helvetica /ISOLatin1Encoding 120 FMSR

2298 4266 mt 
( S5 \(8634\)) s
gs 899 389 4733 4227 MR c np
0 j
gs 2123 4171 123 123 MR c np
0 -48 -48 0 0 48 48 0 2160 4208 5 MP
c28
PP
gr

c28
gr

c28
0 sg
%%IncludeResource: font Symbol
/Symbol /ISOLatin1Encoding 120 FMSR

2184 4276 mt 
(\254) s
%%IncludeResource: font Helvetica
/Helvetica /ISOLatin1Encoding 120 FMSR

2302 4276 mt 
( MA2B \(8651\)) s
1 sg
0 4227 240 0 0 -4227 5811 4616 4 MP
PP
-240 0 0 4227 240 0 0 -4227 5811 4616 5 MP stroke
0 sg
6492 2790 mt  -90 rotate
(TTP Score) s
90 rotate
gs 5811 389 241 4228 MR c np
gs np 5811 389 mt 0 4227 rl 240 0 rl 0 -4227 rl cp c np
[240 0 0 4227 5811 389] cc
/picstr 1 string def
1 64 8 [1.000000 0 0 64.000000 0 0] L1i
262B2F34393E42474C555F68727B848E97A1AAB3BDC6D0D9E2DFDCD9D6D3D0CDCAC7C4C1BEBBB8B5
B2A99F968C837A70675D544B41382E251C1A18161513110F
gr
gr

4 w
DO
SO
6 w
5811 4616 mt 6051 4616 L
5811  389 mt 6051  389 L
5811 4616 mt 5811  389 L
6051 4616 mt 6051  389 L
5811 4616 mt 6051 4616 L
6051 4616 mt 6051  389 L
6051 4405 mt 6008 4405 L
5811 4405 mt 5853 4405 L
6085 4449 mt 
(2000) s
6051 3801 mt 6008 3801 L
5811 3801 mt 5853 3801 L
6085 3845 mt 
(3000) s
6051 3197 mt 6008 3197 L
5811 3197 mt 5853 3197 L
6085 3241 mt 
(4000) s
6051 2593 mt 6008 2593 L
5811 2593 mt 5853 2593 L
6085 2637 mt 
(5000) s
6051 1989 mt 6008 1989 L
5811 1989 mt 5853 1989 L
6085 2033 mt 
(6000) s
6051 1385 mt 6008 1385 L
5811 1385 mt 5853 1385 L
6085 1429 mt 
(7000) s
6051  782 mt 6008  782 L
5811  782 mt 5853  782 L
6085  826 mt 
(8000) s
5811 4616 mt 6051 4616 L
5811  389 mt 6051  389 L
5811 4616 mt 5811  389 L
6051 4616 mt 6051  389 L

end %%Color Dict

eplot
%%EndObject

epage
end

showpage

%%Trailer
%%EOF
