%!PS-Adobe-2.0 EPSF-1.2
%%Creator: MATLAB, The MathWorks, Inc. Version 8.1.0.604 (R2013a). Operating System: Linux 3.14.27-100.fc19.x86_64 #1 SMP Wed Dec 17 19:36:34 UTC 2014 x86_64.
%%Title: ./u159_n474_bounded-strongly-corr_01.eps
%%CreationDate: 11/11/2016  18:13:08
%%DocumentNeededFonts: Helvetica
%%DocumentProcessColors: Cyan Magenta Yellow Black
%%Pages: 1
%%BoundingBox:    52   198   564   602
%%EndComments

%%BeginProlog
% MathWorks dictionary
/MathWorks 160 dict begin
% definition operators
/bdef {bind def} bind def
/ldef {load def} bind def
/xdef {exch def} bdef
/xstore {exch store} bdef
% operator abbreviations
/c  /clip ldef
/cc /concat ldef
/cp /closepath ldef
/gr /grestore ldef
/gs /gsave ldef
/mt /moveto ldef
/np /newpath ldef
/cm /currentmatrix ldef
/sm /setmatrix ldef
/rm /rmoveto ldef
/rl /rlineto ldef
/s {show newpath} bdef
/sc {setcmykcolor} bdef
/sr /setrgbcolor ldef
/sg /setgray ldef
/w /setlinewidth ldef
/j /setlinejoin ldef
/cap /setlinecap ldef
/rc {rectclip} bdef
/rf {rectfill} bdef
% page state control
/pgsv () def
/bpage {/pgsv save def} bdef
/epage {pgsv restore} bdef
/bplot /gsave ldef
/eplot {stroke grestore} bdef
% orientation switch
/portraitMode 0 def /landscapeMode 1 def /rotateMode 2 def
% coordinate system mappings
/dpi2point 0 def
% font control
/FontSize 0 def
/FMS {/FontSize xstore findfont [FontSize 0 0 FontSize neg 0 0]
  makefont setfont} bdef
/reencode {exch dup where {pop load} {pop StandardEncoding} ifelse
  exch dup 3 1 roll findfont dup length dict begin
  { 1 index /FID ne {def}{pop pop} ifelse } forall
  /Encoding exch def currentdict end definefont pop} bdef
/isroman {findfont /CharStrings get /Agrave known} bdef
/FMSR {3 1 roll 1 index dup isroman {reencode} {pop pop} ifelse
  exch FMS} bdef
/csm {1 dpi2point div -1 dpi2point div scale neg translate
 dup landscapeMode eq {pop -90 rotate}
  {rotateMode eq {90 rotate} if} ifelse} bdef
% line types: solid, dotted, dashed, dotdash
/SO { [] 0 setdash } bdef
/DO { [.5 dpi2point mul 4 dpi2point mul] 0 setdash } bdef
/DA { [6 dpi2point mul] 0 setdash } bdef
/DD { [.5 dpi2point mul 4 dpi2point mul 6 dpi2point mul 4
  dpi2point mul] 0 setdash } bdef
% macros for lines and objects
/L {lineto stroke} bdef
/MP {3 1 roll moveto 1 sub {rlineto} repeat} bdef
/AP {{rlineto} repeat} bdef
/PDlw -1 def
/W {/PDlw currentlinewidth def setlinewidth} def
/PP {closepath eofill} bdef
/DP {closepath stroke} bdef
/MR {4 -2 roll moveto dup  0 exch rlineto exch 0 rlineto
  neg 0 exch rlineto closepath} bdef
/FR {MR stroke} bdef
/PR {MR fill} bdef
/L1i {{currentfile picstr readhexstring pop} image} bdef
/tMatrix matrix def
/MakeOval {newpath tMatrix currentmatrix pop translate scale
0 0 1 0 360 arc tMatrix setmatrix} bdef
/FO {MakeOval stroke} bdef
/PO {MakeOval fill} bdef
/PD {currentlinewidth 2 div 0 360 arc fill
   PDlw -1 eq not {PDlw w /PDlw -1 def} if} def
/FA {newpath tMatrix currentmatrix pop translate scale
  0 0 1 5 -2 roll arc tMatrix setmatrix stroke} bdef
/PA {newpath tMatrix currentmatrix pop	translate 0 0 moveto scale
  0 0 1 5 -2 roll arc closepath tMatrix setmatrix fill} bdef
/FAn {newpath tMatrix currentmatrix pop translate scale
  0 0 1 5 -2 roll arcn tMatrix setmatrix stroke} bdef
/PAn {newpath tMatrix currentmatrix pop translate 0 0 moveto scale
  0 0 1 5 -2 roll arcn closepath tMatrix setmatrix fill} bdef
/vradius 0 def /hradius 0 def /lry 0 def
/lrx 0 def /uly 0 def /ulx 0 def /rad 0 def
/MRR {/vradius xdef /hradius xdef /lry xdef /lrx xdef /uly xdef
  /ulx xdef newpath tMatrix currentmatrix pop ulx hradius add uly
  vradius add translate hradius vradius scale 0 0 1 180 270 arc 
  tMatrix setmatrix lrx hradius sub uly vradius add translate
  hradius vradius scale 0 0 1 270 360 arc tMatrix setmatrix
  lrx hradius sub lry vradius sub translate hradius vradius scale
  0 0 1 0 90 arc tMatrix setmatrix ulx hradius add lry vradius sub
  translate hradius vradius scale 0 0 1 90 180 arc tMatrix setmatrix
  closepath} bdef
/FRR {MRR stroke } bdef
/PRR {MRR fill } bdef
/MlrRR {/lry xdef /lrx xdef /uly xdef /ulx xdef /rad lry uly sub 2 div def
  newpath tMatrix currentmatrix pop ulx rad add uly rad add translate
  rad rad scale 0 0 1 90 270 arc tMatrix setmatrix lrx rad sub lry rad
  sub translate rad rad scale 0 0 1 270 90 arc tMatrix setmatrix
  closepath} bdef
/FlrRR {MlrRR stroke } bdef
/PlrRR {MlrRR fill } bdef
/MtbRR {/lry xdef /lrx xdef /uly xdef /ulx xdef /rad lrx ulx sub 2 div def
  newpath tMatrix currentmatrix pop ulx rad add uly rad add translate
  rad rad scale 0 0 1 180 360 arc tMatrix setmatrix lrx rad sub lry rad
  sub translate rad rad scale 0 0 1 0 180 arc tMatrix setmatrix
  closepath} bdef
/FtbRR {MtbRR stroke } bdef
/PtbRR {MtbRR fill } bdef
/stri 6 array def /dtri 6 array def
/smat 6 array def /dmat 6 array def
/tmat1 6 array def /tmat2 6 array def /dif 3 array def
/asub {/ind2 exch def /ind1 exch def dup dup
  ind1 get exch ind2 get sub exch } bdef
/tri_to_matrix {
  2 0 asub 3 1 asub 4 0 asub 5 1 asub
  dup 0 get exch 1 get 7 -1 roll astore } bdef
/compute_transform {
  dmat dtri tri_to_matrix tmat1 invertmatrix 
  smat stri tri_to_matrix tmat2 concatmatrix } bdef
/ds {stri astore pop} bdef
/dt {dtri astore pop} bdef
/db {2 copy /cols xdef /rows xdef mul dup string
  currentfile exch readhexstring pop
  /bmap xdef pop pop} bdef
/it {gs np dtri aload pop moveto lineto lineto cp c
  cols rows 8 compute_transform 
  {bmap} image gr}bdef
/il {newpath moveto lineto stroke}bdef
currentdict end def
%%EndProlog

%%BeginSetup
MathWorks begin

0 cap

end
%%EndSetup

%%Page: 1 1
%%BeginPageSetup
%%PageBoundingBox:    52   198   564   602
MathWorks begin
bpage
%%EndPageSetup

%%BeginObject: obj1
bplot

/dpi2point 12 def
portraitMode 0216 7344 csm

  410   110  6149  4853 MR c np
85 dict begin %Colortable dictionary
/c0 { 0.000000 0.000000 0.000000 sr} bdef
/c1 { 1.000000 1.000000 1.000000 sr} bdef
/c2 { 0.900000 0.000000 0.000000 sr} bdef
/c3 { 0.000000 0.820000 0.000000 sr} bdef
/c4 { 0.000000 0.000000 0.800000 sr} bdef
/c5 { 0.910000 0.820000 0.320000 sr} bdef
/c6 { 1.000000 0.260000 0.820000 sr} bdef
/c7 { 0.000000 0.820000 0.820000 sr} bdef
c0
1 j
1 sg
   0    0 6913 5186 PR
6 w
0 4226 4732 0 0 -4226 899 4615 4 MP
PP
-4732 0 0 4226 4732 0 0 -4226 899 4615 5 MP stroke
4 w
DO
SO
6 w
0 sg
 899 4615 mt 5631 4615 L
 899 4615 mt  899  389 L
 899 4615 mt  899 4567 L
%%IncludeResource: font Helvetica
/Helvetica /ISOLatin1Encoding 120 FMSR

 816 4760 mt 
(5.8) s
1490 4615 mt 1490 4567 L
1457 4760 mt 
(6) s
2082 4615 mt 2082 4567 L
1999 4760 mt 
(6.2) s
2673 4615 mt 2673 4567 L
2590 4760 mt 
(6.4) s
3265 4615 mt 3265 4567 L
3182 4760 mt 
(6.6) s
3856 4615 mt 3856 4567 L
3773 4760 mt 
(6.8) s
4448 4615 mt 4448 4567 L
4415 4760 mt 
(7) s
5039 4615 mt 5039 4567 L
4956 4760 mt 
(7.2) s
5631 4615 mt 5631 4567 L
5548 4760 mt 
(7.4) s
5361 4962 mt 
(x 10) s
%%IncludeResource: font Helvetica
/Helvetica /ISOLatin1Encoding 80 FMSR

5587 4888 mt 
(4) s
 899 4615 mt  946 4615 L
%%IncludeResource: font Helvetica
/Helvetica /ISOLatin1Encoding 120 FMSR

 628 4659 mt 
(-6.8) s
 899 4011 mt  946 4011 L
 628 4055 mt 
(-6.7) s
 899 3407 mt  946 3407 L
 628 3451 mt 
(-6.6) s
 899 2803 mt  946 2803 L
 628 2847 mt 
(-6.5) s
 899 2200 mt  946 2200 L
 628 2244 mt 
(-6.4) s
 899 1596 mt  946 1596 L
 628 1640 mt 
(-6.3) s
 899  992 mt  946  992 L
 628 1036 mt 
(-6.2) s
 899  389 mt  946  389 L
 628  433 mt 
(-6.1) s
 899  335 mt 
(x 10) s
%%IncludeResource: font Helvetica
/Helvetica /ISOLatin1Encoding 80 FMSR

1125  261 mt 
(4) s
gs 899 389 4733 4227 MR c np
0 j
gs 1842 863 3762 3644 MR c np
/c8 { 0.750000 1.000000 0.250000 sr} bdef
c8
  30   30 2889 2634 PO
gr

c8
gs 1842 863 3762 3644 MR c np
  30   30 2889 2634 PO
gr

gs 1842 863 3762 3644 MR c np
  30   30 2889 2634 PO
gr

gs 1842 863 3762 3644 MR c np
  30   30 2889 2634 PO
gr

gs 1842 863 3762 3644 MR c np
  30   30 2889 2634 PO
gr

gs 1842 863 3762 3644 MR c np
  30   30 2511 2136 PO
gr

gs 1842 863 3762 3644 MR c np
  30   30 2531 2170 PO
gr

gs 1842 863 3762 3644 MR c np
  30   30 2531 2170 PO
gr

gs 1842 863 3762 3644 MR c np
  30   30 2531 2170 PO
gr

gs 1842 863 3762 3644 MR c np
  30   30 2531 2170 PO
gr

gs 1842 863 3762 3644 MR c np
  30   30 2531 2170 PO
gr

gs 1842 863 3762 3644 MR c np
/c9 { 0.812500 1.000000 0.187500 sr} bdef
c9
  30   30 2722 2459 PO
gr

c9
gs 1842 863 3762 3644 MR c np
  30   30 2722 2459 PO
gr

gs 1842 863 3762 3644 MR c np
  30   30 2722 2459 PO
gr

gs 1842 863 3762 3644 MR c np
  30   30 2722 2459 PO
gr

gs 1842 863 3762 3644 MR c np
  30   30 2722 2459 PO
gr

gs 1842 863 3762 3644 MR c np
  30   30 2722 2459 PO
gr

gs 1842 863 3762 3644 MR c np
  30   30 2722 2459 PO
gr

gs 1842 863 3762 3644 MR c np
  30   30 2722 2459 PO
gr

gs 1842 863 3762 3644 MR c np
  30   30 2722 2459 PO
gr

gs 1842 863 3762 3644 MR c np
  30   30 2722 2459 PO
gr

gs 1842 863 3762 3644 MR c np
  30   30 2722 2459 PO
gr

gs 1842 863 3762 3644 MR c np
  30   30 2722 2459 PO
gr

gs 1842 863 3762 3644 MR c np
  30   30 2722 2459 PO
gr

gs 1842 863 3762 3644 MR c np
  30   30 2722 2459 PO
gr

gs 1842 863 3762 3644 MR c np
  30   30 2722 2459 PO
gr

gs 1842 863 3762 3644 MR c np
  30   30 2722 2459 PO
gr

gs 1842 863 3762 3644 MR c np
  30   30 2722 2459 PO
gr

gs 1842 863 3762 3644 MR c np
  30   30 2722 2459 PO
gr

gs 1842 863 3762 3644 MR c np
  30   30 2722 2459 PO
gr

gs 1842 863 3762 3644 MR c np
  30   30 2722 2459 PO
gr

gs 1842 863 3762 3644 MR c np
  30   30 2722 2459 PO
gr

gs 1842 863 3762 3644 MR c np
  30   30 2577 2264 PO
gr

gs 1842 863 3762 3644 MR c np
  30   30 2577 2264 PO
gr

gs 1842 863 3762 3644 MR c np
  30   30 2577 2264 PO
gr

gs 1842 863 3762 3644 MR c np
  30   30 2577 2264 PO
gr

gs 1842 863 3762 3644 MR c np
  30   30 2577 2264 PO
gr

gs 1842 863 3762 3644 MR c np
  30   30 2622 2327 PO
gr

gs 1842 863 3762 3644 MR c np
  30   30 2622 2327 PO
gr

gs 1842 863 3762 3644 MR c np
  30   30 2622 2327 PO
gr

gs 1842 863 3762 3644 MR c np
  30   30 2622 2327 PO
gr

gs 1842 863 3762 3644 MR c np
  30   30 2622 2327 PO
gr

gs 1842 863 3762 3644 MR c np
  30   30 2622 2327 PO
gr

gs 1842 863 3762 3644 MR c np
  30   30 2622 2327 PO
gr

gs 1842 863 3762 3644 MR c np
  30   30 2622 2327 PO
gr

gs 1842 863 3762 3644 MR c np
  30   30 2622 2327 PO
gr

gs 1842 863 3762 3644 MR c np
  30   30 2622 2327 PO
gr

gs 1842 863 3762 3644 MR c np
  30   30 2622 2327 PO
gr

gs 1842 863 3762 3644 MR c np
  30   30 2056 1591 PO
gr

gs 1842 863 3762 3644 MR c np
  30   30 2056 1591 PO
gr

gs 1842 863 3762 3644 MR c np
  30   30 2056 1591 PO
gr

gs 1842 863 3762 3644 MR c np
  30   30 2056 1591 PO
gr

gs 1842 863 3762 3644 MR c np
  30   30 2056 1591 PO
gr

gs 1842 863 3762 3644 MR c np
/c10 { 0.562500 1.000000 0.437500 sr} bdef
c10
  30   30 3081 2764 PO
gr

c10
gs 1842 863 3762 3644 MR c np
/c11 { 0.000000 0.062500 1.000000 sr} bdef
c11
  30   30 5077 4253 PO
gr

c11
gs 1842 863 3762 3644 MR c np
/c12 { 0.000000 0.687500 1.000000 sr} bdef
c12
  30   30 4036 3325 PO
gr

c12
gs 1842 863 3762 3644 MR c np
/c13 { 0.000000 0.000000 0.812500 sr} bdef
c13
  30   30 5237 4260 PO
gr

c13
gs 1842 863 3762 3644 MR c np
c8
  30   30 2814 2526 PO
gr

c8
gs 1842 863 3762 3644 MR c np
/c14 { 0.000000 0.000000 0.750000 sr} bdef
c14
  30   30 5074 4218 PO
gr

c14
gs 1842 863 3762 3644 MR c np
c10
  30   30 3081 2764 PO
gr

c10
gs 1842 863 3762 3644 MR c np
/c15 { 0.000000 0.312500 1.000000 sr} bdef
c15
  30   30 4858 4128 PO
gr

c15
gs 1842 863 3762 3644 MR c np
/c16 { 0.500000 1.000000 0.500000 sr} bdef
c16
  30   30 3130 2796 PO
gr

c16
gs 1842 863 3762 3644 MR c np
/c17 { 0.625000 1.000000 0.375000 sr} bdef
c17
  30   30 2963 2652 PO
gr

c17
gs 1842 863 3762 3644 MR c np
c10
  30   30 3101 2783 PO
gr

c10
gs 1842 863 3762 3644 MR c np
/c18 { 0.000000 0.625000 1.000000 sr} bdef
c18
  30   30 4270 3613 PO
gr

c18
gs 1842 863 3762 3644 MR c np
/c19 { 0.437500 1.000000 0.562500 sr} bdef
c19
  30   30 3220 2867 PO
gr

c19
gs 1842 863 3762 3644 MR c np
/c20 { 0.000000 1.000000 1.000000 sr} bdef
c20
  30   30 3759 3213 PO
gr

c20
gs 1842 863 3762 3644 MR c np
c12
  30   30 4352 3755 PO
gr

c12
gs 1842 863 3762 3644 MR c np
c17
  30   30 3268 2984 PO
gr

c17
gs 1842 863 3762 3644 MR c np
/c21 { 0.062500 1.000000 0.937500 sr} bdef
c21
  30   30 3766 3266 PO
gr

c21
gs 1842 863 3762 3644 MR c np
/c22 { 0.000000 0.000000 0.937500 sr} bdef
c22
  30   30 4968 4133 PO
gr

c22
gs 1842 863 3762 3644 MR c np
/c23 { 0.000000 0.437500 1.000000 sr} bdef
c23
  30   30 4666 3994 PO
gr

c23
gs 1842 863 3762 3644 MR c np
c12
  30   30 4037 3354 PO
gr

c12
gs 1842 863 3762 3644 MR c np
c18
  30   30 4343 3703 PO
gr

c18
gs 1842 863 3762 3644 MR c np
/c24 { 0.000000 0.562500 1.000000 sr} bdef
c24
  30   30 4442 3778 PO
gr

c24
gs 1842 863 3762 3644 MR c np
c12
  30   30 4281 3678 PO
gr

c12
gs 1842 863 3762 3644 MR c np
/c25 { 0.000000 0.125000 1.000000 sr} bdef
c25
  30   30 4995 4199 PO
gr

c25
gs 1842 863 3762 3644 MR c np
c10
  30   30 3134 2829 PO
gr

c10
gs 1842 863 3762 3644 MR c np
/c26 { 0.000000 0.000000 0.875000 sr} bdef
c26
  30   30 5204 4258 PO
gr

c26
gs 1842 863 3762 3644 MR c np
/c27 { 0.000000 0.000000 1.000000 sr} bdef
c27
  30   30 5243 4324 PO
gr

c27
gs 1842 863 3762 3644 MR c np
  30   30 4800 4066 PO
gr

gs 1842 863 3762 3644 MR c np
c18
  30   30 4387 3774 PO
gr

c18
gs 1842 863 3762 3644 MR c np
c10
  30   30 3094 2765 PO
gr

c10
gs 1842 863 3762 3644 MR c np
c19
  30   30 3239 2891 PO
gr

c19
gs 1842 863 3762 3644 MR c np
/c28 { 0.000000 0.500000 1.000000 sr} bdef
c28
  30   30 4005 3318 PO
gr

c28
gs 1842 863 3762 3644 MR c np
c25
  30   30 5029 4209 PO
gr

c25
gs 1842 863 3762 3644 MR c np
c8
  30   30 2511 2136 PO
gr

c8
gs 1842 863 3762 3644 MR c np
c15
  30   30 4803 4083 PO
gr

c15
gs 1842 863 3762 3644 MR c np
c12
  30   30 4247 3601 PO
gr

c12
gs 1842 863 3762 3644 MR c np
c23
  30   30 3479 3115 PO
gr

c23
gs 1842 863 3762 3644 MR c np
c10
  30   30 3342 3100 PO
gr

c10
gs 1842 863 3762 3644 MR c np
  30   30 3175 2862 PO
gr

gs 1842 863 3762 3644 MR c np
c21
  30   30 3311 3000 PO
gr

c21
gs 1842 863 3762 3644 MR c np
c10
  30   30 3101 2783 PO
gr

c10
gs 1842 863 3762 3644 MR c np
c16
  30   30 3255 2954 PO
gr

c16
gs 1842 863 3762 3644 MR c np
c15
  30   30 4848 4124 PO
gr

c15
gs 1842 863 3762 3644 MR c np
/c29 { 0.375000 1.000000 0.625000 sr} bdef
c29
  30   30 3510 3193 PO
gr

c29
gs 1842 863 3762 3644 MR c np
c15
  30   30 4848 4124 PO
gr

c15
gs 1842 863 3762 3644 MR c np
/c30 { 0.000000 0.000000 0.625000 sr} bdef
c30
  30   30 5029 4209 PO
gr

c30
gs 1842 863 3762 3644 MR c np
c8
  30   30 2511 2136 PO
gr

c8
gs 1842 863 3762 3644 MR c np
c17
  30   30 2457 1958 PO
gr

c17
gs 1842 863 3762 3644 MR c np
c12
  30   30 4036 3325 PO
gr

c12
gs 1842 863 3762 3644 MR c np
/c31 { 0.687500 1.000000 0.312500 sr} bdef
c31
  30   30 2831 2529 PO
gr

c31
gs 1842 863 3762 3644 MR c np
c15
  30   30 4803 4083 PO
gr

c15
gs 1842 863 3762 3644 MR c np
c16
  30   30 3130 2796 PO
gr

c16
gs 1842 863 3762 3644 MR c np
c12
  30   30 4247 3601 PO
gr

c12
gs 1842 863 3762 3644 MR c np
/c32 { 0.000000 0.875000 1.000000 sr} bdef
c32
  30   30 3908 3307 PO
gr

c32
gs 1842 863 3762 3644 MR c np
  30   30 2459 1982 PO
gr

gs 1842 863 3762 3644 MR c np
/c33 { 0.000000 0.812500 1.000000 sr} bdef
c33
  30   30 4042 3443 PO
gr

c33
gs 1842 863 3762 3644 MR c np
c19
  30   30 3220 2867 PO
gr

c19
gs 1842 863 3762 3644 MR c np
c16
  30   30 2302 1682 PO
gr

c16
gs 1842 863 3762 3644 MR c np
c23
  30   30 4699 4031 PO
gr

c23
gs 1842 863 3762 3644 MR c np
c18
  30   30 4387 3774 PO
gr

c18
gs 1842 863 3762 3644 MR c np
c16
  30   30 3268 2984 PO
gr

c16
gs 1842 863 3762 3644 MR c np
c10
  30   30 3134 2829 PO
gr

c10
gs 1842 863 3762 3644 MR c np
c33
  30   30 2814 2526 PO
gr

c33
gs 1842 863 3762 3644 MR c np
c10
  30   30 3075 2762 PO
gr

c10
gs 1842 863 3762 3644 MR c np
c17
  30   30 2964 2665 PO
gr

c17
gs 1842 863 3762 3644 MR c np
c8
  30   30 2889 2634 PO
gr

c8
gs 1842 863 3762 3644 MR c np
c31
  30   30 2502 2102 PO
gr

c31
gs 1842 863 3762 3644 MR c np
c29
  30   30 3255 2954 PO
gr

c29
gs 1842 863 3762 3644 MR c np
/c34 { 0.187500 1.000000 0.812500 sr} bdef
c34
  30   30 3175 2862 PO
gr

c34
gs 1842 863 3762 3644 MR c np
/c35 { 0.000000 0.937500 1.000000 sr} bdef
c35
  30   30 3853 3289 PO
gr

c35
gs 1842 863 3762 3644 MR c np
c29
  30   30 2531 2170 PO
gr

c29
gs 1842 863 3762 3644 MR c np
c11
  30   30 5074 4218 PO
gr

c11
gs 1842 863 3762 3644 MR c np
c17
  30   30 2964 2665 PO
gr

c17
gs 1842 863 3762 3644 MR c np
c18
  30   30 2328 1704 PO
gr

c18
gs 1842 863 3762 3644 MR c np
c19
  30   30 3239 2891 PO
gr

c19
gs 1842 863 3762 3644 MR c np
c17
  30   30 2963 2652 PO
gr

c17
gs 1842 863 3762 3644 MR c np
c9
  30   30 2056 1591 PO
gr

c9
gs 1842 863 3762 3644 MR c np
/c36 { 0.000000 0.250000 1.000000 sr} bdef
c36
  30   30 4352 3755 PO
gr

c36
gs 1842 863 3762 3644 MR c np
c18
  30   30 4270 3613 PO
gr

c18
gs 1842 863 3762 3644 MR c np
/c37 { 0.000000 0.000000 0.562500 sr} bdef
c37
  30   30 5483 4356 PO
gr

c37
gs 1842 863 3762 3644 MR c np
c17
  30   30 2457 1958 PO
gr

c17
gs 1842 863 3762 3644 MR c np
c12
  30   30 4037 3354 PO
gr

c12
gs 1842 863 3762 3644 MR c np
c17
  30   30 3032 2738 PO
gr

c17
gs 1842 863 3762 3644 MR c np
  30   30 2014 1355 PO
gr

gs 1842 863 3762 3644 MR c np
c26
  30   30 5237 4260 PO
gr

c26
gs 1842 863 3762 3644 MR c np
c25
  30   30 4995 4199 PO
gr

c25
gs 1842 863 3762 3644 MR c np
c12
  30   30 4005 3318 PO
gr

c12
gs 1842 863 3762 3644 MR c np
c23
  30   30 4666 3994 PO
gr

c23
gs 1842 863 3762 3644 MR c np
c35
  30   30 3853 3289 PO
gr

c35
gs 1842 863 3762 3644 MR c np
c9
  30   30 2722 2459 PO
gr

c9
gs 1842 863 3762 3644 MR c np
  30   30 2577 2264 PO
gr

gs 1842 863 3762 3644 MR c np
/c38 { 0.000000 0.187500 1.000000 sr} bdef
c38
  30   30 4858 4128 PO
gr

c38
gs 1842 863 3762 3644 MR c np
c32
  30   30 3908 3307 PO
gr

c32
gs 1842 863 3762 3644 MR c np
c31
  30   30 2017 1429 PO
gr

c31
gs 1842 863 3762 3644 MR c np
c18
  30   30 4343 3703 PO
gr

c18
gs 1842 863 3762 3644 MR c np
c16
  30   30 2302 1682 PO
gr

c16
gs 1842 863 3762 3644 MR c np
/c39 { 0.000000 0.750000 1.000000 sr} bdef
c39
  30   30 4193 3580 PO
gr

c39
gs 1842 863 3762 3644 MR c np
c12
  30   30 4474 3909 PO
gr

c12
gs 1842 863 3762 3644 MR c np
c8
  30   30 2531 2170 PO
gr

c8
gs 1842 863 3762 3644 MR c np
c15
  30   30 4800 4066 PO
gr

c15
gs 1842 863 3762 3644 MR c np
c17
  30   30 3032 2738 PO
gr

c17
gs 1842 863 3762 3644 MR c np
  30   30 2389 1901 PO
gr

gs 1842 863 3762 3644 MR c np
c31
  30   30 2831 2529 PO
gr

c31
gs 1842 863 3762 3644 MR c np
c24
  30   30 4599 3992 PO
gr

c24
gs 1842 863 3762 3644 MR c np
c10
  30   30 1961 1263 PO
gr

c10
gs 1842 863 3762 3644 MR c np
c17
  30   30 2459 1982 PO
gr

c17
gs 1842 863 3762 3644 MR c np
c12
  30   30 4281 3678 PO
gr

c12
gs 1842 863 3762 3644 MR c np
c17
  30   30 2014 1355 PO
gr

c17
gs 1842 863 3762 3644 MR c np
c25
  30   30 5204 4258 PO
gr

c25
gs 1842 863 3762 3644 MR c np
c12
  30   30 4193 3580 PO
gr

c12
gs 1842 863 3762 3644 MR c np
c32
  30   30 2502 2102 PO
gr

c32
gs 1842 863 3762 3644 MR c np
c33
  30   30 4098 3503 PO
gr

c33
gs 1842 863 3762 3644 MR c np
/c40 { 0.000000 0.375000 1.000000 sr} bdef
c40
  30   30 4699 4031 PO
gr

c40
gs 1842 863 3762 3644 MR c np
c29
  30   30 2577 2264 PO
gr

c29
gs 1842 863 3762 3644 MR c np
c37
  30   30 3766 3266 PO
gr

c37
gs 1842 863 3762 3644 MR c np
c25
  30   30 2208 1640 PO
gr

c25
gs 1842 863 3762 3644 MR c np
c16
  30   30 3311 3000 PO
gr

c16
gs 1842 863 3762 3644 MR c np
c22
  30   30 4042 3443 PO
gr

c22
gs 1842 863 3762 3644 MR c np
c38
  30   30 4599 3992 PO
gr

c38
gs 1842 863 3762 3644 MR c np
c33
  30   30 4098 3503 PO
gr

c33
gs 1842 863 3762 3644 MR c np
c31
  30   30 2805 2468 PO
gr

c31
gs 1842 863 3762 3644 MR c np
c11
  30   30 5077 4253 PO
gr

c11
gs 1842 863 3762 3644 MR c np
c12
  30   30 2622 2327 PO
gr

c12
gs 1842 863 3762 3644 MR c np
c31
  30   30 2017 1429 PO
gr

c31
gs 1842 863 3762 3644 MR c np
c25
  30   30 4968 4133 PO
gr

c25
gs 1842 863 3762 3644 MR c np
c19
  30   30 1930 1113 PO
gr

c19
gs 1842 863 3762 3644 MR c np
c9
  30   30 2622 2327 PO
gr

c9
gs 1842 863 3762 3644 MR c np
c8
  30   30 2889 2634 PO
gr

c8
gs 1842 863 3762 3644 MR c np
c24
  30   30 4442 3778 PO
gr

c24
gs 1842 863 3762 3644 MR c np
c17
  30   30 2208 1640 PO
gr

c17
gs 1842 863 3762 3644 MR c np
c10
  30   30 1961 1263 PO
gr

c10
gs 1842 863 3762 3644 MR c np
/c41 { 0.312500 1.000000 0.687500 sr} bdef
c41
  30   30 3479 3115 PO
gr

c41
gs 1842 863 3762 3644 MR c np
c40
  30   30 2722 2459 PO
gr

c40
gs 1842 863 3762 3644 MR c np
  30   30 1930 1113 PO
gr

gs 1842 863 3762 3644 MR c np
c16
  30   30 2328 1704 PO
gr

c16
gs 1842 863 3762 3644 MR c np
c40
  30   30 3342 3100 PO
gr

c40
gs 1842 863 3762 3644 MR c np
c12
  30   30 4474 3909 PO
gr

c12
gs 1842 863 3762 3644 MR c np
c17
  30   30 2389 1901 PO
gr

c17
gs 1842 863 3762 3644 MR c np
c21
  30   30 3759 3213 PO
gr

c21
gs 1842 863 3762 3644 MR c np
/c42 { 0.000000 0.000000 0.687500 sr} bdef
c42
  30   30 5243 4324 PO
gr

c42
gs 1842 863 3762 3644 MR c np
c38
  30   30 2056 1591 PO
gr

c38
gs 1842 863 3762 3644 MR c np
c21
  30   30 3510 3193 PO
gr

c21
gs 1842 863 3762 3644 MR c np
c22
  30   30 5483 4356 PO
gr

c22
gs 1842 863 3762 3644 MR c np
c37
  30   30 5542 4445 PO
gr

c37
gs 1842 863 3762 3644 MR c np
c14
  30   30 5542 4445 PO
gr

c14
gs 1842 863 3762 3644 MR c np
c25
  30   30 1903  924 PO
gr

c25
gs 1842 863 3762 3644 MR c np
/c43 { 0.250000 1.000000 0.750000 sr} bdef
c43
  30   30 1903  924 PO
gr

c43
gr

c43
0 sg
%%IncludeResource: font Helvetica
/Helvetica /ISOLatin1Encoding 120 FMSR

3131 4903 mt 
(Time) s
 546 2643 mt  -90 rotate
(Profit) s
90 rotate
2213  294 mt 
(u159_n474_bounded-strongly-corr_01) s
 882 4658 mt 
( ) s
5615  431 mt 
( ) s
%%IncludeResource: font Symbol
/Symbol /ISOLatin1Encoding 120 FMSR

2057 1635 mt 
(\254) s
%%IncludeResource: font Helvetica
/Helvetica /ISOLatin1Encoding 120 FMSR

2175 1635 mt 
( EMO \(22129\)) s
gs 899 389 4733 4227 MR c np
0 j
gs 1945 2492 123 123 MR c np
30 39 -30 39 -30 -39 30 -39 2006 2592 5 MP
/c44 { 0.875000 0.000000 0.000000 sr} bdef
c44
PP
gr

c44
gr

c44
0 sg
%%IncludeResource: font Symbol
/Symbol /ISOLatin1Encoding 120 FMSR

2007 2597 mt 
(\254) s
%%IncludeResource: font Helvetica
/Helvetica /ISOLatin1Encoding 120 FMSR

2125 2597 mt 
( S5 \(23833\)) s
gs 899 389 4733 4227 MR c np
0 j
gs 1024 1597 123 123 MR c np
0 -48 -48 0 0 48 48 0 1061 1634 5 MP
/c45 { 0.500000 0.000000 0.000000 sr} bdef
c45
PP
gr

c45
gr

c45
0 sg
%%IncludeResource: font Symbol
/Symbol /ISOLatin1Encoding 120 FMSR

1085 1702 mt 
(\254) s
%%IncludeResource: font Helvetica
/Helvetica /ISOLatin1Encoding 120 FMSR

1203 1702 mt 
( MA2B \(24406\)) s
1 sg
0 4227 240 0 0 -4227 5811 4616 4 MP
PP
-240 0 0 4227 240 0 0 -4227 5811 4616 5 MP stroke
0 sg
6459 2790 mt  -90 rotate
(TTP Score) s
90 rotate
gs 5811 389 241 4228 MR c np
gs np 5811 389 mt 0 4227 rl 240 0 rl 0 -4227 rl cp c np
[240 0 0 4227 5811 389] cc
/picstr 1 string def
1 64 8 [1.000000 0 0 64.000000 0 0] L1i
262B2F34393E42474C555F68727B848E97A1AAB3BDC6D0D9E2DFDCD9D6D3D0CDCAC7C4C1BEBBB8B5
B2A99F968C837A70675D544B41382E251C1A18161513110F
gr
gr

4 w
DO
SO
6 w
5811 4616 mt 6051 4616 L
5811  389 mt 6051  389 L
5811 4616 mt 5811  389 L
6051 4616 mt 6051  389 L
5811 4616 mt 6051 4616 L
6051 4616 mt 6051  389 L
6051 4268 mt 6008 4268 L
5811 4268 mt 5853 4268 L
6085 4312 mt 
(1.95) s
6051 3873 mt 6008 3873 L
5811 3873 mt 5853 3873 L
6085 3917 mt 
(2) s
6051 3478 mt 6008 3478 L
5811 3478 mt 5853 3478 L
6085 3522 mt 
(2.05) s
6051 3082 mt 6008 3082 L
5811 3082 mt 5853 3082 L
6085 3126 mt 
(2.1) s
6051 2687 mt 6008 2687 L
5811 2687 mt 5853 2687 L
6085 2731 mt 
(2.15) s
6051 2291 mt 6008 2291 L
5811 2291 mt 5853 2291 L
6085 2335 mt 
(2.2) s
6051 1896 mt 6008 1896 L
5811 1896 mt 5853 1896 L
6085 1940 mt 
(2.25) s
6051 1501 mt 6008 1501 L
5811 1501 mt 5853 1501 L
6085 1545 mt 
(2.3) s
6051 1105 mt 6008 1105 L
5811 1105 mt 5853 1105 L
6085 1149 mt 
(2.35) s
6051  710 mt 6008  710 L
5811  710 mt 5853  710 L
6085  754 mt 
(2.4) s
6051  335 mt 
(x 10) s
%%IncludeResource: font Helvetica
/Helvetica /ISOLatin1Encoding 80 FMSR

6277  261 mt 
(4) s
5811 4616 mt 6051 4616 L
5811  389 mt 6051  389 L
5811 4616 mt 5811  389 L
6051 4616 mt 6051  389 L

end %%Color Dict

eplot
%%EndObject

epage
end

showpage

%%Trailer
%%EOF
