<?xml version="1.0" encoding="UTF-8" standalone="no"?>
<!DOCTYPE log SYSTEM "logger.dtd">
<log>
<record>
  <date>2016-10-23T15:12:39</date>
  <millis>1477195959189</millis>
  <sequence>0</sequence>
  <logger>org.uma.jmetal.util.JMetalLogger</logger>
  <level>INFO</level>
  <class>org.uma.jmetal.util.JMetalLogger</class>
  <method>configureLoggers</method>
  <thread>1</thread>
  <message>Loggers configured with null</message>
</record>
<record>
  <date>2016-10-23T15:12:39</date>
  <millis>1477195959470</millis>
  <sequence>1</sequence>
  <logger>org.uma.jmetal.util.JMetalLogger</logger>
  <level>INFO</level>
  <class>org.uma.jmetal.util.experiment.component.ExecuteAlgorithms</class>
  <method>run</method>
  <thread>1</thread>
  <message>ExecuteAlgorithms: Preparing output directory</message>
</record>
<record>
  <date>2016-10-23T15:12:39</date>
  <millis>1477195959485</millis>
  <sequence>2</sequence>
  <logger>org.uma.jmetal.util.JMetalLogger</logger>
  <level>INFO</level>
  <class>org.uma.jmetal.util.experiment.util.MultithreadedExperimentExecutor</class>
  <method>&lt;init&gt;</method>
  <thread>1</thread>
  <message>THREADS: 8</message>
</record>
<record>
  <date>2016-10-23T15:12:39</date>
  <millis>1477195959501</millis>
  <sequence>3</sequence>
  <logger>org.uma.jmetal.util.JMetalLogger</logger>
  <level>INFO</level>
  <class>org.uma.jmetal.util.experiment.util.MultithreadedExperimentExecutor</class>
  <method>start</method>
  <thread>1</thread>
  <message>Cores: 8</message>
</record>
<record>
  <date>2016-10-23T15:12:39</date>
  <millis>1477195959501</millis>
  <sequence>4</sequence>
  <logger>org.uma.jmetal.util.JMetalLogger</logger>
  <level>INFO</level>
  <class>org.uma.jmetal.util.experiment.util.EvaluationTask</class>
  <method>&lt;init&gt;</method>
  <thread>1</thread>
  <message> Task: NSGAII, problem: eil51_n150_bounded-strongly-corr_01.ttp, run: 0</message>
</record>
<record>
  <date>2016-10-23T15:12:39</date>
  <millis>1477195959501</millis>
  <sequence>5</sequence>
  <logger>org.uma.jmetal.util.JMetalLogger</logger>
  <level>INFO</level>
  <class>org.uma.jmetal.util.experiment.util.EvaluationTask</class>
  <method>&lt;init&gt;</method>
  <thread>1</thread>
  <message> Task: NSGAII, problem: eil51_n150_uncorr_01.ttp, run: 0</message>
</record>
<record>
  <date>2016-10-23T15:12:39</date>
  <millis>1477195959532</millis>
  <sequence>6</sequence>
  <logger>org.uma.jmetal.util.JMetalLogger</logger>
  <level>INFO</level>
  <class>org.uma.jmetal.util.experiment.util.EvaluationTask</class>
  <method>call</method>
  <thread>12</thread>
  <message> Running algorithm: NSGAII, problem: eil51_n150_bounded-strongly-corr_01.ttp, run: 0, funFile: C:\Users\shelvin\Documents\mottp/results/exp//MOTTPStudy/data/NSGAII/eil51_n150_bounded-strongly-corr_01.ttp/FUN0.tsv</message>
</record>
<record>
  <date>2016-10-23T15:12:39</date>
  <millis>1477195959532</millis>
  <sequence>7</sequence>
  <logger>org.uma.jmetal.util.JMetalLogger</logger>
  <level>INFO</level>
  <class>org.uma.jmetal.util.experiment.util.EvaluationTask</class>
  <method>call</method>
  <thread>13</thread>
  <message> Running algorithm: NSGAII, problem: eil51_n150_uncorr_01.ttp, run: 0, funFile: C:\Users\shelvin\Documents\mottp/results/exp//MOTTPStudy/data/NSGAII/eil51_n150_uncorr_01.ttp/FUN0.tsv</message>
</record>
<record>
  <date>2016-10-23T15:12:58</date>
  <millis>1477195978994</millis>
  <sequence>8</sequence>
  <logger>org.uma.jmetal.util.JMetalLogger</logger>
  <level>SEVERE</level>
  <class>org.uma.jmetal.util.experiment.util.MultithreadedExperimentExecutor</class>
  <method>parallelExecution</method>
  <thread>1</thread>
  <message>Error</message>
  <exception>
    <message>java.util.concurrent.ExecutionException: java.lang.NullPointerException</message>
    <frame>
      <class>java.util.concurrent.FutureTask</class>
      <method>report</method>
      <line>122</line>
    </frame>
    <frame>
      <class>java.util.concurrent.FutureTask</class>
      <method>get</method>
      <line>192</line>
    </frame>
    <frame>
      <class>org.uma.jmetal.util.experiment.util.MultithreadedExperimentExecutor</class>
      <method>parallelExecution</method>
      <line>87</line>
    </frame>
    <frame>
      <class>org.uma.jmetal.util.experiment.component.ExecuteAlgorithms</class>
      <method>run</method>
      <line>62</line>
    </frame>
    <frame>
      <class>main.CLI</class>
      <method>main</method>
      <line>66</line>
    </frame>
  </exception>
</record>
<record>
  <date>2016-10-23T15:12:59</date>
  <millis>1477195979010</millis>
  <sequence>9</sequence>
  <logger>org.uma.jmetal.util.JMetalLogger</logger>
  <level>SEVERE</level>
  <class>org.uma.jmetal.util.experiment.util.MultithreadedExperimentExecutor</class>
  <method>parallelExecution</method>
  <thread>1</thread>
  <message>Error</message>
  <exception>
    <message>java.util.concurrent.ExecutionException: java.lang.NullPointerException</message>
    <frame>
      <class>java.util.concurrent.FutureTask</class>
      <method>report</method>
      <line>122</line>
    </frame>
    <frame>
      <class>java.util.concurrent.FutureTask</class>
      <method>get</method>
      <line>192</line>
    </frame>
    <frame>
      <class>org.uma.jmetal.util.experiment.util.MultithreadedExperimentExecutor</class>
      <method>parallelExecution</method>
      <line>87</line>
    </frame>
    <frame>
      <class>org.uma.jmetal.util.experiment.component.ExecuteAlgorithms</class>
      <method>run</method>
      <line>62</line>
    </frame>
    <frame>
      <class>main.CLI</class>
      <method>main</method>
      <line>66</line>
    </frame>
  </exception>
</record>
</log>
