%!PS-Adobe-3.0 EPSF-3.0
%%Creator: MATLAB, The MathWorks, Inc. Version 8.1.0.604 (R2013a). Operating System: Linux 3.14.27-100.fc19.x86_64 #1 SMP Wed Dec 17 19:36:34 UTC 2014 x86_64.
%%Title: /home/kyu/Documents/PHD/codes/mottp/results/berlin52.eps
%%CreationDate: 01/22/2017  00:59:36
%%DocumentNeededFonts: Helvetica
%%DocumentProcessColors: Cyan Magenta Yellow Black
%%LanguageLevel: 2
%%Pages: 1
%%BoundingBox:   100   241   509   549
%%EndComments

%%BeginProlog
% MathWorks dictionary
/MathWorks 160 dict begin
% definition operators
/bdef {bind def} bind def
/ldef {load def} bind def
/xdef {exch def} bdef
/xstore {exch store} bdef
% operator abbreviations
/c  /clip ldef
/cc /concat ldef
/cp /closepath ldef
/gr /grestore ldef
/gs /gsave ldef
/mt /moveto ldef
/np /newpath ldef
/cm /currentmatrix ldef
/sm /setmatrix ldef
/rm /rmoveto ldef
/rl /rlineto ldef
/s {show newpath} bdef
/sc {setcmykcolor} bdef
/sr /setrgbcolor ldef
/sg /setgray ldef
/w /setlinewidth ldef
/j /setlinejoin ldef
/cap /setlinecap ldef
/rc {rectclip} bdef
/rf {rectfill} bdef
% page state control
/pgsv () def
/bpage {/pgsv save def} bdef
/epage {pgsv restore} bdef
/bplot /gsave ldef
/eplot {stroke grestore} bdef
% orientation switch
/portraitMode 0 def /landscapeMode 1 def /rotateMode 2 def
% coordinate system mappings
/dpi2point 0 def
% font control
/FontSize 0 def
/FMS {/FontSize xstore findfont [FontSize 0 0 FontSize neg 0 0]
  makefont setfont} bdef
/reencode {exch dup where {pop load} {pop StandardEncoding} ifelse
  exch dup 3 1 roll findfont dup length dict begin
  { 1 index /FID ne {def}{pop pop} ifelse } forall
  /Encoding exch def currentdict end definefont pop} bdef
/isroman {findfont /CharStrings get /Agrave known} bdef
/FMSR {3 1 roll 1 index dup isroman {reencode} {pop pop} ifelse
  exch FMS} bdef
/csm {1 dpi2point div -1 dpi2point div scale neg translate
 dup landscapeMode eq {pop -90 rotate}
  {rotateMode eq {90 rotate} if} ifelse} bdef
% line types: solid, dotted, dashed, dotdash
/SO { [] 0 setdash } bdef
/DO { [.5 dpi2point mul 4 dpi2point mul] 0 setdash } bdef
/DA { [6 dpi2point mul] 0 setdash } bdef
/DD { [.5 dpi2point mul 4 dpi2point mul 6 dpi2point mul 4
  dpi2point mul] 0 setdash } bdef
% macros for lines and objects
/L {lineto stroke} bdef
/MP {3 1 roll moveto 1 sub {rlineto} repeat} bdef
/AP {{rlineto} repeat} bdef
/PDlw -1 def
/W {/PDlw currentlinewidth def setlinewidth} def
/PP {closepath eofill} bdef
/DP {closepath stroke} bdef
/MR {4 -2 roll moveto dup  0 exch rlineto exch 0 rlineto
  neg 0 exch rlineto closepath} bdef
/FR {MR stroke} bdef
/PR {MR fill} bdef
/L1i {{currentfile picstr readhexstring pop} image} bdef
/tMatrix matrix def
/MakeOval {newpath tMatrix currentmatrix pop translate scale
0 0 1 0 360 arc tMatrix setmatrix} bdef
/FO {MakeOval stroke} bdef
/PO {MakeOval fill} bdef
/PD {currentlinewidth 2 div 0 360 arc fill
   PDlw -1 eq not {PDlw w /PDlw -1 def} if} def
/FA {newpath tMatrix currentmatrix pop translate scale
  0 0 1 5 -2 roll arc tMatrix setmatrix stroke} bdef
/PA {newpath tMatrix currentmatrix pop	translate 0 0 moveto scale
  0 0 1 5 -2 roll arc closepath tMatrix setmatrix fill} bdef
/FAn {newpath tMatrix currentmatrix pop translate scale
  0 0 1 5 -2 roll arcn tMatrix setmatrix stroke} bdef
/PAn {newpath tMatrix currentmatrix pop translate 0 0 moveto scale
  0 0 1 5 -2 roll arcn closepath tMatrix setmatrix fill} bdef
/vradius 0 def /hradius 0 def /lry 0 def
/lrx 0 def /uly 0 def /ulx 0 def /rad 0 def
/MRR {/vradius xdef /hradius xdef /lry xdef /lrx xdef /uly xdef
  /ulx xdef newpath tMatrix currentmatrix pop ulx hradius add uly
  vradius add translate hradius vradius scale 0 0 1 180 270 arc 
  tMatrix setmatrix lrx hradius sub uly vradius add translate
  hradius vradius scale 0 0 1 270 360 arc tMatrix setmatrix
  lrx hradius sub lry vradius sub translate hradius vradius scale
  0 0 1 0 90 arc tMatrix setmatrix ulx hradius add lry vradius sub
  translate hradius vradius scale 0 0 1 90 180 arc tMatrix setmatrix
  closepath} bdef
/FRR {MRR stroke } bdef
/PRR {MRR fill } bdef
/MlrRR {/lry xdef /lrx xdef /uly xdef /ulx xdef /rad lry uly sub 2 div def
  newpath tMatrix currentmatrix pop ulx rad add uly rad add translate
  rad rad scale 0 0 1 90 270 arc tMatrix setmatrix lrx rad sub lry rad
  sub translate rad rad scale 0 0 1 270 90 arc tMatrix setmatrix
  closepath} bdef
/FlrRR {MlrRR stroke } bdef
/PlrRR {MlrRR fill } bdef
/MtbRR {/lry xdef /lrx xdef /uly xdef /ulx xdef /rad lrx ulx sub 2 div def
  newpath tMatrix currentmatrix pop ulx rad add uly rad add translate
  rad rad scale 0 0 1 180 360 arc tMatrix setmatrix lrx rad sub lry rad
  sub translate rad rad scale 0 0 1 0 180 arc tMatrix setmatrix
  closepath} bdef
/FtbRR {MtbRR stroke } bdef
/PtbRR {MtbRR fill } bdef
/stri 6 array def /dtri 6 array def
/smat 6 array def /dmat 6 array def
/tmat1 6 array def /tmat2 6 array def /dif 3 array def
/asub {/ind2 exch def /ind1 exch def dup dup
  ind1 get exch ind2 get sub exch } bdef
/tri_to_matrix {
  2 0 asub 3 1 asub 4 0 asub 5 1 asub
  dup 0 get exch 1 get 7 -1 roll astore } bdef
/compute_transform {
  dmat dtri tri_to_matrix tmat1 invertmatrix 
  smat stri tri_to_matrix tmat2 concatmatrix } bdef
/ds {stri astore pop} bdef
/dt {dtri astore pop} bdef
/db {2 copy /cols xdef /rows xdef mul dup 3 mul string
  currentfile 
  3 index 0 eq {/ASCIIHexDecode filter}
  {/ASCII85Decode filter 3 index 2 eq {/RunLengthDecode filter} if }
  ifelse exch readstring pop
  dup 0 3 index getinterval /rbmap xdef
  dup 2 index dup getinterval /gbmap xdef
  1 index dup 2 mul exch getinterval /bbmap xdef pop pop}bdef
/it {gs np dtri aload pop moveto lineto lineto cp c
  cols rows 8 compute_transform 
  rbmap gbmap bbmap true 3 colorimage gr}bdef
/il {newpath moveto lineto stroke}bdef
currentdict end def
%%EndProlog

%%BeginSetup
MathWorks begin

0 cap

end
%%EndSetup

%%Page: 1 1
%%BeginPageSetup
%%PageBoundingBox:   100   241   509   549
MathWorks begin
bpage
%%EndPageSetup

%%BeginObject: obj1
bplot

/dpi2point 12 def
portraitMode 1200 6588 csm

    0     0  4915  3687 rc
85 dict begin %Colortable dictionary
/c0 { 0.000000 0.000000 0.000000 sr} bdef
/c1 { 1.000000 1.000000 1.000000 sr} bdef
/c2 { 0.900000 0.000000 0.000000 sr} bdef
/c3 { 0.000000 0.820000 0.000000 sr} bdef
/c4 { 0.000000 0.000000 0.800000 sr} bdef
/c5 { 0.910000 0.820000 0.320000 sr} bdef
/c6 { 1.000000 0.260000 0.820000 sr} bdef
/c7 { 0.000000 0.820000 0.820000 sr} bdef
c0
1 j
1 sg
   0    0 4916 3688 rf
6 w
0 3004 3185 0 0 -3004 639 3281 4 MP
PP
-3185 0 0 3004 3185 0 0 -3004 639 3281 5 MP stroke
4 w
DO
SO
6 w
0 sg
 639 3281 mt 3824 3281 L
 639 3281 mt  639  277 L
 639 3281 mt  639 3249 L
%%IncludeResource: font Helvetica
/Helvetica /ISOLatin1Encoding 120 FMSR

 556 3426 mt 
(0.8) s
1276 3281 mt 1276 3249 L
1193 3426 mt 
(0.9) s
1913 3281 mt 1913 3249 L
1880 3426 mt 
(1) s
2550 3281 mt 2550 3249 L
2467 3426 mt 
(1.1) s
3187 3281 mt 3187 3249 L
3104 3426 mt 
(1.2) s
3824 3281 mt 3824 3249 L
3741 3426 mt 
(1.3) s
3554 3628 mt 
(x 10) s
%%IncludeResource: font Helvetica
/Helvetica /ISOLatin1Encoding 80 FMSR

3780 3554 mt 
(4) s
 639 3281 mt  670 3281 L
%%IncludeResource: font Helvetica
/Helvetica /ISOLatin1Encoding 120 FMSR

 368 3325 mt 
(-3.8) s
 639 2980 mt  670 2980 L
 368 3024 mt 
(-3.7) s
 639 2680 mt  670 2680 L
 368 2724 mt 
(-3.6) s
 639 2379 mt  670 2379 L
 368 2423 mt 
(-3.5) s
 639 2079 mt  670 2079 L
 368 2123 mt 
(-3.4) s
 639 1779 mt  670 1779 L
 368 1823 mt 
(-3.3) s
 639 1478 mt  670 1478 L
 368 1522 mt 
(-3.2) s
 639 1178 mt  670 1178 L
 368 1222 mt 
(-3.1) s
 639  877 mt  670  877 L
 468  921 mt 
(-3) s
 639  577 mt  670  577 L
 368  621 mt 
(-2.9) s
 639  277 mt  670  277 L
 368  321 mt 
(-2.8) s
 639  223 mt 
(x 10) s
%%IncludeResource: font Helvetica
/Helvetica /ISOLatin1Encoding 80 FMSR

 865  149 mt 
(4) s
gs 639 277 3186 3005 rc
0 j
gs 793 421 2991 2823 rc
/c8 { 0.562500 0.000000 0.000000 sr} bdef
c8
  30   30 1360 2103 PO
gr

c8
gs 793 421 2991 2823 rc
  30   30 1763 2489 PO
gr

gs 793 421 2991 2823 rc
/c9 { 0.500000 0.000000 0.000000 sr} bdef
c9
  30   30 1434 2215 PO
gr

c9
gs 793 421 2991 2823 rc
/c10 { 0.687500 0.000000 0.000000 sr} bdef
c10
  30   30 1163 1736 PO
gr

c10
gs 793 421 2991 2823 rc
/c11 { 1.000000 0.000000 0.000000 sr} bdef
c11
  30   30 2639 2874 PO
gr

c11
gs 793 421 2991 2823 rc
c8
  30   30 1631 2358 PO
gr

c8
gs 793 421 2991 2823 rc
  30   30 1322 2062 PO
gr

gs 793 421 2991 2823 rc
c9
  30   30 1422 2199 PO
gr

c9
gs 793 421 2991 2823 rc
c10
  30   30 1198 1816 PO
gr

c10
gs 793 421 2991 2823 rc
/c12 { 0.812500 0.000000 0.000000 sr} bdef
c12
  30   30 2361 2779 PO
gr

c12
gs 793 421 2991 2823 rc
  30   30 2345 2775 PO
gr

gs 793 421 2991 2823 rc
/c13 { 0.937500 0.000000 0.000000 sr} bdef
c13
  30   30 2584 2869 PO
gr

c13
gs 793 421 2991 2823 rc
c10
  30   30 1282 1973 PO
gr

c10
gs 793 421 2991 2823 rc
c9
  30   30 1732 2467 PO
gr

c9
gs 793 421 2991 2823 rc
  30   30 1372 2131 PO
gr

gs 793 421 2991 2823 rc
/c14 { 1.000000 0.125000 0.000000 sr} bdef
c14
  30   30 2852 2955 PO
gr

c14
gs 793 421 2991 2823 rc
/c15 { 0.750000 0.000000 0.000000 sr} bdef
c15
  30   30 1131 1656 PO
gr

c15
gs 793 421 2991 2823 rc
  30   30 1212 1846 PO
gr

gs 793 421 2991 2823 rc
c8
  30   30 1634 2363 PO
gr

c8
gs 793 421 2991 2823 rc
c15
  30   30 1143 1700 PO
gr

c15
gs 793 421 2991 2823 rc
c9
  30   30 1737 2472 PO
gr

c9
gs 793 421 2991 2823 rc
c8
  30   30 1892 2605 PO
gr

c8
gs 793 421 2991 2823 rc
c9
  30   30 1365 2111 PO
gr

c9
gs 793 421 2991 2823 rc
/c16 { 0.000000 0.437500 1.000000 sr} bdef
c16
  30   30 3477 3115 PO
gr

c16
gs 793 421 2991 2823 rc
c9
  30   30 1392 2143 PO
gr

c9
gs 793 421 2991 2823 rc
  30   30 1435 2222 PO
gr

gs 793 421 2991 2823 rc
c13
  30   30 1051 1418 PO
gr

c13
gs 793 421 2991 2823 rc
c8
  30   30 1355 2098 PO
gr

c8
gs 793 421 2991 2823 rc
c10
  30   30 1200 1831 PO
gr

c10
gs 793 421 2991 2823 rc
c9
  30   30 1551 2298 PO
gr

c9
gs 793 421 2991 2823 rc
c8
  30   30 1327 2066 PO
gr

c8
gs 793 421 2991 2823 rc
c15
  30   30 1138 1695 PO
gr

c15
gs 793 421 2991 2823 rc
c8
  30   30 1873 2580 PO
gr

c8
gs 793 421 2991 2823 rc
c12
  30   30 2368 2789 PO
gr

c12
gs 793 421 2991 2823 rc
c8
  30   30 1631 2358 PO
gr

c8
gs 793 421 2991 2823 rc
c15
  30   30 1129 1646 PO
gr

c15
gs 793 421 2991 2823 rc
/c17 { 1.000000 0.562500 0.000000 sr} bdef
c17
  30   30 3434 3097 PO
gr

c17
gs 793 421 2991 2823 rc
c10
  30   30 1192 1809 PO
gr

c10
gs 793 421 2991 2823 rc
c15
  30   30 1131 1656 PO
gr

c15
gs 793 421 2991 2823 rc
/c18 { 0.625000 0.000000 0.000000 sr} bdef
c18
  30   30 1224 1888 PO
gr

c18
gs 793 421 2991 2823 rc
c9
  30   30 1403 2158 PO
gr

c9
gs 793 421 2991 2823 rc
c18
  30   30 1244 1908 PO
gr

c18
gs 793 421 2991 2823 rc
c9
  30   30 1426 2207 PO
gr

c9
gs 793 421 2991 2823 rc
c8
  30   30 1316 2051 PO
gr

c8
gs 793 421 2991 2823 rc
c17
  30   30 3434 3097 PO
gr

c17
gs 793 421 2991 2823 rc
c8
  30   30 1634 2363 PO
gr

c8
gs 793 421 2991 2823 rc
c9
  30   30 1396 2150 PO
gr

c9
gs 793 421 2991 2823 rc
c18
  30   30 1219 1862 PO
gr

c18
gs 793 421 2991 2823 rc
c10
  30   30 1167 1759 PO
gr

c10
gs 793 421 2991 2823 rc
  30   30 1265 1961 PO
gr

gs 793 421 2991 2823 rc
c12
  30   30 1826 2508 PO
gr

c12
gs 793 421 2991 2823 rc
  30   30 1089 1565 PO
gr

gs 793 421 2991 2823 rc
c15
  30   30 1157 1729 PO
gr

c15
gs 793 421 2991 2823 rc
c12
  30   30 1125 1637 PO
gr

c12
gs 793 421 2991 2823 rc
  30   30 1101 1572 PO
gr

gs 793 421 2991 2823 rc
c17
  30   30 3423 3094 PO
gr

c17
gs 793 421 2991 2823 rc
c8
  30   30 1834 2516 PO
gr

c8
gs 793 421 2991 2823 rc
c18
  30   30 1210 1842 PO
gr

c18
gs 793 421 2991 2823 rc
c8
  30   30 1316 2042 PO
gr

c8
gs 793 421 2991 2823 rc
  30   30 1834 2516 PO
gr

gs 793 421 2991 2823 rc
  30   30 1348 2086 PO
gr

gs 793 421 2991 2823 rc
c15
  30   30 1129 1646 PO
gr

c15
gs 793 421 2991 2823 rc
c12
  30   30 1552 2305 PO
gr

c12
gs 793 421 2991 2823 rc
c15
  30   30 1160 1731 PO
gr

c15
gs 793 421 2991 2823 rc
/c19 { 0.875000 0.000000 0.000000 sr} bdef
c19
  30   30 2522 2853 PO
gr

c19
gs 793 421 2991 2823 rc
c10
  30   30 1182 1779 PO
gr

c10
gs 793 421 2991 2823 rc
c12
  30   30 1897 2611 PO
gr

c12
gs 793 421 2991 2823 rc
c8
  30   30 1267 1964 PO
gr

c8
gs 793 421 2991 2823 rc
  30   30 1295 2028 PO
gr

gs 793 421 2991 2823 rc
c18
  30   30 1230 1900 PO
gr

c18
gs 793 421 2991 2823 rc
c9
  30   30 1382 2136 PO
gr

c9
gs 793 421 2991 2823 rc
  30   30 1548 2294 PO
gr

gs 793 421 2991 2823 rc
c8
  30   30 1360 2103 PO
gr

c8
gs 793 421 2991 2823 rc
c9
  30   30 1920 2643 PO
gr

c9
gs 793 421 2991 2823 rc
  30   30 1372 2131 PO
gr

gs 793 421 2991 2823 rc
  30   30 1438 2222 PO
gr

gs 793 421 2991 2823 rc
c18
  30   30 1564 2312 PO
gr

c18
gs 793 421 2991 2823 rc
c8
  30   30 1865 2559 PO
gr

c8
gs 793 421 2991 2823 rc
  30   30 1316 2051 PO
gr

gs 793 421 2991 2823 rc
c12
  30   30 2398 2839 PO
gr

c12
gs 793 421 2991 2823 rc
c17
  30   30 3477 3115 PO
gr

c17
gs 793 421 2991 2823 rc
c9
  30   30 1434 2215 PO
gr

c9
gs 793 421 2991 2823 rc
c8
  30   30 1727 2456 PO
gr

c8
gs 793 421 2991 2823 rc
c15
  30   30 1113 1628 PO
gr

c15
gs 793 421 2991 2823 rc
/c20 { 1.000000 0.250000 0.000000 sr} bdef
c20
  30   30 3030 3026 PO
gr

c20
gs 793 421 2991 2823 rc
c10
  30   30 1187 1798 PO
gr

c10
gs 793 421 2991 2823 rc
c9
  30   30 1401 2152 PO
gr

c9
gs 793 421 2991 2823 rc
c8
  30   30 1283 1999 PO
gr

c8
gs 793 421 2991 2823 rc
/c21 { 1.000000 0.187500 0.000000 sr} bdef
c21
  30   30 3016 3023 PO
gr

c21
gs 793 421 2991 2823 rc
c9
  30   30 1422 2199 PO
gr

c9
gs 793 421 2991 2823 rc
c13
  30   30 1147 1706 PO
gr

c13
gs 793 421 2991 2823 rc
  30   30 1046 1395 PO
gr

gs 793 421 2991 2823 rc
c8
  30   30 1708 2414 PO
gr

c8
gs 793 421 2991 2823 rc
c9
  30   30 1426 2207 PO
gr

c9
gs 793 421 2991 2823 rc
c12
  30   30 2325 2747 PO
gr

c12
gs 793 421 2991 2823 rc
c19
  30   30 1131 1665 PO
gr

c19
gs 793 421 2991 2823 rc
c15
  30   30 1694 2408 PO
gr

c15
gs 793 421 2991 2823 rc
c8
  30   30 1722 2444 PO
gr

c8
gs 793 421 2991 2823 rc
c20
  30   30 3042 3029 PO
gr

c20
gs 793 421 2991 2823 rc
c8
  30   30 1348 2073 PO
gr

c8
gs 793 421 2991 2823 rc
/c22 { 0.937500 1.000000 0.062500 sr} bdef
c22
  30   30 1732 2467 PO
gr

c22
gs 793 421 2991 2823 rc
c9
  30   30 1743 2475 PO
gr

c9
gs 793 421 2991 2823 rc
c18
  30   30 1224 1888 PO
gr

c18
gs 793 421 2991 2823 rc
c9
  30   30 1382 2136 PO
gr

c9
gs 793 421 2991 2823 rc
c12
  30   30 1409 2174 PO
gr

c12
gs 793 421 2991 2823 rc
  30   30 2339 2772 PO
gr

gs 793 421 2991 2823 rc
c10
  30   30 1173 1767 PO
gr

c10
gs 793 421 2991 2823 rc
c8
  30   30 1710 2422 PO
gr

c8
gs 793 421 2991 2823 rc
c11
  30   30 2728 2940 PO
gr

c11
gs 793 421 2991 2823 rc
c10
  30   30 1192 1809 PO
gr

c10
gs 793 421 2991 2823 rc
c8
  30   30 1344 2072 PO
gr

c8
gs 793 421 2991 2823 rc
c21
  30   30 2383 2794 PO
gr

c21
gs 793 421 2991 2823 rc
c8
  30   30 1897 2611 PO
gr

c8
gs 793 421 2991 2823 rc
/c23 { 1.000000 0.062500 0.000000 sr} bdef
c23
  30   30 1322 2062 PO
gr

c23
gs 793 421 2991 2823 rc
c20
  30   30 3030 3026 PO
gr

c20
gs 793 421 2991 2823 rc
c11
  30   30 2651 2887 PO
gr

c11
gs 793 421 2991 2823 rc
  30   30 2645 2876 PO
gr

gs 793 421 2991 2823 rc
c8
  30   30 1275 1965 PO
gr

c8
gs 793 421 2991 2823 rc
c18
  30   30 1248 1924 PO
gr

c18
gs 793 421 2991 2823 rc
c9
  30   30 1392 2143 PO
gr

c9
gs 793 421 2991 2823 rc
c14
  30   30 2859 2962 PO
gr

c14
gs 793 421 2991 2823 rc
c8
  30   30 1642 2370 PO
gr

c8
gs 793 421 2991 2823 rc
  30   30 1763 2489 PO
gr

gs 793 421 2991 2823 rc
c9
  30   30 1403 2158 PO
gr

c9
gs 793 421 2991 2823 rc
c8
  30   30 1727 2456 PO
gr

c8
gs 793 421 2991 2823 rc
  30   30 1625 2352 PO
gr

gs 793 421 2991 2823 rc
c17
  30   30 3443 3098 PO
gr

c17
gs 793 421 2991 2823 rc
c8
  30   30 1769 2492 PO
gr

c8
gs 793 421 2991 2823 rc
c17
  30   30 3492 3120 PO
gr

c17
gs 793 421 2991 2823 rc
c9
  30   30 1558 2307 PO
gr

c9
gs 793 421 2991 2823 rc
c15
  30   30 1355 2098 PO
gr

c15
gs 793 421 2991 2823 rc
c10
  30   30 1173 1767 PO
gr

c10
gs 793 421 2991 2823 rc
c17
  30   30 3480 3119 PO
gr

c17
gs 793 421 2991 2823 rc
/c24 { 1.000000 0.437500 0.000000 sr} bdef
c24
  30   30  934  843 PO
gr

c24
gs 793 421 2991 2823 rc
c8
  30   30 1481 2281 PO
gr

c8
gs 793 421 2991 2823 rc
  30   30 1705 2411 PO
gr

gs 793 421 2991 2823 rc
c11
  30   30 2671 2921 PO
gr

c11
gs 793 421 2991 2823 rc
c8
  30   30 1348 2086 PO
gr

c8
gs 793 421 2991 2823 rc
/c25 { 1.000000 0.500000 0.000000 sr} bdef
c25
  30   30 2345 2775 PO
gr

c25
gs 793 421 2991 2823 rc
c8
  30   30 1290 2013 PO
gr

c8
gs 793 421 2991 2823 rc
  30   30 1312 2037 PO
gr

gs 793 421 2991 2823 rc
/c26 { 1.000000 0.312500 0.000000 sr} bdef
c26
  30   30 2576 2864 PO
gr

c26
gs 793 421 2991 2823 rc
c17
  30   30 3467 3107 PO
gr

c17
gs 793 421 2991 2823 rc
c11
  30   30 1028 1344 PO
gr

c11
gs 793 421 2991 2823 rc
c17
  30   30 3493 3124 PO
gr

c17
gs 793 421 2991 2823 rc
c9
  30   30 1564 2312 PO
gr

c9
gs 793 421 2991 2823 rc
  30   30 1409 2174 PO
gr

gs 793 421 2991 2823 rc
  30   30 1365 2111 PO
gr

gs 793 421 2991 2823 rc
c11
  30   30 2651 2887 PO
gr

c11
gs 793 421 2991 2823 rc
c21
  30   30 3016 3023 PO
gr

c21
gs 793 421 2991 2823 rc
c26
  30   30 2711 2935 PO
gr

c26
gs 793 421 2991 2823 rc
c10
  30   30 1200 1831 PO
gr

c10
gs 793 421 2991 2823 rc
c17
  30   30 2998 3021 PO
gr

c17
gs 793 421 2991 2823 rc
c10
  30   30 1198 1816 PO
gr

c10
gs 793 421 2991 2823 rc
c15
  30   30 1183 1796 PO
gr

c15
gs 793 421 2991 2823 rc
c18
  30   30 1219 1862 PO
gr

c18
gs 793 421 2991 2823 rc
c12
  30   30 2395 2812 PO
gr

c12
gs 793 421 2991 2823 rc
  30   30 1125 1637 PO
gr

gs 793 421 2991 2823 rc
c15
  30   30 1613 2350 PO
gr

c15
gs 793 421 2991 2823 rc
c18
  30   30 1205 1839 PO
gr

c18
gs 793 421 2991 2823 rc
c11
  30   30 1030 1362 PO
gr

c11
gs 793 421 2991 2823 rc
c12
  30   30 2444 2852 PO
gr

c12
gs 793 421 2991 2823 rc
c8
  30   30 1290 2013 PO
gr

c8
gs 793 421 2991 2823 rc
c12
  30   30 1028 1344 PO
gr

c12
gs 793 421 2991 2823 rc
c21
  30   30 2934 3001 PO
gr

c21
gs 793 421 2991 2823 rc
c18
  30   30 1218 1850 PO
gr

c18
gs 793 421 2991 2823 rc
c11
  30   30 1295 2028 PO
gr

c11
gs 793 421 2991 2823 rc
  30   30 2681 2925 PO
gr

gs 793 421 2991 2823 rc
c8
  30   30 1722 2444 PO
gr

c8
gs 793 421 2991 2823 rc
  30   30 1331 2072 PO
gr

gs 793 421 2991 2823 rc
c11
  30   30 1107 1589 PO
gr

c11
gs 793 421 2991 2823 rc
c8
  30   30 1826 2508 PO
gr

c8
gs 793 421 2991 2823 rc
c9
  30   30 1574 2325 PO
gr

c9
gs 793 421 2991 2823 rc
c20
  30   30 2098 2667 PO
gr

c20
gs 793 421 2991 2823 rc
c9
  30   30 1421 2188 PO
gr

c9
gs 793 421 2991 2823 rc
c18
  30   30 1262 1950 PO
gr

c18
gs 793 421 2991 2823 rc
c13
  30   30 1041 1381 PO
gr

c13
gs 793 421 2991 2823 rc
/c27 { 1.000000 0.687500 0.000000 sr} bdef
c27
  30   30 1041 1381 PO
gr

c27
gs 793 421 2991 2823 rc
c13
  30   30 1047 1415 PO
gr

c13
gs 793 421 2991 2823 rc
c23
  30   30 2313 2745 PO
gr

c23
gs 793 421 2991 2823 rc
c8
  30   30 1611 2341 PO
gr

c8
gs 793 421 2991 2823 rc
c12
  30   30 2422 2850 PO
gr

c12
gs 793 421 2991 2823 rc
c8
  30   30 1302 2036 PO
gr

c8
gs 793 421 2991 2823 rc
c9
  30   30 1410 2187 PO
gr

c9
gs 793 421 2991 2823 rc
/c28 { 1.000000 0.937500 0.000000 sr} bdef
c28
  30   30 3443 3098 PO
gr

c28
gs 793 421 2991 2823 rc
c15
  30   30 1749 2485 PO
gr

c15
gs 793 421 2991 2823 rc
c23
  30   30 1600 2339 PO
gr

c23
gs 793 421 2991 2823 rc
c8
  30   30 1784 2492 PO
gr

c8
gs 793 421 2991 2823 rc
c13
  30   30 1046 1395 PO
gr

c13
gs 793 421 2991 2823 rc
c10
  30   30 1182 1779 PO
gr

c10
gs 793 421 2991 2823 rc
c18
  30   30 1219 1882 PO
gr

c18
gs 793 421 2991 2823 rc
c10
  30   30 1811 2502 PO
gr

c10
gs 793 421 2991 2823 rc
c8
  30   30 1784 2492 PO
gr

c8
gs 793 421 2991 2823 rc
c11
  30   30 2656 2901 PO
gr

c11
gs 793 421 2991 2823 rc
c10
  30   30 1163 1736 PO
gr

c10
gs 793 421 2991 2823 rc
c12
  30   30 1230 1900 PO
gr

c12
gs 793 421 2991 2823 rc
c8
  30   30 1905 2622 PO
gr

c8
gs 793 421 2991 2823 rc
c26
  30   30 2368 2789 PO
gr

c26
gs 793 421 2991 2823 rc
c9
  30   30 1496 2283 PO
gr

c9
gs 793 421 2991 2823 rc
c14
  30   30 2859 2962 PO
gr

c14
gs 793 421 2991 2823 rc
c12
  30   30 2361 2779 PO
gr

c12
gs 793 421 2991 2823 rc
c11
  30   30 2639 2874 PO
gr

c11
gs 793 421 2991 2823 rc
c15
  30   30 1157 1729 PO
gr

c15
gs 793 421 2991 2823 rc
c9
  30   30 1600 2339 PO
gr

c9
gs 793 421 2991 2823 rc
c11
  30   30 2613 2871 PO
gr

c11
gs 793 421 2991 2823 rc
c15
  30   30 1147 1706 PO
gr

c15
gs 793 421 2991 2823 rc
c9
  30   30 1475 2278 PO
gr

c9
gs 793 421 2991 2823 rc
c8
  30   30 1719 2425 PO
gr

c8
gs 793 421 2991 2823 rc
c18
  30   30 1892 2605 PO
gr

c18
gs 793 421 2991 2823 rc
c20
  30   30 1027 1325 PO
gr

c20
gs 793 421 2991 2823 rc
c24
  30   30  930  826 PO
gr

c24
gs 793 421 2991 2823 rc
c9
  30   30 1366 2127 PO
gr

c9
gs 793 421 2991 2823 rc
c12
  30   30 1101 1572 PO
gr

c12
gs 793 421 2991 2823 rc
c11
  30   30 1030 1362 PO
gr

c11
gs 793 421 2991 2823 rc
c14
  30   30 2656 2901 PO
gr

c14
gs 793 421 2991 2823 rc
c9
  30   30 1450 2251 PO
gr

c9
gs 793 421 2991 2823 rc
c18
  30   30 1248 1924 PO
gr

c18
gs 793 421 2991 2823 rc
c8
  30   30 1905 2622 PO
gr

c8
gs 793 421 2991 2823 rc
c15
  30   30 2241 2718 PO
gr

c15
gs 793 421 2991 2823 rc
c11
  30   30 2671 2921 PO
gr

c11
gs 793 421 2991 2823 rc
c20
  30   30 3042 3029 PO
gr

c20
gs 793 421 2991 2823 rc
c10
  30   30 1167 1759 PO
gr

c10
gs 793 421 2991 2823 rc
c11
  30   30 2711 2935 PO
gr

c11
gs 793 421 2991 2823 rc
c21
  30   30 2998 3021 PO
gr

c21
gs 793 421 2991 2823 rc
c18
  30   30 1244 1908 PO
gr

c18
gs 793 421 2991 2823 rc
c20
  30   30  914  677 PO
gr

c20
gs 793 421 2991 2823 rc
c8
  30   30 1811 2502 PO
gr

c8
gs 793 421 2991 2823 rc
c11
  30   30 2685 2931 PO
gr

c11
gs 793 421 2991 2823 rc
c15
  30   30 1131 1665 PO
gr

c15
gs 793 421 2991 2823 rc
c17
  30   30 3467 3107 PO
gr

c17
gs 793 421 2991 2823 rc
c11
  30   30 2613 2871 PO
gr

c11
gs 793 421 2991 2823 rc
c12
  30   30 2339 2772 PO
gr

c12
gs 793 421 2991 2823 rc
c14
  30   30 2927 2997 PO
gr

c14
gs 793 421 2991 2823 rc
c8
  30   30 1643 2372 PO
gr

c8
gs 793 421 2991 2823 rc
c14
  30   30 2852 2955 PO
gr

c14
gs 793 421 2991 2823 rc
c8
  30   30 1282 1973 PO
gr

c8
gs 793 421 2991 2823 rc
c13
  30   30 2584 2869 PO
gr

c13
gs 793 421 2991 2823 rc
c8
  30   30 1283 1999 PO
gr

c8
gs 793 421 2991 2823 rc
c12
  30   30 2422 2850 PO
gr

c12
gs 793 421 2991 2823 rc
c10
  30   30 1475 2278 PO
gr

c10
gs 793 421 2991 2823 rc
c12
  30   30 2383 2794 PO
gr

c12
gs 793 421 2991 2823 rc
c11
  30   30 1027 1325 PO
gr

c11
gs 793 421 2991 2823 rc
c13
  30   30 1051 1418 PO
gr

c13
gs 793 421 2991 2823 rc
c8
  30   30 1873 2580 PO
gr

c8
gs 793 421 2991 2823 rc
c11
  30   30 1012 1298 PO
gr

c11
gs 793 421 2991 2823 rc
c15
  30   30 2265 2733 PO
gr

c15
gs 793 421 2991 2823 rc
c8
  30   30 1887 2583 PO
gr

c8
gs 793 421 2991 2823 rc
c15
  30   30 1138 1695 PO
gr

c15
gs 793 421 2991 2823 rc
c23
  30   30 1004 1263 PO
gr

c23
gs 793 421 2991 2823 rc
c12
  30   30 2325 2747 PO
gr

c12
gs 793 421 2991 2823 rc
c21
  30   30 2969 3018 PO
gr

c21
gs 793 421 2991 2823 rc
c13
  30   30 1059 1447 PO
gr

c13
gs 793 421 2991 2823 rc
c24
  30   30 3256 3060 PO
gr

c24
gs 793 421 2991 2823 rc
c8
  30   30 1249 1949 PO
gr

c8
gs 793 421 2991 2823 rc
c15
  30   30 2241 2718 PO
gr

c15
gs 793 421 2991 2823 rc
c21
  30   30 2934 3001 PO
gr

c21
gs 793 421 2991 2823 rc
  30   30 2826 2953 PO
gr

gs 793 421 2991 2823 rc
c12
  30   30 2395 2812 PO
gr

c12
gs 793 421 2991 2823 rc
c9
  30   30 1574 2325 PO
gr

c9
gs 793 421 2991 2823 rc
c20
  30   30  967 1024 PO
gr

c20
gs 793 421 2991 2823 rc
c13
  30   30 1004 1263 PO
gr

c13
gs 793 421 2991 2823 rc
c24
  30   30 1089 1565 PO
gr

c24
gs 793 421 2991 2823 rc
c15
  30   30 2218 2711 PO
gr

c15
gs 793 421 2991 2823 rc
c8
  30   30 1839 2521 PO
gr

c8
gs 793 421 2991 2823 rc
c10
  30   30 2122 2694 PO
gr

c10
gs 793 421 2991 2823 rc
c21
  30   30 2969 3018 PO
gr

c21
gs 793 421 2991 2823 rc
c9
  30   30 1449 2222 PO
gr

c9
gs 793 421 2991 2823 rc
c21
  30   30 2969 3018 PO
gr

c21
gs 793 421 2991 2823 rc
c14
  30   30 2728 2940 PO
gr

c14
gs 793 421 2991 2823 rc
  30   30 2880 2972 PO
gr

gs 793 421 2991 2823 rc
c19
  30   30 1084 1536 PO
gr

c19
gs 793 421 2991 2823 rc
  30   30 1067 1498 PO
gr

gs 793 421 2991 2823 rc
c12
  30   30 1107 1589 PO
gr

c12
gs 793 421 2991 2823 rc
c8
  30   30 1865 2559 PO
gr

c8
gs 793 421 2991 2823 rc
c20
  30   30 3068 3033 PO
gr

c20
gs 793 421 2991 2823 rc
c12
  30   30 2313 2745 PO
gr

c12
gs 793 421 2991 2823 rc
c8
  30   30 1689 2403 PO
gr

c8
gs 793 421 2991 2823 rc
c13
  30   30 2398 2839 PO
gr

c13
gs 793 421 2991 2823 rc
c14
  30   30 1012 1298 PO
gr

c14
gs 793 421 2991 2823 rc
  30   30 2927 2997 PO
gr

gs 793 421 2991 2823 rc
c23
  30   30 1004 1231 PO
gr

c23
gs 793 421 2991 2823 rc
c9
  30   30 1496 2283 PO
gr

c9
gs 793 421 2991 2823 rc
c19
  30   30 2522 2853 PO
gr

c19
gs 793 421 2991 2823 rc
c12
  30   30 1113 1628 PO
gr

c12
gs 793 421 2991 2823 rc
c9
  30   30 1450 2251 PO
gr

c9
gs 793 421 2991 2823 rc
c23
  30   30 2769 2940 PO
gr

c23
gs 793 421 2991 2823 rc
c9
  30   30 1548 2294 PO
gr

c9
gs 793 421 2991 2823 rc
  30   30 1920 2643 PO
gr

gs 793 421 2991 2823 rc
c23
  30   30 2769 2940 PO
gr

c23
gs 793 421 2991 2823 rc
c20
  30   30  965  997 PO
gr

c20
gs 793 421 2991 2823 rc
/c29 { 0.625000 1.000000 0.375000 sr} bdef
c29
  30   30 2880 2972 PO
gr

c29
gs 793 421 2991 2823 rc
c13
  30   30 1839 2552 PO
gr

c13
gs 793 421 2991 2823 rc
/c30 { 1.000000 0.750000 0.000000 sr} bdef
c30
  30   30 3674 3152 PO
gr

c30
gs 793 421 2991 2823 rc
c13
  30   30 2576 2864 PO
gr

c13
gs 793 421 2991 2823 rc
c14
  30   30 2826 2953 PO
gr

c14
gs 793 421 2991 2823 rc
c8
  30   30 1954 2643 PO
gr

c8
gs 793 421 2991 2823 rc
c14
  30   30 2062 2667 PO
gr

c14
gs 793 421 2991 2823 rc
/c31 { 1.000000 0.375000 0.000000 sr} bdef
c31
  30   30  975 1075 PO
gr

c31
gs 793 421 2991 2823 rc
c13
  30   30 1059 1447 PO
gr

c13
gs 793 421 2991 2823 rc
c20
  30   30  975 1026 PO
gr

c20
gs 793 421 2991 2823 rc
c10
  30   30 2098 2667 PO
gr

c10
gs 793 421 2991 2823 rc
c24
  30   30 3319 3091 PO
gr

c24
gs 793 421 2991 2823 rc
c14
  30   30 2265 2733 PO
gr

c14
gs 793 421 2991 2823 rc
c24
  30   30 3249 3056 PO
gr

c24
gs 793 421 2991 2823 rc
c17
  30   30  894  651 PO
gr

c17
gs 793 421 2991 2823 rc
/c32 { 0.000000 0.000000 0.562500 sr} bdef
c32
  30   30  930  826 PO
gr

c32
gs 793 421 2991 2823 rc
c25
  30   30  918  766 PO
gr

c25
gs 793 421 2991 2823 rc
c23
  30   30 1004 1231 PO
gr

c23
gs 793 421 2991 2823 rc
c19
  30   30 1067 1498 PO
gr

c19
gs 793 421 2991 2823 rc
c17
  30   30 3493 3124 PO
gr

c17
gs 793 421 2991 2823 rc
c19
  30   30 2520 2853 PO
gr

c19
gs 793 421 2991 2823 rc
c24
  30   30 1643 2402 PO
gr

c24
gs 793 421 2991 2823 rc
c12
  30   30 2444 2852 PO
gr

c12
gs 793 421 2991 2823 rc
c14
  30   30  985 1167 PO
gr

c14
gs 793 421 2991 2823 rc
/c33 { 1.000000 0.625000 0.000000 sr} bdef
c33
  30   30 3561 3142 PO
gr

c33
gs 793 421 2991 2823 rc
c24
  30   30  934  843 PO
gr

c24
gs 793 421 2991 2823 rc
c31
  30   30 3186 3056 PO
gr

c31
gs 793 421 2991 2823 rc
c26
  30   30  935  917 PO
gr

c26
gs 793 421 2991 2823 rc
  30   30  965  997 PO
gr

gs 793 421 2991 2823 rc
c31
  30   30 3256 3090 PO
gr

c31
gs 793 421 2991 2823 rc
c21
  30   30  975 1075 PO
gr

c21
gs 793 421 2991 2823 rc
c24
  30   30 3325 3092 PO
gr

c24
gs 793 421 2991 2823 rc
c17
  30   30 3423 3094 PO
gr

c17
gs 793 421 2991 2823 rc
c15
  30   30 2218 2711 PO
gr

c15
gs 793 421 2991 2823 rc
c13
  30   30  918  766 PO
gr

c13
gs 793 421 2991 2823 rc
c23
  30   30 1954 2643 PO
gr

c23
gs 793 421 2991 2823 rc
c18
  30   30 2062 2667 PO
gr

c18
gs 793 421 2991 2823 rc
c29
  30   30  935  917 PO
gr

c29
gs 793 421 2991 2823 rc
c17
  30   30  914  677 PO
gr

c17
gs 793 421 2991 2823 rc
c19
  30   30  985 1167 PO
gr

c19
gs 793 421 2991 2823 rc
c31
  30   30 3186 3056 PO
gr

c31
gs 793 421 2991 2823 rc
c20
  30   30 3068 3033 PO
gr

c20
gs 793 421 2991 2823 rc
c19
  30   30 2122 2694 PO
gr

c19
gs 793 421 2991 2823 rc
/c34 { 1.000000 0.875000 0.000000 sr} bdef
c34
  30   30 3561 3142 PO
gr

c34
gs 793 421 2991 2823 rc
c30
  30   30 3674 3152 PO
gr

c30
gs 793 421 2991 2823 rc
c17
  30   30  894  651 PO
gr

c17
gs 793 421 2991 2823 rc
/c35 { 1.000000 1.000000 0.000000 sr} bdef
c35
  30   30 3722 3182 PO
gr

c35
gs 793 421 2991 2823 rc
c27
  30   30  854  482 PO
gr

c27
gs 793 421 2991 2823 rc
  30   30  854  482 PO
gr

gs 793 421 2991 2823 rc
c30
  30   30 3722 3182 PO
gr

c30
gr

c30
0 sg
%%IncludeResource: font Helvetica
/Helvetica /ISOLatin1Encoding 120 FMSR

2097 3569 mt 
(Time) s
 286 1920 mt  -90 rotate
(Profit) s
90 rotate
1099  182 mt 
(berlin52_n255_bounded-strongly-corr_01) s
 622 3324 mt 
( ) s
3808  319 mt 
( ) s
%%IncludeResource: font Symbol
/Symbol /ISOLatin1Encoding 120 FMSR

1496 2341 mt 
(\254) s
%%IncludeResource: font Helvetica
/Helvetica /ISOLatin1Encoding 120 FMSR

1614 2341 mt 
( EMO \(15757\)) s
gs 639 277 3186 3005 rc
0 j
gs 1429 2197 123 123 rc
30 39 -30 39 -30 -39 30 -39 1490 2297 5 MP
c9
PP
gr

c9
gr

c9
0 sg
%%IncludeResource: font Symbol
/Symbol /ISOLatin1Encoding 120 FMSR

1424 2254 mt 
(\254) s
%%IncludeResource: font Helvetica
/Helvetica /ISOLatin1Encoding 120 FMSR

1542 2254 mt 
( S5 \(15642\)) s
gs 639 277 3186 3005 rc
0 j
gs 1618 2402 123 123 rc
0 -48 -48 0 0 48 48 0 1655 2439 5 MP
c9
PP
gr

c9
gr

c9
0 sg
%%IncludeResource: font Symbol
/Symbol /ISOLatin1Encoding 120 FMSR

1680 2507 mt 
(\254) s
%%IncludeResource: font Helvetica
/Helvetica /ISOLatin1Encoding 120 FMSR

1798 2507 mt 
( MA2B \(15724\)) s
1 sg
0 3006 241 0 0 -3006 4004 3282 4 MP
PP
-241 0 0 3006 241 0 0 -3006 4004 3282 5 MP stroke
gs 4004 277 242 3006 rc
/mwscm { [/Indexed /DeviceRGB 63
  <
    00008f 00009f 0000af 0000bf 0000cf 0000df 0000ef 0000ff 000fff 001fff 
    002fff 003fff 004fff 005fff 006fff 007fff 008fff 009fff 00afff 00bfff 
    00cfff 00dfff 00efff 00ffff 0fffef 1fffdf 2fffcf 3fffbf 4fffaf 5fff9f 
    6fff8f 7fff7f 8fff6f 9fff5f afff4f bfff3f cfff2f dfff1f efff0f ffff00 
    ffef00 ffdf00 ffcf00 ffbf00 ffaf00 ff9f00 ff8f00 ff7f00 ff6f00 ff5f00 
    ff4f00 ff3f00 ff2f00 ff1f00 ff0f00 ff0000 ef0000 df0000 cf0000 bf0000 
    af0000 9f0000 8f0000 7f0000 
  >
] setcolorspace } bdef mwscm
gs np 4004 277 mt 0 3005 rl 241 0 rl 0 -3005 rl cp c np
[241 0 0 3005 4004 277] cc
<< % Image dictionary
  /ImageType 1
  /Width 1 /Height 64
  /BitsPerComponent 8
  /Decode [0 255]
  /ImageMatrix [1.000000 0 0 64.000000 0 0]
  /DataSource currentfile
  /ASCII85Decode filter
  /RunLengthDecode filter
>>
image
5<h=p4?GSa3&``Q1c$mA0J>%1/1W2!-mp>f,U4KV+<MXF*#fe6(`*r&'GD)k&.]6[$k!CK#R:P;"9S]+
!.Y
~>
gr
gr

0 sg
4753 2067 mt  -90 rotate
(TTP Score) s
90 rotate
4 w
DO
SO
6 w
4004 3282 mt 4245 3282 L
4004  276 mt 4245  276 L
4004 3282 mt 4004  276 L
4245 3282 mt 4245  276 L
4004 3282 mt 4245 3282 L
4245 3282 mt 4245  276 L
4245 2989 mt 4214 2989 L
4004 2989 mt 4034 2989 L
4279 3033 mt 
(4000) s
4245 2528 mt 4214 2528 L
4004 2528 mt 4034 2528 L
4279 2572 mt 
(6000) s
4245 2066 mt 4214 2066 L
4004 2066 mt 4034 2066 L
4279 2110 mt 
(8000) s
4245 1605 mt 4214 1605 L
4004 1605 mt 4034 1605 L
4279 1649 mt 
(10000) s
4245 1143 mt 4214 1143 L
4004 1143 mt 4034 1143 L
4279 1187 mt 
(12000) s
4245  682 mt 4214  682 L
4004  682 mt 4034  682 L
4279  726 mt 
(14000) s
4004 3282 mt 4245 3282 L
4004  276 mt 4245  276 L
4004 3282 mt 4004  276 L
4245 3282 mt 4245  276 L

end %%Color Dict

eplot
%%EndObject

epage
end

showpage

%%Trailer
%%EOF
