%!PS-Adobe-3.0 EPSF-3.0
%%Creator: MATLAB, The MathWorks, Inc. Version 8.1.0.604 (R2013a). Operating System: Linux 3.14.27-100.fc19.x86_64 #1 SMP Wed Dec 17 19:36:34 UTC 2014 x86_64.
%%Title: /home/kyu/Documents/PHD/codes/mottp/results/eil51.eps
%%CreationDate: 01/22/2017  00:55:24
%%DocumentNeededFonts: Helvetica
%%DocumentProcessColors: Cyan Magenta Yellow Black
%%LanguageLevel: 2
%%Pages: 1
%%BoundingBox:   100   241   509   549
%%EndComments

%%BeginProlog
% MathWorks dictionary
/MathWorks 160 dict begin
% definition operators
/bdef {bind def} bind def
/ldef {load def} bind def
/xdef {exch def} bdef
/xstore {exch store} bdef
% operator abbreviations
/c  /clip ldef
/cc /concat ldef
/cp /closepath ldef
/gr /grestore ldef
/gs /gsave ldef
/mt /moveto ldef
/np /newpath ldef
/cm /currentmatrix ldef
/sm /setmatrix ldef
/rm /rmoveto ldef
/rl /rlineto ldef
/s {show newpath} bdef
/sc {setcmykcolor} bdef
/sr /setrgbcolor ldef
/sg /setgray ldef
/w /setlinewidth ldef
/j /setlinejoin ldef
/cap /setlinecap ldef
/rc {rectclip} bdef
/rf {rectfill} bdef
% page state control
/pgsv () def
/bpage {/pgsv save def} bdef
/epage {pgsv restore} bdef
/bplot /gsave ldef
/eplot {stroke grestore} bdef
% orientation switch
/portraitMode 0 def /landscapeMode 1 def /rotateMode 2 def
% coordinate system mappings
/dpi2point 0 def
% font control
/FontSize 0 def
/FMS {/FontSize xstore findfont [FontSize 0 0 FontSize neg 0 0]
  makefont setfont} bdef
/reencode {exch dup where {pop load} {pop StandardEncoding} ifelse
  exch dup 3 1 roll findfont dup length dict begin
  { 1 index /FID ne {def}{pop pop} ifelse } forall
  /Encoding exch def currentdict end definefont pop} bdef
/isroman {findfont /CharStrings get /Agrave known} bdef
/FMSR {3 1 roll 1 index dup isroman {reencode} {pop pop} ifelse
  exch FMS} bdef
/csm {1 dpi2point div -1 dpi2point div scale neg translate
 dup landscapeMode eq {pop -90 rotate}
  {rotateMode eq {90 rotate} if} ifelse} bdef
% line types: solid, dotted, dashed, dotdash
/SO { [] 0 setdash } bdef
/DO { [.5 dpi2point mul 4 dpi2point mul] 0 setdash } bdef
/DA { [6 dpi2point mul] 0 setdash } bdef
/DD { [.5 dpi2point mul 4 dpi2point mul 6 dpi2point mul 4
  dpi2point mul] 0 setdash } bdef
% macros for lines and objects
/L {lineto stroke} bdef
/MP {3 1 roll moveto 1 sub {rlineto} repeat} bdef
/AP {{rlineto} repeat} bdef
/PDlw -1 def
/W {/PDlw currentlinewidth def setlinewidth} def
/PP {closepath eofill} bdef
/DP {closepath stroke} bdef
/MR {4 -2 roll moveto dup  0 exch rlineto exch 0 rlineto
  neg 0 exch rlineto closepath} bdef
/FR {MR stroke} bdef
/PR {MR fill} bdef
/L1i {{currentfile picstr readhexstring pop} image} bdef
/tMatrix matrix def
/MakeOval {newpath tMatrix currentmatrix pop translate scale
0 0 1 0 360 arc tMatrix setmatrix} bdef
/FO {MakeOval stroke} bdef
/PO {MakeOval fill} bdef
/PD {currentlinewidth 2 div 0 360 arc fill
   PDlw -1 eq not {PDlw w /PDlw -1 def} if} def
/FA {newpath tMatrix currentmatrix pop translate scale
  0 0 1 5 -2 roll arc tMatrix setmatrix stroke} bdef
/PA {newpath tMatrix currentmatrix pop	translate 0 0 moveto scale
  0 0 1 5 -2 roll arc closepath tMatrix setmatrix fill} bdef
/FAn {newpath tMatrix currentmatrix pop translate scale
  0 0 1 5 -2 roll arcn tMatrix setmatrix stroke} bdef
/PAn {newpath tMatrix currentmatrix pop translate 0 0 moveto scale
  0 0 1 5 -2 roll arcn closepath tMatrix setmatrix fill} bdef
/vradius 0 def /hradius 0 def /lry 0 def
/lrx 0 def /uly 0 def /ulx 0 def /rad 0 def
/MRR {/vradius xdef /hradius xdef /lry xdef /lrx xdef /uly xdef
  /ulx xdef newpath tMatrix currentmatrix pop ulx hradius add uly
  vradius add translate hradius vradius scale 0 0 1 180 270 arc 
  tMatrix setmatrix lrx hradius sub uly vradius add translate
  hradius vradius scale 0 0 1 270 360 arc tMatrix setmatrix
  lrx hradius sub lry vradius sub translate hradius vradius scale
  0 0 1 0 90 arc tMatrix setmatrix ulx hradius add lry vradius sub
  translate hradius vradius scale 0 0 1 90 180 arc tMatrix setmatrix
  closepath} bdef
/FRR {MRR stroke } bdef
/PRR {MRR fill } bdef
/MlrRR {/lry xdef /lrx xdef /uly xdef /ulx xdef /rad lry uly sub 2 div def
  newpath tMatrix currentmatrix pop ulx rad add uly rad add translate
  rad rad scale 0 0 1 90 270 arc tMatrix setmatrix lrx rad sub lry rad
  sub translate rad rad scale 0 0 1 270 90 arc tMatrix setmatrix
  closepath} bdef
/FlrRR {MlrRR stroke } bdef
/PlrRR {MlrRR fill } bdef
/MtbRR {/lry xdef /lrx xdef /uly xdef /ulx xdef /rad lrx ulx sub 2 div def
  newpath tMatrix currentmatrix pop ulx rad add uly rad add translate
  rad rad scale 0 0 1 180 360 arc tMatrix setmatrix lrx rad sub lry rad
  sub translate rad rad scale 0 0 1 0 180 arc tMatrix setmatrix
  closepath} bdef
/FtbRR {MtbRR stroke } bdef
/PtbRR {MtbRR fill } bdef
/stri 6 array def /dtri 6 array def
/smat 6 array def /dmat 6 array def
/tmat1 6 array def /tmat2 6 array def /dif 3 array def
/asub {/ind2 exch def /ind1 exch def dup dup
  ind1 get exch ind2 get sub exch } bdef
/tri_to_matrix {
  2 0 asub 3 1 asub 4 0 asub 5 1 asub
  dup 0 get exch 1 get 7 -1 roll astore } bdef
/compute_transform {
  dmat dtri tri_to_matrix tmat1 invertmatrix 
  smat stri tri_to_matrix tmat2 concatmatrix } bdef
/ds {stri astore pop} bdef
/dt {dtri astore pop} bdef
/db {2 copy /cols xdef /rows xdef mul dup 3 mul string
  currentfile 
  3 index 0 eq {/ASCIIHexDecode filter}
  {/ASCII85Decode filter 3 index 2 eq {/RunLengthDecode filter} if }
  ifelse exch readstring pop
  dup 0 3 index getinterval /rbmap xdef
  dup 2 index dup getinterval /gbmap xdef
  1 index dup 2 mul exch getinterval /bbmap xdef pop pop}bdef
/it {gs np dtri aload pop moveto lineto lineto cp c
  cols rows 8 compute_transform 
  rbmap gbmap bbmap true 3 colorimage gr}bdef
/il {newpath moveto lineto stroke}bdef
currentdict end def
%%EndProlog

%%BeginSetup
MathWorks begin

0 cap

end
%%EndSetup

%%Page: 1 1
%%BeginPageSetup
%%PageBoundingBox:   100   241   509   549
MathWorks begin
bpage
%%EndPageSetup

%%BeginObject: obj1
bplot

/dpi2point 12 def
portraitMode 1200 6588 csm

    0     0  4915  3687 rc
85 dict begin %Colortable dictionary
/c0 { 0.000000 0.000000 0.000000 sr} bdef
/c1 { 1.000000 1.000000 1.000000 sr} bdef
/c2 { 0.900000 0.000000 0.000000 sr} bdef
/c3 { 0.000000 0.820000 0.000000 sr} bdef
/c4 { 0.000000 0.000000 0.800000 sr} bdef
/c5 { 0.910000 0.820000 0.320000 sr} bdef
/c6 { 1.000000 0.260000 0.820000 sr} bdef
/c7 { 0.000000 0.820000 0.820000 sr} bdef
c0
1 j
1 sg
   0    0 4916 3688 rf
6 w
0 3004 3185 0 0 -3004 639 3281 4 MP
PP
-3185 0 0 3004 3185 0 0 -3004 639 3281 5 MP stroke
4 w
DO
SO
6 w
0 sg
 639 3281 mt 3824 3281 L
 639 3281 mt  639  277 L
 639 3281 mt  639 3249 L
%%IncludeResource: font Helvetica
/Helvetica /ISOLatin1Encoding 120 FMSR

 539 3426 mt 
(500) s
1037 3281 mt 1037 3249 L
 937 3426 mt 
(550) s
1435 3281 mt 1435 3249 L
1335 3426 mt 
(600) s
1833 3281 mt 1833 3249 L
1733 3426 mt 
(650) s
2231 3281 mt 2231 3249 L
2131 3426 mt 
(700) s
2629 3281 mt 2629 3249 L
2529 3426 mt 
(750) s
3027 3281 mt 3027 3249 L
2927 3426 mt 
(800) s
3425 3281 mt 3425 3249 L
3325 3426 mt 
(850) s
3824 3281 mt 3824 3249 L
3724 3426 mt 
(900) s
 639 3281 mt  670 3281 L
 368 3325 mt 
(-3.8) s
 639 2780 mt  670 2780 L
 368 2824 mt 
(-3.6) s
 639 2279 mt  670 2279 L
 368 2323 mt 
(-3.4) s
 639 1779 mt  670 1779 L
 368 1823 mt 
(-3.2) s
 639 1278 mt  670 1278 L
 468 1322 mt 
(-3) s
 639  777 mt  670  777 L
 368  821 mt 
(-2.8) s
 639  277 mt  670  277 L
 368  321 mt 
(-2.6) s
 639  223 mt 
(x 10) s
%%IncludeResource: font Helvetica
/Helvetica /ISOLatin1Encoding 80 FMSR

 865  149 mt 
(4) s
gs 639 277 3186 3005 rc
0 j
gs 727 417 3062 2666 rc
/c8 { 0.750000 0.000000 0.000000 sr} bdef
c8
  30   30 1080 1535 PO
gr

c8
gs 727 417 3062 2666 rc
/c9 { 0.812500 0.000000 0.000000 sr} bdef
c9
  30   30 1048 1454 PO
gr

c9
gs 727 417 3062 2666 rc
/c10 { 0.562500 0.000000 0.000000 sr} bdef
c10
  30   30 1599 2244 PO
gr

c10
gs 727 417 3062 2666 rc
/c11 { 0.875000 0.000000 0.000000 sr} bdef
c11
  30   30 1904 2430 PO
gr

c11
gs 727 417 3062 2666 rc
/c12 { 0.500000 0.000000 0.000000 sr} bdef
c12
  30   30 1440 2090 PO
gr

c12
gs 727 417 3062 2666 rc
  30   30 1490 2131 PO
gr

gs 727 417 3062 2666 rc
c10
  30   30 1164 1717 PO
gr

c10
gs 727 417 3062 2666 rc
  30   30 1696 2334 PO
gr

gs 727 417 3062 2666 rc
/c13 { 1.000000 0.062500 0.000000 sr} bdef
c13
  30   30 1400 2043 PO
gr

c13
gs 727 417 3062 2666 rc
/c14 { 0.687500 1.000000 0.312500 sr} bdef
c14
  30   30 1033 1388 PO
gr

c14
gs 727 417 3062 2666 rc
c12
  30   30 1507 2153 PO
gr

c12
gs 727 417 3062 2666 rc
/c15 { 1.000000 0.437500 0.000000 sr} bdef
c15
  30   30 2489 2804 PO
gr

c15
gs 727 417 3062 2666 rc
c12
  30   30 1256 1853 PO
gr

c12
gs 727 417 3062 2666 rc
/c16 { 0.937500 0.000000 0.000000 sr} bdef
c16
  30   30 1966 2470 PO
gr

c16
gs 727 417 3062 2666 rc
/c17 { 0.625000 0.000000 0.000000 sr} bdef
c17
  30   30 1131 1643 PO
gr

c17
gs 727 417 3062 2666 rc
c10
  30   30 1641 2294 PO
gr

c10
gs 727 417 3062 2666 rc
  30   30 1677 2327 PO
gr

gs 727 417 3062 2666 rc
c12
  30   30 1587 2239 PO
gr

c12
gs 727 417 3062 2666 rc
c17
  30   30 1149 1677 PO
gr

c17
gs 727 417 3062 2666 rc
c12
  30   30 1481 2124 PO
gr

c12
gs 727 417 3062 2666 rc
  30   30 1490 2131 PO
gr

gs 727 417 3062 2666 rc
c17
  30   30 1106 1609 PO
gr

c17
gs 727 417 3062 2666 rc
  30   30 1138 1652 PO
gr

gs 727 417 3062 2666 rc
c13
  30   30 2136 2581 PO
gr

c13
gs 727 417 3062 2666 rc
c12
  30   30 1553 2201 PO
gr

c12
gs 727 417 3062 2666 rc
  30   30 1468 2114 PO
gr

gs 727 417 3062 2666 rc
/c18 { 1.000000 0.125000 0.000000 sr} bdef
c18
  30   30 2157 2596 PO
gr

c18
gs 727 417 3062 2666 rc
/c19 { 0.750000 1.000000 0.250000 sr} bdef
c19
  30   30 2967 2921 PO
gr

c19
gs 727 417 3062 2666 rc
c12
  30   30 1435 2087 PO
gr

c12
gs 727 417 3062 2666 rc
  30   30 1435 2087 PO
gr

gs 727 417 3062 2666 rc
/c20 { 0.812500 1.000000 0.187500 sr} bdef
c20
  30   30 2958 2920 PO
gr

c20
gs 727 417 3062 2666 rc
c19
  30   30 2482 2799 PO
gr

c19
gs 727 417 3062 2666 rc
c11
  30   30 1015 1379 PO
gr

c11
gs 727 417 3062 2666 rc
c13
  30   30 2111 2552 PO
gr

c13
gs 727 417 3062 2666 rc
c8
  30   30 1067 1511 PO
gr

c8
gs 727 417 3062 2666 rc
c13
  30   30 2100 2543 PO
gr

c13
gs 727 417 3062 2666 rc
c10
  30   30 1243 1832 PO
gr

c10
gs 727 417 3062 2666 rc
c9
  30   30 1042 1444 PO
gr

c9
gs 727 417 3062 2666 rc
/c21 { 1.000000 0.812500 0.000000 sr} bdef
c21
  30   30 1546 2195 PO
gr

c21
gs 727 417 3062 2666 rc
/c22 { 1.000000 0.187500 0.000000 sr} bdef
c22
  30   30 2269 2667 PO
gr

c22
gs 727 417 3062 2666 rc
  30   30 2280 2693 PO
gr

gs 727 417 3062 2666 rc
c10
  30   30 1704 2360 PO
gr

c10
gs 727 417 3062 2666 rc
c8
  30   30 1520 2163 PO
gr

c8
gs 727 417 3062 2666 rc
/c23 { 0.562500 1.000000 0.437500 sr} bdef
c23
  30   30 3065 2926 PO
gr

c23
gs 727 417 3062 2666 rc
c10
  30   30 1658 2313 PO
gr

c10
gs 727 417 3062 2666 rc
c16
  30   30 2001 2488 PO
gr

c16
gs 727 417 3062 2666 rc
/c24 { 0.250000 1.000000 0.750000 sr} bdef
c24
  30   30 3246 2963 PO
gr

c24
gs 727 417 3062 2666 rc
c13
  30   30 2078 2531 PO
gr

c13
gs 727 417 3062 2666 rc
  30   30 2088 2536 PO
gr

gs 727 417 3062 2666 rc
c16
  30   30 1149 1682 PO
gr

c16
gs 727 417 3062 2666 rc
c24
  30   30 3233 2958 PO
gr

c24
gs 727 417 3062 2666 rc
c17
  30   30 1149 1682 PO
gr

c17
gs 727 417 3062 2666 rc
/c25 { 1.000000 0.562500 0.000000 sr} bdef
c25
  30   30 2090 2540 PO
gr

c25
gs 727 417 3062 2666 rc
/c26 { 0.687500 0.000000 0.000000 sr} bdef
c26
  30   30 1080 1548 PO
gr

c26
gs 727 417 3062 2666 rc
c16
  30   30 1002 1329 PO
gr

c16
gs 727 417 3062 2666 rc
c12
  30   30 1424 2079 PO
gr

c12
gs 727 417 3062 2666 rc
  30   30 1287 1897 PO
gr

gs 727 417 3062 2666 rc
c17
  30   30 1131 1643 PO
gr

c17
gs 727 417 3062 2666 rc
c10
  30   30 1658 2313 PO
gr

c10
gs 727 417 3062 2666 rc
c11
  30   30 1036 1399 PO
gr

c11
gs 727 417 3062 2666 rc
c15
  30   30 2115 2560 PO
gr

c15
gs 727 417 3062 2666 rc
c10
  30   30 1179 1732 PO
gr

c10
gs 727 417 3062 2666 rc
  30   30 1637 2283 PO
gr

gs 727 417 3062 2666 rc
c17
  30   30 1760 2389 PO
gr

c17
gs 727 417 3062 2666 rc
/c27 { 0.937500 1.000000 0.062500 sr} bdef
c27
  30   30 2846 2871 PO
gr

c27
gs 727 417 3062 2666 rc
c12
  30   30 1278 1886 PO
gr

c12
gs 727 417 3062 2666 rc
c9
  30   30 1449 2094 PO
gr

c9
gs 727 417 3062 2666 rc
c12
  30   30 1354 1997 PO
gr

c12
gs 727 417 3062 2666 rc
/c28 { 1.000000 0.375000 0.000000 sr} bdef
c28
  30   30 2415 2756 PO
gr

c28
gs 727 417 3062 2666 rc
c10
  30   30 1189 1752 PO
gr

c10
gs 727 417 3062 2666 rc
c12
  30   30 1363 2006 PO
gr

c12
gs 727 417 3062 2666 rc
c18
  30   30 2214 2633 PO
gr

c18
gs 727 417 3062 2666 rc
c10
  30   30 1186 1744 PO
gr

c10
gs 727 417 3062 2666 rc
c16
  30   30 1970 2470 PO
gr

c16
gs 727 417 3062 2666 rc
c13
  30   30 1291 1906 PO
gr

c13
gs 727 417 3062 2666 rc
c12
  30   30 1494 2135 PO
gr

c12
gs 727 417 3062 2666 rc
c10
  30   30 1186 1744 PO
gr

c10
gs 727 417 3062 2666 rc
/c29 { 1.000000 0.500000 0.000000 sr} bdef
c29
  30   30 1560 2210 PO
gr

c29
gs 727 417 3062 2666 rc
c12
  30   30 1331 1957 PO
gr

c12
gs 727 417 3062 2666 rc
c8
  30   30 1220 1803 PO
gr

c8
gs 727 417 3062 2666 rc
c9
  30   30 1343 1979 PO
gr

c9
gs 727 417 3062 2666 rc
c21
  30   30 1010 1340 PO
gr

c21
gs 727 417 3062 2666 rc
c13
  30   30 2070 2519 PO
gr

c13
gs 727 417 3062 2666 rc
  30   30 2128 2572 PO
gr

gs 727 417 3062 2666 rc
c12
  30   30 1244 1839 PO
gr

c12
gs 727 417 3062 2666 rc
/c30 { 1.000000 0.000000 0.000000 sr} bdef
c30
  30   30 2012 2493 PO
gr

c30
gs 727 417 3062 2666 rc
c18
  30   30 1470 2120 PO
gr

c18
gs 727 417 3062 2666 rc
c12
  30   30 1587 2239 PO
gr

c12
gs 727 417 3062 2666 rc
  30   30 1238 1831 PO
gr

gs 727 417 3062 2666 rc
c20
  30   30 2958 2920 PO
gr

c20
gs 727 417 3062 2666 rc
c12
  30   30 1553 2201 PO
gr

c12
gs 727 417 3062 2666 rc
c17
  30   30 1149 1677 PO
gr

c17
gs 727 417 3062 2666 rc
c10
  30   30 1208 1782 PO
gr

c10
gs 727 417 3062 2666 rc
/c31 { 1.000000 0.312500 0.000000 sr} bdef
c31
  30   30 1097 1573 PO
gr

c31
gs 727 417 3062 2666 rc
c10
  30   30 1599 2244 PO
gr

c10
gs 727 417 3062 2666 rc
c18
  30   30 2179 2603 PO
gr

c18
gs 727 417 3062 2666 rc
c10
  30   30 1235 1824 PO
gr

c10
gs 727 417 3062 2666 rc
c8
  30   30 1080 1535 PO
gr

c8
gs 727 417 3062 2666 rc
  30   30 1859 2427 PO
gr

gs 727 417 3062 2666 rc
c10
  30   30 1235 1824 PO
gr

c10
gs 727 417 3062 2666 rc
c12
  30   30 1531 2175 PO
gr

c12
gs 727 417 3062 2666 rc
c13
  30   30 2145 2586 PO
gr

c13
gs 727 417 3062 2666 rc
  30   30 2122 2562 PO
gr

gs 727 417 3062 2666 rc
c11
  30   30 1537 2185 PO
gr

c11
gs 727 417 3062 2666 rc
c12
  30   30 1575 2224 PO
gr

c12
gs 727 417 3062 2666 rc
c18
  30   30 2193 2619 PO
gr

c18
gs 727 417 3062 2666 rc
c17
  30   30 1138 1652 PO
gr

c17
gs 727 417 3062 2666 rc
/c32 { 0.000000 0.437500 1.000000 sr} bdef
c32
  30   30 3168 2946 PO
gr

c32
gs 727 417 3062 2666 rc
c28
  30   30 2415 2756 PO
gr

c28
gs 727 417 3062 2666 rc
c12
  30   30 1316 1936 PO
gr

c12
gs 727 417 3062 2666 rc
c10
  30   30 1179 1732 PO
gr

c10
gs 727 417 3062 2666 rc
c17
  30   30 1142 1662 PO
gr

c17
gs 727 417 3062 2666 rc
c18
  30   30 2179 2603 PO
gr

c18
gs 727 417 3062 2666 rc
c10
  30   30 1648 2303 PO
gr

c10
gs 727 417 3062 2666 rc
/c33 { 0.062500 1.000000 0.937500 sr} bdef
c33
  30   30 2128 2572 PO
gr

c33
gs 727 417 3062 2666 rc
c10
  30   30 1610 2261 PO
gr

c10
gs 727 417 3062 2666 rc
  30   30 1226 1811 PO
gr

gs 727 417 3062 2666 rc
c26
  30   30 1126 1627 PO
gr

c26
gs 727 417 3062 2666 rc
c12
  30   30 1349 1985 PO
gr

c12
gs 727 417 3062 2666 rc
  30   30 1274 1881 PO
gr

gs 727 417 3062 2666 rc
c8
  30   30 1067 1511 PO
gr

c8
gs 727 417 3062 2666 rc
c16
  30   30 1970 2470 PO
gr

c16
gs 727 417 3062 2666 rc
c12
  30   30 1404 2056 PO
gr

c12
gs 727 417 3062 2666 rc
c18
  30   30 2171 2597 PO
gr

c18
gs 727 417 3062 2666 rc
c30
  30   30 2012 2493 PO
gr

c30
gs 727 417 3062 2666 rc
c12
  30   30 1388 2024 PO
gr

c12
gs 727 417 3062 2666 rc
c13
  30   30 2111 2552 PO
gr

c13
gs 727 417 3062 2666 rc
c22
  30   30 2247 2653 PO
gr

c22
gs 727 417 3062 2666 rc
c12
  30   30 1299 1910 PO
gr

c12
gs 727 417 3062 2666 rc
c22
  30   30  954 1209 PO
gr

c22
gs 727 417 3062 2666 rc
c10
  30   30 1226 1811 PO
gr

c10
gs 727 417 3062 2666 rc
  30   30 1673 2318 PO
gr

gs 727 417 3062 2666 rc
c12
  30   30 1460 2107 PO
gr

c12
gs 727 417 3062 2666 rc
c10
  30   30 1189 1752 PO
gr

c10
gs 727 417 3062 2666 rc
c12
  30   30 1272 1875 PO
gr

c12
gs 727 417 3062 2666 rc
/c34 { 1.000000 1.000000 0.000000 sr} bdef
c34
  30   30 2136 2581 PO
gr

c34
gs 727 417 3062 2666 rc
c10
  30   30 1663 2316 PO
gr

c10
gs 727 417 3062 2666 rc
/c35 { 1.000000 0.750000 0.000000 sr} bdef
c35
  30   30 1610 2261 PO
gr

c35
gs 727 417 3062 2666 rc
c12
  30   30 1256 1853 PO
gr

c12
gs 727 417 3062 2666 rc
c10
  30   30 1641 2294 PO
gr

c10
gs 727 417 3062 2666 rc
c12
  30   30 1481 2124 PO
gr

c12
gs 727 417 3062 2666 rc
c10
  30   30 1648 2303 PO
gr

c10
gs 727 417 3062 2666 rc
c12
  30   30 1579 2235 PO
gr

c12
gs 727 417 3062 2666 rc
c17
  30   30 1751 2370 PO
gr

c17
gs 727 417 3062 2666 rc
c13
  30   30 2145 2586 PO
gr

c13
gs 727 417 3062 2666 rc
c16
  30   30 1986 2484 PO
gr

c16
gs 727 417 3062 2666 rc
c17
  30   30 1142 1662 PO
gr

c17
gs 727 417 3062 2666 rc
c31
  30   30 2356 2720 PO
gr

c31
gs 727 417 3062 2666 rc
c10
  30   30 1696 2334 PO
gr

c10
gs 727 417 3062 2666 rc
c8
  30   30 1158 1695 PO
gr

c8
gs 727 417 3062 2666 rc
c12
  30   30 1575 2224 PO
gr

c12
gs 727 417 3062 2666 rc
c10
  30   30 1605 2249 PO
gr

c10
gs 727 417 3062 2666 rc
c12
  30   30 1369 2007 PO
gr

c12
gs 727 417 3062 2666 rc
c18
  30   30 2191 2611 PO
gr

c18
gs 727 417 3062 2666 rc
/c36 { 0.375000 1.000000 0.625000 sr} bdef
c36
  30   30 2862 2882 PO
gr

c36
gs 727 417 3062 2666 rc
c13
  30   30 2100 2543 PO
gr

c13
gs 727 417 3062 2666 rc
c17
  30   30 1424 2079 PO
gr

c17
gs 727 417 3062 2666 rc
c20
  30   30 2942 2916 PO
gr

c20
gs 727 417 3062 2666 rc
c16
  30   30 2001 2488 PO
gr

c16
gs 727 417 3062 2666 rc
c12
  30   30 1343 1969 PO
gr

c12
gs 727 417 3062 2666 rc
  30   30 1544 2189 PO
gr

gs 727 417 3062 2666 rc
c26
  30   30 1080 1548 PO
gr

c26
gs 727 417 3062 2666 rc
  30   30 1087 1561 PO
gr

gs 727 417 3062 2666 rc
c24
  30   30 3247 2965 PO
gr

c24
gs 727 417 3062 2666 rc
c12
  30   30 1418 2070 PO
gr

c12
gs 727 417 3062 2666 rc
c13
  30   30  945 1195 PO
gr

c13
gs 727 417 3062 2666 rc
c8
  30   30 1077 1525 PO
gr

c8
gs 727 417 3062 2666 rc
c15
  30   30 1460 2107 PO
gr

c15
gs 727 417 3062 2666 rc
c10
  30   30 1218 1793 PO
gr

c10
gs 727 417 3062 2666 rc
c31
  30   30 2363 2728 PO
gr

c31
gs 727 417 3062 2666 rc
c17
  30   30 1371 2018 PO
gr

c17
gs 727 417 3062 2666 rc
c12
  30   30 1315 1931 PO
gr

c12
gs 727 417 3062 2666 rc
  30   30 1520 2163 PO
gr

gs 727 417 3062 2666 rc
c13
  30   30 2074 2527 PO
gr

c13
gs 727 417 3062 2666 rc
c12
  30   30 1281 1896 PO
gr

c12
gs 727 417 3062 2666 rc
c26
  30   30 1354 1997 PO
gr

c26
gs 727 417 3062 2666 rc
/c37 { 1.000000 0.250000 0.000000 sr} bdef
c37
  30   30 1316 1946 PO
gr

c37
gs 727 417 3062 2666 rc
c11
  30   30 1333 1968 PO
gr

c11
gs 727 417 3062 2666 rc
c18
  30   30 2214 2633 PO
gr

c18
gs 727 417 3062 2666 rc
c22
  30   30  937 1121 PO
gr

c22
gs 727 417 3062 2666 rc
c26
  30   30 1100 1588 PO
gr

c26
gs 727 417 3062 2666 rc
/c38 { 0.000000 0.875000 1.000000 sr} bdef
c38
  30   30 3428 2990 PO
gr

c38
gs 727 417 3062 2666 rc
c12
  30   30 1381 2020 PO
gr

c12
gs 727 417 3062 2666 rc
c10
  30   30 1196 1767 PO
gr

c10
gs 727 417 3062 2666 rc
  30   30 1217 1787 PO
gr

gs 727 417 3062 2666 rc
c16
  30   30 1002 1329 PO
gr

c16
gs 727 417 3062 2666 rc
  30   30  999 1316 PO
gr

gs 727 417 3062 2666 rc
c17
  30   30 1177 1723 PO
gr

c17
gs 727 417 3062 2666 rc
c15
  30   30 2497 2805 PO
gr

c15
gs 727 417 3062 2666 rc
c12
  30   30 1449 2094 PO
gr

c12
gs 727 417 3062 2666 rc
c17
  30   30 1128 1636 PO
gr

c17
gs 727 417 3062 2666 rc
c11
  30   30 1036 1399 PO
gr

c11
gs 727 417 3062 2666 rc
c30
  30   30 1904 2430 PO
gr

c30
gs 727 417 3062 2666 rc
c15
  30   30  906  949 PO
gr

c15
gs 727 417 3062 2666 rc
c17
  30   30 1120 1626 PO
gr

c17
gs 727 417 3062 2666 rc
c18
  30   30 2157 2596 PO
gr

c18
gs 727 417 3062 2666 rc
c13
  30   30 1087 1561 PO
gr

c13
gs 727 417 3062 2666 rc
c16
  30   30 1039 1417 PO
gr

c16
gs 727 417 3062 2666 rc
c12
  30   30 1506 2142 PO
gr

c12
gs 727 417 3062 2666 rc
  30   30 1418 2070 PO
gr

gs 727 417 3062 2666 rc
  30   30 1523 2171 PO
gr

gs 727 417 3062 2666 rc
  30   30 1300 1915 PO
gr

gs 727 417 3062 2666 rc
c23
  30   30 3075 2928 PO
gr

c23
gs 727 417 3062 2666 rc
c8
  30   30 1075 1520 PO
gr

c8
gs 727 417 3062 2666 rc
c13
  30   30  954 1209 PO
gr

c13
gs 727 417 3062 2666 rc
c16
  30   30 1208 1782 PO
gr

c16
gs 727 417 3062 2666 rc
c12
  30   30 1507 2153 PO
gr

c12
gs 727 417 3062 2666 rc
c31
  30   30 2441 2793 PO
gr

c31
gs 727 417 3062 2666 rc
c22
  30   30 2229 2643 PO
gr

c22
gs 727 417 3062 2666 rc
c13
  30   30  959 1223 PO
gr

c13
gs 727 417 3062 2666 rc
c26
  30   30 1097 1573 PO
gr

c26
gs 727 417 3062 2666 rc
c10
  30   30 1634 2277 PO
gr

c10
gs 727 417 3062 2666 rc
c30
  30   30 2047 2514 PO
gr

c30
gs 727 417 3062 2666 rc
c18
  30   30 2215 2635 PO
gr

c18
gs 727 417 3062 2666 rc
c26
  30   30 1100 1588 PO
gr

c26
gs 727 417 3062 2666 rc
c31
  30   30 2386 2743 PO
gr

c31
gs 727 417 3062 2666 rc
c27
  30   30 2862 2882 PO
gr

c27
gs 727 417 3062 2666 rc
c22
  30   30 2229 2643 PO
gr

c22
gs 727 417 3062 2666 rc
c19
  30   30 2255 2664 PO
gr

c19
gs 727 417 3062 2666 rc
c34
  30   30 2794 2864 PO
gr

c34
gs 727 417 3062 2666 rc
c20
  30   30 2942 2916 PO
gr

c20
gs 727 417 3062 2666 rc
c24
  30   30 3261 2969 PO
gr

c24
gs 727 417 3062 2666 rc
/c39 { 1.000000 0.875000 0.000000 sr} bdef
c39
  30   30 2776 2858 PO
gr

c39
gs 727 417 3062 2666 rc
/c40 { 1.000000 0.625000 0.000000 sr} bdef
c40
  30   30  939 1139 PO
gr

c40
gs 727 417 3062 2666 rc
c12
  30   30 1400 2043 PO
gr

c12
gs 727 417 3062 2666 rc
c40
  30   30 2386 2743 PO
gr

c40
gs 727 417 3062 2666 rc
c12
  30   30 1326 1956 PO
gr

c12
gs 727 417 3062 2666 rc
c30
  30   30 2024 2500 PO
gr

c30
gs 727 417 3062 2666 rc
c13
  30   30 2062 2517 PO
gr

c13
gs 727 417 3062 2666 rc
c15
  30   30  891  937 PO
gr

c15
gs 727 417 3062 2666 rc
c31
  30   30  934 1039 PO
gr

c31
gs 727 417 3062 2666 rc
c10
  30   30 1252 1845 PO
gr

c10
gs 727 417 3062 2666 rc
c28
  30   30  924 1016 PO
gr

c28
gs 727 417 3062 2666 rc
c10
  30   30 1196 1767 PO
gr

c10
gs 727 417 3062 2666 rc
c15
  30   30  906  949 PO
gr

c15
gs 727 417 3062 2666 rc
c12
  30   30 1259 1868 PO
gr

c12
gs 727 417 3062 2666 rc
c10
  30   30 1677 2327 PO
gr

c10
gs 727 417 3062 2666 rc
c27
  30   30 2870 2891 PO
gr

c27
gs 727 417 3062 2666 rc
c15
  30   30 2497 2805 PO
gr

c15
gs 727 417 3062 2666 rc
c20
  30   30 2926 2906 PO
gr

c20
gs 727 417 3062 2666 rc
c17
  30   30 1404 2056 PO
gr

c17
gs 727 417 3062 2666 rc
c29
  30   30 2524 2819 PO
gr

c29
gs 727 417 3062 2666 rc
c22
  30   30 2247 2653 PO
gr

c22
gs 727 417 3062 2666 rc
c18
  30   30 2193 2619 PO
gr

c18
gs 727 417 3062 2666 rc
c10
  30   30 1567 2211 PO
gr

c10
gs 727 417 3062 2666 rc
c31
  30   30 2352 2720 PO
gr

c31
gs 727 417 3062 2666 rc
c30
  30   30 2047 2514 PO
gr

c30
gs 727 417 3062 2666 rc
c15
  30   30 1986 2484 PO
gr

c15
gs 727 417 3062 2666 rc
/c41 { 0.625000 1.000000 0.375000 sr} bdef
c41
  30   30 3083 2932 PO
gr

c41
gs 727 417 3062 2666 rc
c11
  30   30 1033 1388 PO
gr

c11
gs 727 417 3062 2666 rc
/c42 { 0.875000 1.000000 0.125000 sr} bdef
c42
  30   30 2889 2894 PO
gr

c42
gs 727 417 3062 2666 rc
c30
  30   30 2024 2500 PO
gr

c30
gs 727 417 3062 2666 rc
c9
  30   30 1048 1454 PO
gr

c9
gs 727 417 3062 2666 rc
c29
  30   30 1106 1609 PO
gr

c29
gs 727 417 3062 2666 rc
c11
  30   30 1039 1417 PO
gr

c11
gs 727 417 3062 2666 rc
c12
  30   30 1303 1928 PO
gr

c12
gs 727 417 3062 2666 rc
c31
  30   30 2422 2770 PO
gr

c31
gs 727 417 3062 2666 rc
c30
  30   30  969 1250 PO
gr

c30
gs 727 417 3062 2666 rc
c17
  30   30 1158 1695 PO
gr

c17
gs 727 417 3062 2666 rc
c8
  30   30 1050 1477 PO
gr

c8
gs 727 417 3062 2666 rc
c29
  30   30 2422 2770 PO
gr

c29
gs 727 417 3062 2666 rc
c26
  30   30 1116 1615 PO
gr

c26
gs 727 417 3062 2666 rc
c12
  30   30 1388 2035 PO
gr

c12
gs 727 417 3062 2666 rc
c28
  30   30 2413 2748 PO
gr

c28
gs 727 417 3062 2666 rc
/c43 { 0.000000 0.000000 0.562500 sr} bdef
c43
  30   30 3405 2980 PO
gr

c43
gs 727 417 3062 2666 rc
c13
  30   30  959 1223 PO
gr

c13
gs 727 417 3062 2666 rc
c40
  30   30 2366 2742 PO
gr

c40
gs 727 417 3062 2666 rc
c9
  30   30 1042 1444 PO
gr

c9
gs 727 417 3062 2666 rc
c22
  30   30 1812 2395 PO
gr

c22
gs 727 417 3062 2666 rc
c10
  30   30 1700 2336 PO
gr

c10
gs 727 417 3062 2666 rc
/c44 { 0.000000 0.750000 1.000000 sr} bdef
c44
  30   30 3493 2991 PO
gr

c44
gs 727 417 3062 2666 rc
c9
  30   30 1842 2414 PO
gr

c9
gs 727 417 3062 2666 rc
c11
  30   30 1164 1717 PO
gr

c11
gs 727 417 3062 2666 rc
c16
  30   30  990 1315 PO
gr

c16
gs 727 417 3062 2666 rc
c8
  30   30 1059 1506 PO
gr

c8
gs 727 417 3062 2666 rc
c16
  30   30 1966 2470 PO
gr

c16
gs 727 417 3062 2666 rc
c30
  30   30  982 1289 PO
gr

c30
gs 727 417 3062 2666 rc
/c45 { 1.000000 0.937500 0.000000 sr} bdef
c45
  30   30 2776 2858 PO
gr

c45
gs 727 417 3062 2666 rc
c42
  30   30 2889 2894 PO
gr

c42
gs 727 417 3062 2666 rc
/c46 { 0.500000 1.000000 0.500000 sr} bdef
c46
  30   30 3111 2934 PO
gr

c46
gs 727 417 3062 2666 rc
c9
  30   30 1057 1479 PO
gr

c9
gs 727 417 3062 2666 rc
c11
  30   30 1899 2428 PO
gr

c11
gs 727 417 3062 2666 rc
c12
  30   30 1615 2274 PO
gr

c12
gs 727 417 3062 2666 rc
c22
  30   30 2269 2667 PO
gr

c22
gs 727 417 3062 2666 rc
c39
  30   30 2742 2851 PO
gr

c39
gs 727 417 3062 2666 rc
c8
  30   30 1842 2414 PO
gr

c8
gs 727 417 3062 2666 rc
c15
  30   30 2482 2799 PO
gr

c15
gs 727 417 3062 2666 rc
c20
  30   30 2926 2906 PO
gr

c20
gs 727 417 3062 2666 rc
c11
  30   30 1926 2436 PO
gr

c11
gs 727 417 3062 2666 rc
c25
  30   30  878  839 PO
gr

c25
gs 727 417 3062 2666 rc
c40
  30   30 2624 2841 PO
gr

c40
gs 727 417 3062 2666 rc
c25
  30   30 2573 2821 PO
gr

c25
gs 727 417 3062 2666 rc
c30
  30   30  969 1250 PO
gr

c30
gs 727 417 3062 2666 rc
c25
  30   30  971 1288 PO
gr

c25
gs 727 417 3062 2666 rc
c16
  30   30 1010 1340 PO
gr

c16
gs 727 417 3062 2666 rc
c45
  30   30 2799 2871 PO
gr

c45
gs 727 417 3062 2666 rc
c29
  30   30 2322 2717 PO
gr

c29
gs 727 417 3062 2666 rc
c8
  30   30 1859 2427 PO
gr

c8
gs 727 417 3062 2666 rc
c27
  30   30 2846 2871 PO
gr

c27
gs 727 417 3062 2666 rc
/c47 { 0.437500 1.000000 0.562500 sr} bdef
c47
  30   30 3111 2934 PO
gr

c47
gs 727 417 3062 2666 rc
c35
  30   30 2676 2842 PO
gr

c35
gs 727 417 3062 2666 rc
c37
  30   30 2319 2696 PO
gr

c37
gs 727 417 3062 2666 rc
c11
  30   30 1015 1379 PO
gr

c11
gs 727 417 3062 2666 rc
c29
  30   30 2524 2819 PO
gr

c29
gs 727 417 3062 2666 rc
/c48 { 0.000000 0.687500 1.000000 sr} bdef
c48
  30   30 3531 2993 PO
gr

c48
gs 727 417 3062 2666 rc
c24
  30   30 3233 2958 PO
gr

c24
gs 727 417 3062 2666 rc
c22
  30   30  939 1139 PO
gr

c22
gs 727 417 3062 2666 rc
c35
  30   30 2676 2842 PO
gr

c35
gs 727 417 3062 2666 rc
c44
  30   30 3493 2991 PO
gr

c44
gs 727 417 3062 2666 rc
c23
  30   30 2441 2793 PO
gr

c23
gs 727 417 3062 2666 rc
c25
  30   30 1927 2462 PO
gr

c25
gs 727 417 3062 2666 rc
c36
  30   30 3168 2946 PO
gr

c36
gs 727 417 3062 2666 rc
c28
  30   30 2280 2693 PO
gr

c28
gs 727 417 3062 2666 rc
c17
  30   30 1751 2370 PO
gr

c17
gs 727 417 3062 2666 rc
/c49 { 0.000000 0.500000 1.000000 sr} bdef
c49
  30   30 3173 2956 PO
gr

c49
gs 727 417 3062 2666 rc
c25
  30   30 2573 2821 PO
gr

c25
gs 727 417 3062 2666 rc
c8
  30   30 1812 2395 PO
gr

c8
gs 727 417 3062 2666 rc
c13
  30   30  945 1195 PO
gr

c13
gs 727 417 3062 2666 rc
c39
  30   30 2742 2851 PO
gr

c39
gs 727 417 3062 2666 rc
c30
  30   30 1760 2389 PO
gr

c30
gs 727 417 3062 2666 rc
c39
  30   30 2624 2841 PO
gr

c39
gs 727 417 3062 2666 rc
c11
  30   30 1704 2360 PO
gr

c11
gs 727 417 3062 2666 rc
/c50 { 0.000000 0.000000 0.812500 sr} bdef
c50
  30   30 3428 2990 PO
gr

c50
gs 727 417 3062 2666 rc
c28
  30   30  924 1016 PO
gr

c28
gs 727 417 3062 2666 rc
c15
  30   30  921  957 PO
gr

c15
gs 727 417 3062 2666 rc
c40
  30   30  937 1121 PO
gr

c40
gs 727 417 3062 2666 rc
/c51 { 0.000000 0.937500 1.000000 sr} bdef
c51
  30   30 2967 2921 PO
gr

c51
gs 727 417 3062 2666 rc
c23
  30   30 3065 2926 PO
gr

c23
gs 727 417 3062 2666 rc
c25
  30   30  854  806 PO
gr

c25
gs 727 417 3062 2666 rc
c31
  30   30  934 1039 PO
gr

c31
gs 727 417 3062 2666 rc
c15
  30   30  891  937 PO
gr

c15
gs 727 417 3062 2666 rc
c25
  30   30  878  839 PO
gr

c25
gs 727 417 3062 2666 rc
c24
  30   30 3261 2969 PO
gr

c24
gs 727 417 3062 2666 rc
c51
  30   30 3405 2980 PO
gr

c51
gs 727 417 3062 2666 rc
c49
  30   30 3537 3017 PO
gr

c49
gs 727 417 3062 2666 rc
c25
  30   30  854  806 PO
gr

c25
gs 727 417 3062 2666 rc
/c52 { 0.000000 0.312500 1.000000 sr} bdef
c52
  30   30 3727 3021 PO
gr

c52
gs 727 417 3062 2666 rc
c47
  30   30  788  478 PO
gr

c47
gs 727 417 3062 2666 rc
c27
  30   30  788  478 PO
gr

c27
gs 727 417 3062 2666 rc
c52
  30   30 3727 3021 PO
gr

c52
gr

c52
0 sg
%%IncludeResource: font Helvetica
/Helvetica /ISOLatin1Encoding 120 FMSR

2097 3569 mt 
(Time) s
 286 1920 mt  -90 rotate
(Profit) s
90 rotate
1187  182 mt 
(eil51_n250_bounded-strongly-corr_01) s
 622 3324 mt 
( ) s
3808  319 mt 
( ) s
%%IncludeResource: font Symbol
/Symbol /ISOLatin1Encoding 120 FMSR

1381 2052 mt 
(\254) s
%%IncludeResource: font Helvetica
/Helvetica /ISOLatin1Encoding 120 FMSR

1499 2052 mt 
( EMO \(10976\)) s
gs 639 277 3186 3005 rc
0 j
gs 1363 2003 123 123 rc
30 39 -30 39 -30 -39 30 -39 1424 2103 5 MP
c12
PP
gr

c12
gr

c12
0 sg
%%IncludeResource: font Symbol
/Symbol /ISOLatin1Encoding 120 FMSR

1460 2137 mt 
(\254) s
%%IncludeResource: font Helvetica
/Helvetica /ISOLatin1Encoding 120 FMSR

1578 2137 mt 
( S5 \(10912\)) s
gs 639 277 3186 3005 rc
0 j
gs 1470 2108 123 123 rc
0 -48 -48 0 0 48 48 0 1507 2145 5 MP
c10
PP
gr

c10
gr

c10
0 sg
%%IncludeResource: font Symbol
/Symbol /ISOLatin1Encoding 120 FMSR

1518 2231 mt 
(\254) s
%%IncludeResource: font Helvetica
/Helvetica /ISOLatin1Encoding 120 FMSR

1636 2231 mt 
( MA2B \(10830\)) s
1 sg
0 3005 241 0 0 -3005 4004 3282 4 MP
PP
-241 0 0 3005 241 0 0 -3005 4004 3282 5 MP stroke
gs 4004 277 242 3006 rc
/mwscm { [/Indexed /DeviceRGB 63
  <
    00008f 00009f 0000af 0000bf 0000cf 0000df 0000ef 0000ff 000fff 001fff 
    002fff 003fff 004fff 005fff 006fff 007fff 008fff 009fff 00afff 00bfff 
    00cfff 00dfff 00efff 00ffff 0fffef 1fffdf 2fffcf 3fffbf 4fffaf 5fff9f 
    6fff8f 7fff7f 8fff6f 9fff5f afff4f bfff3f cfff2f dfff1f efff0f ffff00 
    ffef00 ffdf00 ffcf00 ffbf00 ffaf00 ff9f00 ff8f00 ff7f00 ff6f00 ff5f00 
    ff4f00 ff3f00 ff2f00 ff1f00 ff0f00 ff0000 ef0000 df0000 cf0000 bf0000 
    af0000 9f0000 8f0000 7f0000 
  >
] setcolorspace } bdef mwscm
gs np 4004 277 mt 0 3005 rl 241 0 rl 0 -3005 rl cp c np
[241 0 0 3005 4004 277] cc
<< % Image dictionary
  /ImageType 1
  /Width 1 /Height 64
  /BitsPerComponent 8
  /Decode [0 255]
  /ImageMatrix [1.000000 0 0 64.000000 0 0]
  /DataSource currentfile
  /ASCII85Decode filter
  /RunLengthDecode filter
>>
image
5<h=p4?GSa3&``Q1c$mA0J>%1/1W2!-mp>f,U4KV+<MXF*#fe6(`*r&'GD)k&.]6[$k!CK#R:P;"9S]+
!.Y
~>
gr
gr

0 sg
4753 2067 mt  -90 rotate
(TTP Score) s
90 rotate
4 w
DO
SO
6 w
4004 3282 mt 4245 3282 L
4004  277 mt 4245  277 L
4004 3282 mt 4004  277 L
4245 3282 mt 4245  277 L
4004 3282 mt 4245 3282 L
4245 3282 mt 4245  277 L
4245 3038 mt 4214 3038 L
4004 3038 mt 4034 3038 L
4279 3082 mt 
(3000) s
4245 2692 mt 4214 2692 L
4004 2692 mt 4034 2692 L
4279 2736 mt 
(4000) s
4245 2345 mt 4214 2345 L
4004 2345 mt 4034 2345 L
4279 2389 mt 
(5000) s
4245 1999 mt 4214 1999 L
4004 1999 mt 4034 1999 L
4279 2043 mt 
(6000) s
4245 1653 mt 4214 1653 L
4004 1653 mt 4034 1653 L
4279 1697 mt 
(7000) s
4245 1307 mt 4214 1307 L
4004 1307 mt 4034 1307 L
4279 1351 mt 
(8000) s
4245  961 mt 4214  961 L
4004  961 mt 4034  961 L
4279 1005 mt 
(9000) s
4245  614 mt 4214  614 L
4004  614 mt 4034  614 L
4279  658 mt 
(10000) s
4004 3282 mt 4245 3282 L
4004  277 mt 4245  277 L
4004 3282 mt 4004  277 L
4245 3282 mt 4245  277 L

end %%Color Dict

eplot
%%EndObject

epage
end

showpage

%%Trailer
%%EOF
