%!PS-Adobe-3.0 EPSF-3.0
%%Creator: MATLAB, The MathWorks, Inc. Version 8.1.0.604 (R2013a). Operating System: Linux 3.14.27-100.fc19.x86_64 #1 SMP Wed Dec 17 19:36:34 UTC 2014 x86_64.
%%Title: /home/kyu/Documents/PHD/codes/mottp/results/kroA100.eps
%%CreationDate: 01/22/2017  01:03:13
%%DocumentNeededFonts: Helvetica
%%DocumentProcessColors: Cyan Magenta Yellow Black
%%LanguageLevel: 2
%%Pages: 1
%%BoundingBox:   100   241   509   549
%%EndComments

%%BeginProlog
% MathWorks dictionary
/MathWorks 160 dict begin
% definition operators
/bdef {bind def} bind def
/ldef {load def} bind def
/xdef {exch def} bdef
/xstore {exch store} bdef
% operator abbreviations
/c  /clip ldef
/cc /concat ldef
/cp /closepath ldef
/gr /grestore ldef
/gs /gsave ldef
/mt /moveto ldef
/np /newpath ldef
/cm /currentmatrix ldef
/sm /setmatrix ldef
/rm /rmoveto ldef
/rl /rlineto ldef
/s {show newpath} bdef
/sc {setcmykcolor} bdef
/sr /setrgbcolor ldef
/sg /setgray ldef
/w /setlinewidth ldef
/j /setlinejoin ldef
/cap /setlinecap ldef
/rc {rectclip} bdef
/rf {rectfill} bdef
% page state control
/pgsv () def
/bpage {/pgsv save def} bdef
/epage {pgsv restore} bdef
/bplot /gsave ldef
/eplot {stroke grestore} bdef
% orientation switch
/portraitMode 0 def /landscapeMode 1 def /rotateMode 2 def
% coordinate system mappings
/dpi2point 0 def
% font control
/FontSize 0 def
/FMS {/FontSize xstore findfont [FontSize 0 0 FontSize neg 0 0]
  makefont setfont} bdef
/reencode {exch dup where {pop load} {pop StandardEncoding} ifelse
  exch dup 3 1 roll findfont dup length dict begin
  { 1 index /FID ne {def}{pop pop} ifelse } forall
  /Encoding exch def currentdict end definefont pop} bdef
/isroman {findfont /CharStrings get /Agrave known} bdef
/FMSR {3 1 roll 1 index dup isroman {reencode} {pop pop} ifelse
  exch FMS} bdef
/csm {1 dpi2point div -1 dpi2point div scale neg translate
 dup landscapeMode eq {pop -90 rotate}
  {rotateMode eq {90 rotate} if} ifelse} bdef
% line types: solid, dotted, dashed, dotdash
/SO { [] 0 setdash } bdef
/DO { [.5 dpi2point mul 4 dpi2point mul] 0 setdash } bdef
/DA { [6 dpi2point mul] 0 setdash } bdef
/DD { [.5 dpi2point mul 4 dpi2point mul 6 dpi2point mul 4
  dpi2point mul] 0 setdash } bdef
% macros for lines and objects
/L {lineto stroke} bdef
/MP {3 1 roll moveto 1 sub {rlineto} repeat} bdef
/AP {{rlineto} repeat} bdef
/PDlw -1 def
/W {/PDlw currentlinewidth def setlinewidth} def
/PP {closepath eofill} bdef
/DP {closepath stroke} bdef
/MR {4 -2 roll moveto dup  0 exch rlineto exch 0 rlineto
  neg 0 exch rlineto closepath} bdef
/FR {MR stroke} bdef
/PR {MR fill} bdef
/L1i {{currentfile picstr readhexstring pop} image} bdef
/tMatrix matrix def
/MakeOval {newpath tMatrix currentmatrix pop translate scale
0 0 1 0 360 arc tMatrix setmatrix} bdef
/FO {MakeOval stroke} bdef
/PO {MakeOval fill} bdef
/PD {currentlinewidth 2 div 0 360 arc fill
   PDlw -1 eq not {PDlw w /PDlw -1 def} if} def
/FA {newpath tMatrix currentmatrix pop translate scale
  0 0 1 5 -2 roll arc tMatrix setmatrix stroke} bdef
/PA {newpath tMatrix currentmatrix pop	translate 0 0 moveto scale
  0 0 1 5 -2 roll arc closepath tMatrix setmatrix fill} bdef
/FAn {newpath tMatrix currentmatrix pop translate scale
  0 0 1 5 -2 roll arcn tMatrix setmatrix stroke} bdef
/PAn {newpath tMatrix currentmatrix pop translate 0 0 moveto scale
  0 0 1 5 -2 roll arcn closepath tMatrix setmatrix fill} bdef
/vradius 0 def /hradius 0 def /lry 0 def
/lrx 0 def /uly 0 def /ulx 0 def /rad 0 def
/MRR {/vradius xdef /hradius xdef /lry xdef /lrx xdef /uly xdef
  /ulx xdef newpath tMatrix currentmatrix pop ulx hradius add uly
  vradius add translate hradius vradius scale 0 0 1 180 270 arc 
  tMatrix setmatrix lrx hradius sub uly vradius add translate
  hradius vradius scale 0 0 1 270 360 arc tMatrix setmatrix
  lrx hradius sub lry vradius sub translate hradius vradius scale
  0 0 1 0 90 arc tMatrix setmatrix ulx hradius add lry vradius sub
  translate hradius vradius scale 0 0 1 90 180 arc tMatrix setmatrix
  closepath} bdef
/FRR {MRR stroke } bdef
/PRR {MRR fill } bdef
/MlrRR {/lry xdef /lrx xdef /uly xdef /ulx xdef /rad lry uly sub 2 div def
  newpath tMatrix currentmatrix pop ulx rad add uly rad add translate
  rad rad scale 0 0 1 90 270 arc tMatrix setmatrix lrx rad sub lry rad
  sub translate rad rad scale 0 0 1 270 90 arc tMatrix setmatrix
  closepath} bdef
/FlrRR {MlrRR stroke } bdef
/PlrRR {MlrRR fill } bdef
/MtbRR {/lry xdef /lrx xdef /uly xdef /ulx xdef /rad lrx ulx sub 2 div def
  newpath tMatrix currentmatrix pop ulx rad add uly rad add translate
  rad rad scale 0 0 1 180 360 arc tMatrix setmatrix lrx rad sub lry rad
  sub translate rad rad scale 0 0 1 0 180 arc tMatrix setmatrix
  closepath} bdef
/FtbRR {MtbRR stroke } bdef
/PtbRR {MtbRR fill } bdef
/stri 6 array def /dtri 6 array def
/smat 6 array def /dmat 6 array def
/tmat1 6 array def /tmat2 6 array def /dif 3 array def
/asub {/ind2 exch def /ind1 exch def dup dup
  ind1 get exch ind2 get sub exch } bdef
/tri_to_matrix {
  2 0 asub 3 1 asub 4 0 asub 5 1 asub
  dup 0 get exch 1 get 7 -1 roll astore } bdef
/compute_transform {
  dmat dtri tri_to_matrix tmat1 invertmatrix 
  smat stri tri_to_matrix tmat2 concatmatrix } bdef
/ds {stri astore pop} bdef
/dt {dtri astore pop} bdef
/db {2 copy /cols xdef /rows xdef mul dup 3 mul string
  currentfile 
  3 index 0 eq {/ASCIIHexDecode filter}
  {/ASCII85Decode filter 3 index 2 eq {/RunLengthDecode filter} if }
  ifelse exch readstring pop
  dup 0 3 index getinterval /rbmap xdef
  dup 2 index dup getinterval /gbmap xdef
  1 index dup 2 mul exch getinterval /bbmap xdef pop pop}bdef
/it {gs np dtri aload pop moveto lineto lineto cp c
  cols rows 8 compute_transform 
  rbmap gbmap bbmap true 3 colorimage gr}bdef
/il {newpath moveto lineto stroke}bdef
currentdict end def
%%EndProlog

%%BeginSetup
MathWorks begin

0 cap

end
%%EndSetup

%%Page: 1 1
%%BeginPageSetup
%%PageBoundingBox:   100   241   509   549
MathWorks begin
bpage
%%EndPageSetup

%%BeginObject: obj1
bplot

/dpi2point 12 def
portraitMode 1200 6588 csm

    0     0  4915  3687 rc
85 dict begin %Colortable dictionary
/c0 { 0.000000 0.000000 0.000000 sr} bdef
/c1 { 1.000000 1.000000 1.000000 sr} bdef
/c2 { 0.900000 0.000000 0.000000 sr} bdef
/c3 { 0.000000 0.820000 0.000000 sr} bdef
/c4 { 0.000000 0.000000 0.800000 sr} bdef
/c5 { 0.910000 0.820000 0.320000 sr} bdef
/c6 { 1.000000 0.260000 0.820000 sr} bdef
/c7 { 0.000000 0.820000 0.820000 sr} bdef
c0
1 j
1 sg
   0    0 4916 3688 rf
6 w
0 3004 3184 0 0 -3004 639 3281 4 MP
PP
-3184 0 0 3004 3184 0 0 -3004 639 3281 5 MP stroke
4 w
DO
SO
6 w
0 sg
 639 3281 mt 3823 3281 L
 639 3281 mt  639  277 L
 639 3281 mt  639 3249 L
%%IncludeResource: font Helvetica
/Helvetica /ISOLatin1Encoding 120 FMSR

 556 3426 mt 
(2.4) s
1169 3281 mt 1169 3249 L
1086 3426 mt 
(2.6) s
1700 3281 mt 1700 3249 L
1617 3426 mt 
(2.8) s
2231 3281 mt 2231 3249 L
2198 3426 mt 
(3) s
2762 3281 mt 2762 3249 L
2679 3426 mt 
(3.2) s
3293 3281 mt 3293 3249 L
3210 3426 mt 
(3.4) s
3824 3281 mt 3824 3249 L
3741 3426 mt 
(3.6) s
3554 3628 mt 
(x 10) s
%%IncludeResource: font Helvetica
/Helvetica /ISOLatin1Encoding 80 FMSR

3780 3554 mt 
(4) s
 639 3281 mt  670 3281 L
%%IncludeResource: font Helvetica
/Helvetica /ISOLatin1Encoding 120 FMSR

 368 3325 mt 
(-7.2) s
 639 2947 mt  670 2947 L
 468 2991 mt 
(-7) s
 639 2613 mt  670 2613 L
 368 2657 mt 
(-6.8) s
 639 2279 mt  670 2279 L
 368 2323 mt 
(-6.6) s
 639 1945 mt  670 1945 L
 368 1989 mt 
(-6.4) s
 639 1612 mt  670 1612 L
 368 1656 mt 
(-6.2) s
 639 1278 mt  670 1278 L
 468 1322 mt 
(-6) s
 639  944 mt  670  944 L
 368  988 mt 
(-5.8) s
 639  610 mt  670  610 L
 368  654 mt 
(-5.6) s
 639  277 mt  670  277 L
 368  321 mt 
(-5.4) s
 639  223 mt 
(x 10) s
%%IncludeResource: font Helvetica
/Helvetica /ISOLatin1Encoding 80 FMSR

 865  149 mt 
(4) s
gs 639 277 3186 3005 rc
0 j
gr

gs 1073 224 2658 2930 rc
/c8 { 0.500000 0.000000 0.000000 sr} bdef
c8
  30   30 1871 2381 PO
gr

c8
gs 639 277 3186 3005 rc
gr

gs 1073 224 2658 2930 rc
/c9 { 0.875000 0.000000 0.000000 sr} bdef
c9
  30   30 2187 2401 PO
gr

c9
gs 639 277 3186 3005 rc
gr

gs 1073 224 2658 2930 rc
/c10 { 1.000000 0.812500 0.000000 sr} bdef
c10
  30   30 2827 2703 PO
gr

c10
gs 639 277 3186 3005 rc
gr

gs 1073 224 2658 2930 rc
c8
  30   30 1650 2146 PO
gr

c8
gs 639 277 3186 3005 rc
gr

gs 1073 224 2658 2930 rc
/c11 { 1.000000 0.625000 0.000000 sr} bdef
c11
  30   30 3397 2982 PO
gr

c11
gs 639 277 3186 3005 rc
gr

gs 1073 224 2658 2930 rc
/c12 { 1.000000 0.312500 0.000000 sr} bdef
c12
  30   30 3009 2843 PO
gr

c12
gs 639 277 3186 3005 rc
gr

gs 1073 224 2658 2930 rc
/c13 { 0.562500 0.000000 0.000000 sr} bdef
c13
  30   30 1601 2086 PO
gr

c13
gs 639 277 3186 3005 rc
gr

gs 1073 224 2658 2930 rc
c8
  30   30 1780 2297 PO
gr

c8
gs 639 277 3186 3005 rc
gr

gs 1073 224 2658 2930 rc
  30   30 1762 2274 PO
gr

gs 639 277 3186 3005 rc
gr

gs 1073 224 2658 2930 rc
/c14 { 1.000000 0.750000 0.000000 sr} bdef
c14
  30   30 3499 3025 PO
gr

c14
gs 639 277 3186 3005 rc
gr

gs 1073 224 2658 2930 rc
c8
  30   30 1798 2304 PO
gr

c8
gs 639 277 3186 3005 rc
gr

gs 1073 224 2658 2930 rc
  30   30 1800 2307 PO
gr

gs 639 277 3186 3005 rc
gr

gs 1073 224 2658 2930 rc
  30   30 1705 2217 PO
gr

gs 639 277 3186 3005 rc
gr

gs 1073 224 2658 2930 rc
/c15 { 1.000000 0.187500 0.000000 sr} bdef
c15
  30   30 2678 2631 PO
gr

c15
gs 639 277 3186 3005 rc
gr

gs 1073 224 2658 2930 rc
c8
  30   30 1711 2221 PO
gr

c8
gs 639 277 3186 3005 rc
gr

gs 1073 224 2658 2930 rc
c11
  30   30 3400 2984 PO
gr

c11
gs 639 277 3186 3005 rc
gr

gs 1073 224 2658 2930 rc
c8
  30   30 1778 2294 PO
gr

c8
gs 639 277 3186 3005 rc
gr

gs 1073 224 2658 2930 rc
  30   30 1847 2355 PO
gr

gs 639 277 3186 3005 rc
gr

gs 1073 224 2658 2930 rc
  30   30 1705 2217 PO
gr

gs 639 277 3186 3005 rc
gr

gs 1073 224 2658 2930 rc
c11
  30   30 3397 2982 PO
gr

c11
gs 639 277 3186 3005 rc
gr

gs 1073 224 2658 2930 rc
c9
  30   30 2207 2428 PO
gr

c9
gs 639 277 3186 3005 rc
gr

gs 1073 224 2658 2930 rc
  30   30 2187 2401 PO
gr

gs 639 277 3186 3005 rc
gr

gs 1073 224 2658 2930 rc
c8
  30   30 1724 2236 PO
gr

c8
gs 639 277 3186 3005 rc
gr

gs 1073 224 2658 2930 rc
  30   30 1837 2349 PO
gr

gs 639 277 3186 3005 rc
gr

gs 1073 224 2658 2930 rc
  30   30 1764 2276 PO
gr

gs 639 277 3186 3005 rc
gr

gs 1073 224 2658 2930 rc
/c16 { 1.000000 0.937500 0.000000 sr} bdef
c16
  30   30 1601 2069 PO
gr

c16
gs 639 277 3186 3005 rc
gr

gs 1073 224 2658 2930 rc
c8
  30   30 1778 2294 PO
gr

c8
gs 639 277 3186 3005 rc
gr

gs 1073 224 2658 2930 rc
  30   30 1704 2214 PO
gr

gs 639 277 3186 3005 rc
gr

gs 1073 224 2658 2930 rc
  30   30 1819 2330 PO
gr

gs 639 277 3186 3005 rc
gr

gs 1073 224 2658 2930 rc
c12
  30   30 3011 2854 PO
gr

c12
gs 639 277 3186 3005 rc
gr

gs 1073 224 2658 2930 rc
  30   30 2850 2717 PO
gr

gs 639 277 3186 3005 rc
gr

gs 1073 224 2658 2930 rc
c9
  30   30 2189 2401 PO
gr

c9
gs 639 277 3186 3005 rc
gr

gs 1073 224 2658 2930 rc
c11
  30   30 3403 2984 PO
gr

c11
gs 639 277 3186 3005 rc
gr

gs 1073 224 2658 2930 rc
c8
  30   30 1653 2150 PO
gr

c8
gs 639 277 3186 3005 rc
gr

gs 1073 224 2658 2930 rc
c11
  30   30 3341 2958 PO
gr

c11
gs 639 277 3186 3005 rc
gr

gs 1073 224 2658 2930 rc
c14
  30   30 3584 3075 PO
gr

c14
gs 639 277 3186 3005 rc
gr

gs 1073 224 2658 2930 rc
c15
  30   30 2666 2627 PO
gr

c15
gs 639 277 3186 3005 rc
gr

gs 1073 224 2658 2930 rc
c8
  30   30 1800 2307 PO
gr

c8
gs 639 277 3186 3005 rc
gr

gs 1073 224 2658 2930 rc
c9
  30   30 2190 2403 PO
gr

c9
gs 639 277 3186 3005 rc
gr

gs 1073 224 2658 2930 rc
c8
  30   30 1803 2314 PO
gr

c8
gs 639 277 3186 3005 rc
gr

gs 1073 224 2658 2930 rc
  30   30 1828 2341 PO
gr

gs 639 277 3186 3005 rc
gr

gs 1073 224 2658 2930 rc
c11
  30   30 3372 2967 PO
gr

c11
gs 639 277 3186 3005 rc
gr

gs 1073 224 2658 2930 rc
  30   30 3393 2982 PO
gr

gs 639 277 3186 3005 rc
gr

gs 1073 224 2658 2930 rc
/c17 { 1.000000 0.687500 0.000000 sr} bdef
c17
  30   30 3501 3029 PO
gr

c17
gs 639 277 3186 3005 rc
gr

gs 1073 224 2658 2930 rc
c11
  30   30 3351 2960 PO
gr

c11
gs 639 277 3186 3005 rc
gr

gs 1073 224 2658 2930 rc
  30   30 3393 2982 PO
gr

gs 639 277 3186 3005 rc
gr

gs 1073 224 2658 2930 rc
/c18 { 1.000000 0.562500 0.000000 sr} bdef
c18
  30   30 3260 2909 PO
gr

c18
gs 639 277 3186 3005 rc
gr

gs 1073 224 2658 2930 rc
c8
  30   30 1832 2344 PO
gr

c8
gs 639 277 3186 3005 rc
gr

gs 1073 224 2658 2930 rc
  30   30 1685 2188 PO
gr

gs 639 277 3186 3005 rc
gr

gs 1073 224 2658 2930 rc
  30   30 1724 2236 PO
gr

gs 639 277 3186 3005 rc
gr

gs 1073 224 2658 2930 rc
c18
  30   30 3247 2901 PO
gr

c18
gs 639 277 3186 3005 rc
gr

gs 1073 224 2658 2930 rc
c8
  30   30 1711 2221 PO
gr

c8
gs 639 277 3186 3005 rc
gr

gs 1073 224 2658 2930 rc
/c19 { 0.812500 0.000000 0.000000 sr} bdef
c19
  30   30 1448 1779 PO
gr

c19
gs 639 277 3186 3005 rc
gr

gs 1073 224 2658 2930 rc
c14
  30   30 3524 3035 PO
gr

c14
gs 639 277 3186 3005 rc
gr

gs 1073 224 2658 2930 rc
c15
  30   30 2713 2661 PO
gr

c15
gs 639 277 3186 3005 rc
gr

gs 1073 224 2658 2930 rc
c8
  30   30 1813 2319 PO
gr

c8
gs 639 277 3186 3005 rc
gr

gs 1073 224 2658 2930 rc
  30   30 1652 2150 PO
gr

gs 639 277 3186 3005 rc
gr

gs 1073 224 2658 2930 rc
  30   30 1785 2299 PO
gr

gs 639 277 3186 3005 rc
gr

gs 1073 224 2658 2930 rc
  30   30 1828 2341 PO
gr

gs 639 277 3186 3005 rc
gr

gs 1073 224 2658 2930 rc
c13
  30   30 1613 2093 PO
gr

c13
gs 639 277 3186 3005 rc
gr

gs 1073 224 2658 2930 rc
c18
  30   30 3258 2908 PO
gr

c18
gs 639 277 3186 3005 rc
gr

gs 1073 224 2658 2930 rc
c13
  30   30 1596 2064 PO
gr

c13
gs 639 277 3186 3005 rc
gr

gs 1073 224 2658 2930 rc
c9
  30   30 2182 2399 PO
gr

c9
gs 639 277 3186 3005 rc
gr

gs 1073 224 2658 2930 rc
c8
  30   30 1780 2297 PO
gr

c8
gs 639 277 3186 3005 rc
gr

gs 1073 224 2658 2930 rc
  30   30 1685 2188 PO
gr

gs 639 277 3186 3005 rc
gr

gs 1073 224 2658 2930 rc
/c20 { 1.000000 0.375000 0.000000 sr} bdef
c20
  30   30 2529 2505 PO
gr

c20
gs 639 277 3186 3005 rc
gr

gs 1073 224 2658 2930 rc
c8
  30   30 1843 2352 PO
gr

c8
gs 639 277 3186 3005 rc
gr

gs 1073 224 2658 2930 rc
  30   30 1805 2316 PO
gr

gs 639 277 3186 3005 rc
gr

gs 1073 224 2658 2930 rc
  30   30 1653 2150 PO
gr

gs 639 277 3186 3005 rc
gr

gs 1073 224 2658 2930 rc
c13
  30   30 1607 2090 PO
gr

c13
gs 639 277 3186 3005 rc
gr

gs 1073 224 2658 2930 rc
c8
  30   30 1816 2320 PO
gr

c8
gs 639 277 3186 3005 rc
gr

gs 1073 224 2658 2930 rc
  30   30 1785 2299 PO
gr

gs 639 277 3186 3005 rc
gr

gs 1073 224 2658 2930 rc
  30   30 1752 2268 PO
gr

gs 639 277 3186 3005 rc
gr

gs 1073 224 2658 2930 rc
  30   30 1835 2346 PO
gr

gs 639 277 3186 3005 rc
gr

gs 1073 224 2658 2930 rc
c15
  30   30 1776 2291 PO
gr

c15
gs 639 277 3186 3005 rc
gr

gs 1073 224 2658 2930 rc
c8
  30   30 1764 2276 PO
gr

c8
gs 639 277 3186 3005 rc
gr

gs 1073 224 2658 2930 rc
/c21 { 0.687500 1.000000 0.312500 sr} bdef
c21
  30   30 2728 2668 PO
gr

c21
gs 639 277 3186 3005 rc
gr

gs 1073 224 2658 2930 rc
/c22 { 1.000000 0.125000 0.000000 sr} bdef
c22
  30   30 2492 2486 PO
gr

c22
gs 639 277 3186 3005 rc
gr

gs 1073 224 2658 2930 rc
c8
  30   30 1722 2234 PO
gr

c8
gs 639 277 3186 3005 rc
gr

gs 1073 224 2658 2930 rc
c15
  30   30 2663 2626 PO
gr

c15
gs 639 277 3186 3005 rc
gr

gs 1073 224 2658 2930 rc
/c23 { 0.687500 0.000000 0.000000 sr} bdef
c23
  30   30 1451 1844 PO
gr

c23
gs 639 277 3186 3005 rc
gr

gs 1073 224 2658 2930 rc
c11
  30   30 3378 2976 PO
gr

c11
gs 639 277 3186 3005 rc
gr

gs 1073 224 2658 2930 rc
c8
  30   30 1847 2355 PO
gr

c8
gs 639 277 3186 3005 rc
gr

gs 1073 224 2658 2930 rc
c14
  30   30 3524 3035 PO
gr

c14
gs 639 277 3186 3005 rc
gr

gs 1073 224 2658 2930 rc
c8
  30   30 1837 2349 PO
gr

c8
gs 639 277 3186 3005 rc
gr

gs 1073 224 2658 2930 rc
  30   30 1843 2352 PO
gr

gs 639 277 3186 3005 rc
gr

gs 1073 224 2658 2930 rc
  30   30 1801 2313 PO
gr

gs 639 277 3186 3005 rc
gr

gs 1073 224 2658 2930 rc
  30   30 1824 2336 PO
gr

gs 639 277 3186 3005 rc
gr

gs 1073 224 2658 2930 rc
/c24 { 0.750000 0.000000 0.000000 sr} bdef
c24
  30   30 1792 2301 PO
gr

c24
gs 639 277 3186 3005 rc
gr

gs 1073 224 2658 2930 rc
c8
  30   30 1798 2304 PO
gr

c8
gs 639 277 3186 3005 rc
gr

gs 1073 224 2658 2930 rc
c11
  30   30 3387 2979 PO
gr

c11
gs 639 277 3186 3005 rc
gr

gs 1073 224 2658 2930 rc
c14
  30   30 3533 3039 PO
gr

c14
gs 639 277 3186 3005 rc
gr

gs 1073 224 2658 2930 rc
c8
  30   30 1792 2301 PO
gr

c8
gs 639 277 3186 3005 rc
gr

gs 1073 224 2658 2930 rc
c9
  30   30 2202 2408 PO
gr

c9
gs 639 277 3186 3005 rc
gr

gs 1073 224 2658 2930 rc
c8
  30   30 1818 2323 PO
gr

c8
gs 639 277 3186 3005 rc
gr

gs 1073 224 2658 2930 rc
c15
  30   30 1493 1860 PO
gr

c15
gs 639 277 3186 3005 rc
gr

gs 1073 224 2658 2930 rc
c8
  30   30 1704 2214 PO
gr

c8
gs 639 277 3186 3005 rc
gr

gs 1073 224 2658 2930 rc
c10
  30   30 3614 3082 PO
gr

c10
gs 639 277 3186 3005 rc
gr

gs 1073 224 2658 2930 rc
c22
  30   30 2548 2545 PO
gr

c22
gs 639 277 3186 3005 rc
gr

gs 1073 224 2658 2930 rc
c8
  30   30 1623 2122 PO
gr

c8
gs 639 277 3186 3005 rc
gr

gs 1073 224 2658 2930 rc
c13
  30   30 1607 2090 PO
gr

c13
gs 639 277 3186 3005 rc
gr

gs 1073 224 2658 2930 rc
c8
  30   30 1824 2336 PO
gr

c8
gs 639 277 3186 3005 rc
gr

gs 1073 224 2658 2930 rc
  30   30 1854 2355 PO
gr

gs 639 277 3186 3005 rc
gr

gs 1073 224 2658 2930 rc
c15
  30   30 2663 2626 PO
gr

c15
gs 639 277 3186 3005 rc
gr

gs 1073 224 2658 2930 rc
c8
  30   30 1768 2284 PO
gr

c8
gs 639 277 3186 3005 rc
gr

gs 1073 224 2658 2930 rc
c16
  30   30 3519 3034 PO
gr

c16
gs 639 277 3186 3005 rc
gr

gs 1073 224 2658 2930 rc
c18
  30   30 3030 2857 PO
gr

c18
gs 639 277 3186 3005 rc
gr

gs 1073 224 2658 2930 rc
c13
  30   30 1644 2128 PO
gr

c13
gs 639 277 3186 3005 rc
gr

gs 1073 224 2658 2930 rc
c8
  30   30 1806 2319 PO
gr

c8
gs 639 277 3186 3005 rc
gr

gs 1073 224 2658 2930 rc
c11
  30   30 3351 2960 PO
gr

c11
gs 639 277 3186 3005 rc
gr

gs 1073 224 2658 2930 rc
c15
  30   30 2655 2619 PO
gr

c15
gs 639 277 3186 3005 rc
gr

gs 1073 224 2658 2930 rc
c22
  30   30 2493 2487 PO
gr

c22
gs 639 277 3186 3005 rc
gr

gs 1073 224 2658 2930 rc
c8
  30   30 1707 2220 PO
gr

c8
gs 639 277 3186 3005 rc
gr

gs 1073 224 2658 2930 rc
c11
  30   30 3365 2967 PO
gr

c11
gs 639 277 3186 3005 rc
gr

gs 1073 224 2658 2930 rc
c23
  30   30 1448 1833 PO
gr

c23
gs 639 277 3186 3005 rc
gr

gs 1073 224 2658 2930 rc
c24
  30   30 1406 1771 PO
gr

c24
gs 639 277 3186 3005 rc
gr

gs 1073 224 2658 2930 rc
c22
  30   30 2603 2591 PO
gr

c22
gs 639 277 3186 3005 rc
gr

gs 1073 224 2658 2930 rc
/c25 { 0.000000 0.562500 1.000000 sr} bdef
c25
  30   30 3276 2914 PO
gr

c25
gs 639 277 3186 3005 rc
gr

gs 1073 224 2658 2930 rc
c24
  30   30 1744 2259 PO
gr

c24
gs 639 277 3186 3005 rc
gr

gs 1073 224 2658 2930 rc
c12
  30   30 2953 2807 PO
gr

c12
gs 639 277 3186 3005 rc
gr

gs 1073 224 2658 2930 rc
c8
  30   30 1776 2291 PO
gr

c8
gs 639 277 3186 3005 rc
gr

gs 1073 224 2658 2930 rc
  30   30 1744 2259 PO
gr

gs 639 277 3186 3005 rc
gr

gs 1073 224 2658 2930 rc
/c26 { 0.000000 0.000000 0.562500 sr} bdef
c26
  30   30 3337 2955 PO
gr

c26
gs 639 277 3186 3005 rc
gr

gs 1073 224 2658 2930 rc
c15
  30   30 2734 2673 PO
gr

c15
gs 639 277 3186 3005 rc
gr

gs 1073 224 2658 2930 rc
c13
  30   30 1577 2037 PO
gr

c13
gs 639 277 3186 3005 rc
gr

gs 1073 224 2658 2930 rc
c10
  30   30 3606 3078 PO
gr

c10
gs 639 277 3186 3005 rc
gr

gs 1073 224 2658 2930 rc
c11
  30   30 3387 2979 PO
gr

c11
gs 639 277 3186 3005 rc
gr

gs 1073 224 2658 2930 rc
c12
  30   30 3038 2863 PO
gr

c12
gs 639 277 3186 3005 rc
gr

gs 1073 224 2658 2930 rc
c14
  30   30 3538 3041 PO
gr

c14
gs 639 277 3186 3005 rc
gr

gs 1073 224 2658 2930 rc
c8
  30   30 1677 2180 PO
gr

c8
gs 639 277 3186 3005 rc
gr

gs 1073 224 2658 2930 rc
  30   30 1819 2330 PO
gr

gs 639 277 3186 3005 rc
gr

gs 1073 224 2658 2930 rc
c18
  30   30 3247 2901 PO
gr

c18
gs 639 277 3186 3005 rc
gr

gs 1073 224 2658 2930 rc
c8
  30   30 1856 2357 PO
gr

c8
gs 639 277 3186 3005 rc
gr

gs 1073 224 2658 2930 rc
c14
  30   30 3533 3037 PO
gr

c14
gs 639 277 3186 3005 rc
gr

gs 1073 224 2658 2930 rc
c13
  30   30 1579 2038 PO
gr

c13
gs 639 277 3186 3005 rc
gr

gs 1073 224 2658 2930 rc
c20
  30   30 2817 2700 PO
gr

c20
gs 639 277 3186 3005 rc
gr

gs 1073 224 2658 2930 rc
c11
  30   30 3365 2967 PO
gr

c11
gs 639 277 3186 3005 rc
gr

gs 1073 224 2658 2930 rc
c26
  30   30 3405 2988 PO
gr

c26
gs 639 277 3186 3005 rc
gr

gs 1073 224 2658 2930 rc
c15
  30   30 2755 2696 PO
gr

c15
gs 639 277 3186 3005 rc
gr

gs 1073 224 2658 2930 rc
  30   30 2630 2607 PO
gr

gs 639 277 3186 3005 rc
gr

gs 1073 224 2658 2930 rc
c18
  30   30 3258 2908 PO
gr

c18
gs 639 277 3186 3005 rc
gr

gs 1073 224 2658 2930 rc
c13
  30   30 1593 2049 PO
gr

c13
gs 639 277 3186 3005 rc
gr

gs 1073 224 2658 2930 rc
c11
  30   30 3341 2958 PO
gr

c11
gs 639 277 3186 3005 rc
gr

gs 1073 224 2658 2930 rc
/c27 { 0.937500 0.000000 0.000000 sr} bdef
c27
  30   30 2340 2477 PO
gr

c27
gs 639 277 3186 3005 rc
gr

gs 1073 224 2658 2930 rc
c8
  30   30 1762 2268 PO
gr

c8
gs 639 277 3186 3005 rc
gr

gs 1073 224 2658 2930 rc
  30   30 1718 2232 PO
gr

gs 639 277 3186 3005 rc
gr

gs 1073 224 2658 2930 rc
c15
  30   30 2666 2627 PO
gr

c15
gs 639 277 3186 3005 rc
gr

gs 1073 224 2658 2930 rc
/c28 { 1.000000 0.000000 0.000000 sr} bdef
c28
  30   30 2335 2461 PO
gr

c28
gs 639 277 3186 3005 rc
gr

gs 1073 224 2658 2930 rc
/c29 { 0.625000 0.000000 0.000000 sr} bdef
c29
  30   30 1510 1960 PO
gr

c29
gs 639 277 3186 3005 rc
gr

gs 1073 224 2658 2930 rc
c11
  30   30 3405 2988 PO
gr

c11
gs 639 277 3186 3005 rc
gr

gs 1073 224 2658 2930 rc
c8
  30   30 1659 2157 PO
gr

c8
gs 639 277 3186 3005 rc
gr

gs 1073 224 2658 2930 rc
c29
  30   30 1535 1978 PO
gr

c29
gs 639 277 3186 3005 rc
gr

gs 1073 224 2658 2930 rc
c15
  30   30 2686 2653 PO
gr

c15
gs 639 277 3186 3005 rc
gr

gs 1073 224 2658 2930 rc
c29
  30   30 1510 1942 PO
gr

c29
gs 639 277 3186 3005 rc
gr

gs 1073 224 2658 2930 rc
c8
  30   30 1684 2181 PO
gr

c8
gs 639 277 3186 3005 rc
gr

gs 1073 224 2658 2930 rc
c9
  30   30 2190 2403 PO
gr

c9
gs 639 277 3186 3005 rc
gr

gs 1073 224 2658 2930 rc
c13
  30   30 1618 2104 PO
gr

c13
gs 639 277 3186 3005 rc
gr

gs 1073 224 2658 2930 rc
c14
  30   30 3548 3052 PO
gr

c14
gs 639 277 3186 3005 rc
gr

gs 1073 224 2658 2930 rc
c8
  30   30 1666 2172 PO
gr

c8
gs 639 277 3186 3005 rc
gr

gs 1073 224 2658 2930 rc
c15
  30   30 2643 2617 PO
gr

c15
gs 639 277 3186 3005 rc
gr

gs 1073 224 2658 2930 rc
c8
  30   30 1697 2210 PO
gr

c8
gs 639 277 3186 3005 rc
gr

gs 1073 224 2658 2930 rc
c12
  30   30 3044 2881 PO
gr

c12
gs 639 277 3186 3005 rc
gr

gs 1073 224 2658 2930 rc
c8
  30   30 1677 2180 PO
gr

c8
gs 639 277 3186 3005 rc
gr

gs 1073 224 2658 2930 rc
c11
  30   30 3372 2967 PO
gr

c11
gs 639 277 3186 3005 rc
gr

gs 1073 224 2658 2930 rc
c23
  30   30 1459 1850 PO
gr

c23
gs 639 277 3186 3005 rc
gr

gs 1073 224 2658 2930 rc
c15
  30   30 2627 2604 PO
gr

c15
gs 639 277 3186 3005 rc
gr

gs 1073 224 2658 2930 rc
c13
  30   30 1579 2038 PO
gr

c13
gs 639 277 3186 3005 rc
gr

gs 1073 224 2658 2930 rc
c15
  30   30 2734 2673 PO
gr

c15
gs 639 277 3186 3005 rc
gr

gs 1073 224 2658 2930 rc
c8
  30   30 1686 2194 PO
gr

c8
gs 639 277 3186 3005 rc
gr

gs 1073 224 2658 2930 rc
c9
  30   30 1768 2284 PO
gr

c9
gs 639 277 3186 3005 rc
gr

gs 1073 224 2658 2930 rc
c15
  30   30 2630 2607 PO
gr

c15
gs 639 277 3186 3005 rc
gr

gs 1073 224 2658 2930 rc
c14
  30   30 3538 3041 PO
gr

c14
gs 639 277 3186 3005 rc
gr

gs 1073 224 2658 2930 rc
c12
  30   30 3056 2890 PO
gr

c12
gs 639 277 3186 3005 rc
gr

gs 1073 224 2658 2930 rc
c11
  30   30 3337 2955 PO
gr

c11
gs 639 277 3186 3005 rc
gr

gs 1073 224 2658 2930 rc
  30   30 3414 3000 PO
gr

gs 639 277 3186 3005 rc
gr

gs 1073 224 2658 2930 rc
c13
  30   30 1613 2093 PO
gr

c13
gs 639 277 3186 3005 rc
gr

gs 1073 224 2658 2930 rc
c8
  30   30 1741 2255 PO
gr

c8
gs 639 277 3186 3005 rc
gr

gs 1073 224 2658 2930 rc
  30   30 1686 2194 PO
gr

gs 639 277 3186 3005 rc
gr

gs 1073 224 2658 2930 rc
  30   30 1741 2255 PO
gr

gs 639 277 3186 3005 rc
gr

gs 1073 224 2658 2930 rc
c15
  30   30 2744 2678 PO
gr

c15
gs 639 277 3186 3005 rc
gr

gs 1073 224 2658 2930 rc
c11
  30   30 3378 2976 PO
gr

c11
gs 639 277 3186 3005 rc
gr

gs 1073 224 2658 2930 rc
c12
  30   30 1650 2146 PO
gr

c12
gs 639 277 3186 3005 rc
gr

gs 1073 224 2658 2930 rc
c13
  30   30 1549 2013 PO
gr

c13
gs 639 277 3186 3005 rc
gr

gs 1073 224 2658 2930 rc
c8
  30   30 1728 2241 PO
gr

c8
gs 639 277 3186 3005 rc
gr

gs 1073 224 2658 2930 rc
  30   30 1717 2222 PO
gr

gs 639 277 3186 3005 rc
gr

gs 1073 224 2658 2930 rc
c14
  30   30 3568 3056 PO
gr

c14
gs 639 277 3186 3005 rc
gr

gs 1073 224 2658 2930 rc
c24
  30   30 1728 2241 PO
gr

c24
gs 639 277 3186 3005 rc
gr

gs 1073 224 2658 2930 rc
c11
  30   30 1451 1844 PO
gr

c11
gs 639 277 3186 3005 rc
gr

gs 1073 224 2658 2930 rc
c15
  30   30 2655 2619 PO
gr

c15
gs 639 277 3186 3005 rc
gr

gs 1073 224 2658 2930 rc
/c30 { 0.625000 1.000000 0.375000 sr} bdef
c30
  30   30 3261 2912 PO
gr

c30
gs 639 277 3186 3005 rc
gr

gs 1073 224 2658 2930 rc
c8
  30   30 1752 2268 PO
gr

c8
gs 639 277 3186 3005 rc
gr

gs 1073 224 2658 2930 rc
c15
  30   30 2713 2665 PO
gr

c15
gs 639 277 3186 3005 rc
gr

gs 1073 224 2658 2930 rc
c13
  30   30 1596 2064 PO
gr

c13
gs 639 277 3186 3005 rc
gr

gs 1073 224 2658 2930 rc
c15
  30   30 2728 2668 PO
gr

c15
gs 639 277 3186 3005 rc
gr

gs 1073 224 2658 2930 rc
c8
  30   30 1857 2365 PO
gr

c8
gs 639 277 3186 3005 rc
gr

gs 1073 224 2658 2930 rc
  30   30 1659 2157 PO
gr

gs 639 277 3186 3005 rc
gr

gs 1073 224 2658 2930 rc
c13
  30   30 1558 2027 PO
gr

c13
gs 639 277 3186 3005 rc
gr

gs 1073 224 2658 2930 rc
c29
  30   30 1508 1927 PO
gr

c29
gs 639 277 3186 3005 rc
gr

gs 1073 224 2658 2930 rc
  30   30 1510 1942 PO
gr

gs 639 277 3186 3005 rc
gr

gs 1073 224 2658 2930 rc
c23
  30   30 1476 1858 PO
gr

c23
gs 639 277 3186 3005 rc
gr

gs 1073 224 2658 2930 rc
c12
  30   30 2951 2805 PO
gr

c12
gs 639 277 3186 3005 rc
gr

gs 1073 224 2658 2930 rc
c15
  30   30 2580 2563 PO
gr

c15
gs 639 277 3186 3005 rc
gr

gs 1073 224 2658 2930 rc
c14
  30   30 3519 3034 PO
gr

c14
gs 639 277 3186 3005 rc
gr

gs 1073 224 2658 2930 rc
c13
  30   30 1577 2037 PO
gr

c13
gs 639 277 3186 3005 rc
gr

gs 1073 224 2658 2930 rc
  30   30 1649 2130 PO
gr

gs 639 277 3186 3005 rc
gr

gs 1073 224 2658 2930 rc
c17
  30   30 3460 3022 PO
gr

c17
gs 639 277 3186 3005 rc
gr

gs 1073 224 2658 2930 rc
c18
  30   30 3285 2935 PO
gr

c18
gs 639 277 3186 3005 rc
gr

gs 1073 224 2658 2930 rc
c29
  30   30 1526 1974 PO
gr

c29
gs 639 277 3186 3005 rc
gr

gs 1073 224 2658 2930 rc
c22
  30   30 2548 2545 PO
gr

c22
gs 639 277 3186 3005 rc
gr

gs 1073 224 2658 2930 rc
c11
  30   30 3355 2960 PO
gr

c11
gs 639 277 3186 3005 rc
gr

gs 1073 224 2658 2930 rc
c13
  30   30 1601 2069 PO
gr

c13
gs 639 277 3186 3005 rc
gr

gs 1073 224 2658 2930 rc
c8
  30   30 1697 2210 PO
gr

c8
gs 639 277 3186 3005 rc
gr

gs 1073 224 2658 2930 rc
c14
  30   30 3568 3056 PO
gr

c14
gs 639 277 3186 3005 rc
gr

gs 1073 224 2658 2930 rc
/c31 { 1.000000 0.437500 0.000000 sr} bdef
c31
  30   30 2879 2755 PO
gr

c31
gs 639 277 3186 3005 rc
gr

gs 1073 224 2658 2930 rc
/c32 { 1.000000 0.250000 0.000000 sr} bdef
c32
  30   30 2797 2698 PO
gr

c32
gs 639 277 3186 3005 rc
gr

gs 1073 224 2658 2930 rc
c22
  30   30 2562 2556 PO
gr

c22
gs 639 277 3186 3005 rc
gr

gs 1073 224 2658 2930 rc
  30   30 1526 1974 PO
gr

gs 639 277 3186 3005 rc
gr

gs 1073 224 2658 2930 rc
  30   30 1601 2086 PO
gr

gs 639 277 3186 3005 rc
gr

gs 1073 224 2658 2930 rc
  30   30 2547 2539 PO
gr

gs 639 277 3186 3005 rc
gr

gs 1073 224 2658 2930 rc
c15
  30   30 2643 2617 PO
gr

c15
gs 639 277 3186 3005 rc
gr

gs 1073 224 2658 2930 rc
  30   30 2530 2516 PO
gr

gs 639 277 3186 3005 rc
gr

gs 1073 224 2658 2930 rc
c13
  30   30 1549 2013 PO
gr

c13
gs 639 277 3186 3005 rc
gr

gs 1073 224 2658 2930 rc
  30   30 1618 2104 PO
gr

gs 639 277 3186 3005 rc
gr

gs 1073 224 2658 2930 rc
  30   30 1544 1999 PO
gr

gs 639 277 3186 3005 rc
gr

gs 1073 224 2658 2930 rc
c15
  30   30 2529 2505 PO
gr

c15
gs 639 277 3186 3005 rc
gr

gs 1073 224 2658 2930 rc
c22
  30   30 2592 2580 PO
gr

c22
gs 639 277 3186 3005 rc
gr

gs 1073 224 2658 2930 rc
c28
  30   30 2325 2451 PO
gr

c28
gs 639 277 3186 3005 rc
gr

gs 1073 224 2658 2930 rc
c16
  30   30 3501 3029 PO
gr

c16
gs 639 277 3186 3005 rc
gr

gs 1073 224 2658 2930 rc
c32
  30   30 2817 2700 PO
gr

c32
gs 639 277 3186 3005 rc
gr

gs 1073 224 2658 2930 rc
c12
  30   30 2959 2809 PO
gr

c12
gs 639 277 3186 3005 rc
gr

gs 1073 224 2658 2930 rc
c15
  30   30 2517 2498 PO
gr

c15
gs 639 277 3186 3005 rc
gr

gs 1073 224 2658 2930 rc
c12
  30   30 2827 2703 PO
gr

c12
gs 639 277 3186 3005 rc
gr

gs 1073 224 2658 2930 rc
c9
  30   30 1459 1850 PO
gr

c9
gs 639 277 3186 3005 rc
gr

gs 1073 224 2658 2930 rc
c13
  30   30 1644 2128 PO
gr

c13
gs 639 277 3186 3005 rc
gr

gs 1073 224 2658 2930 rc
c22
  30   30 2547 2539 PO
gr

c22
gs 639 277 3186 3005 rc
gr

gs 1073 224 2658 2930 rc
c14
  30   30 3443 3007 PO
gr

c14
gs 639 277 3186 3005 rc
gr

gs 1073 224 2658 2930 rc
c11
  30   30 3324 2946 PO
gr

c11
gs 639 277 3186 3005 rc
gr

gs 1073 224 2658 2930 rc
c13
  30   30 1544 1999 PO
gr

c13
gs 639 277 3186 3005 rc
gr

gs 1073 224 2658 2930 rc
c12
  30   30 3038 2863 PO
gr

c12
gs 639 277 3186 3005 rc
gr

gs 1073 224 2658 2930 rc
  30   30 2980 2838 PO
gr

gs 639 277 3186 3005 rc
gr

gs 1073 224 2658 2930 rc
c8
  30   30 1666 2172 PO
gr

c8
gs 639 277 3186 3005 rc
gr

gs 1073 224 2658 2930 rc
c12
  30   30 3030 2857 PO
gr

c12
gs 639 277 3186 3005 rc
gr

gs 1073 224 2658 2930 rc
c28
  30   30 2335 2461 PO
gr

c28
gs 639 277 3186 3005 rc
gr

gs 1073 224 2658 2930 rc
c15
  30   30 2678 2631 PO
gr

c15
gs 639 277 3186 3005 rc
gr

gs 1073 224 2658 2930 rc
c22
  30   30 2493 2487 PO
gr

c22
gs 639 277 3186 3005 rc
gr

gs 1073 224 2658 2930 rc
c19
  30   30 1476 1858 PO
gr

c19
gs 639 277 3186 3005 rc
gr

gs 1073 224 2658 2930 rc
c8
  30   30 1868 2366 PO
gr

c8
gs 639 277 3186 3005 rc
gr

gs 1073 224 2658 2930 rc
c10
  30   30 3606 3078 PO
gr

c10
gs 639 277 3186 3005 rc
gr

gs 1073 224 2658 2930 rc
c12
  30   30 2855 2733 PO
gr

c12
gs 639 277 3186 3005 rc
gr

gs 1073 224 2658 2930 rc
c32
  30   30 2880 2764 PO
gr

c32
gs 639 277 3186 3005 rc
gr

gs 1073 224 2658 2930 rc
c12
  30   30 2592 2580 PO
gr

c12
gs 639 277 3186 3005 rc
gr

gs 1073 224 2658 2930 rc
c18
  30   30 2562 2556 PO
gr

c18
gs 639 277 3186 3005 rc
gr

gs 1073 224 2658 2930 rc
c15
  30   30 2744 2678 PO
gr

c15
gs 639 277 3186 3005 rc
gr

gs 1073 224 2658 2930 rc
  30   30 2530 2516 PO
gr

gs 639 277 3186 3005 rc
gr

gs 1073 224 2658 2930 rc
  30   30 2679 2645 PO
gr

gs 639 277 3186 3005 rc
gr

gs 1073 224 2658 2930 rc
c20
  30   30 2934 2803 PO
gr

c20
gs 639 277 3186 3005 rc
gr

gs 1073 224 2658 2930 rc
c29
  30   30 1535 1978 PO
gr

c29
gs 639 277 3186 3005 rc
gr

gs 1073 224 2658 2930 rc
c13
  30   30 1593 2049 PO
gr

c13
gs 639 277 3186 3005 rc
gr

gs 1073 224 2658 2930 rc
c12
  30   30 3044 2881 PO
gr

c12
gs 639 277 3186 3005 rc
gr

gs 1073 224 2658 2930 rc
  30   30 2980 2838 PO
gr

gs 639 277 3186 3005 rc
gr

gs 1073 224 2658 2930 rc
c10
  30   30 3582 3057 PO
gr

c10
gs 639 277 3186 3005 rc
gr

gs 1073 224 2658 2930 rc
c12
  30   30 3011 2854 PO
gr

c12
gs 639 277 3186 3005 rc
gr

gs 1073 224 2658 2930 rc
/c33 { 0.875000 1.000000 0.125000 sr} bdef
c33
  30   30 3614 3082 PO
gr

c33
gs 639 277 3186 3005 rc
gr

gs 1073 224 2658 2930 rc
c9
  30   30 2202 2408 PO
gr

c9
gs 639 277 3186 3005 rc
gr

gs 1073 224 2658 2930 rc
c14
  30   30 3548 3052 PO
gr

c14
gs 639 277 3186 3005 rc
gr

gs 1073 224 2658 2930 rc
c10
  30   30 3641 3083 PO
gr

c10
gs 639 277 3186 3005 rc
gr

gs 1073 224 2658 2930 rc
/c34 { 0.562500 1.000000 0.437500 sr} bdef
c34
  30   30 2981 2842 PO
gr

c34
gs 639 277 3186 3005 rc
gr

gs 1073 224 2658 2930 rc
c15
  30   30 2517 2498 PO
gr

c15
gs 639 277 3186 3005 rc
gr

gs 1073 224 2658 2930 rc
c9
  30   30 2229 2428 PO
gr

c9
gs 639 277 3186 3005 rc
gr

gs 1073 224 2658 2930 rc
c32
  30   30 2880 2764 PO
gr

c32
gs 639 277 3186 3005 rc
gr

gs 1073 224 2658 2930 rc
c13
  30   30 1558 2027 PO
gr

c13
gs 639 277 3186 3005 rc
gr

gs 1073 224 2658 2930 rc
c12
  30   30 2879 2755 PO
gr

c12
gs 639 277 3186 3005 rc
gr

gs 1073 224 2658 2930 rc
c15
  30   30 2713 2661 PO
gr

c15
gs 639 277 3186 3005 rc
gr

gs 1073 224 2658 2930 rc
c23
  30   30 1510 1960 PO
gr

c23
gs 639 277 3186 3005 rc
gr

gs 1073 224 2658 2930 rc
c12
  30   30 2959 2809 PO
gr

c12
gs 639 277 3186 3005 rc
gr

gs 1073 224 2658 2930 rc
c18
  30   30 3276 2914 PO
gr

c18
gs 639 277 3186 3005 rc
gr

gs 1073 224 2658 2930 rc
c15
  30   30 2580 2563 PO
gr

c15
gs 639 277 3186 3005 rc
gr

gs 1073 224 2658 2930 rc
c32
  30   30 2902 2791 PO
gr

c32
gs 639 277 3186 3005 rc
gr

gs 1073 224 2658 2930 rc
c22
  30   30 2603 2591 PO
gr

c22
gs 639 277 3186 3005 rc
gr

gs 1073 224 2658 2930 rc
c32
  30   30 2828 2716 PO
gr

c32
gs 639 277 3186 3005 rc
gr

gs 1073 224 2658 2930 rc
c12
  30   30 2934 2803 PO
gr

c12
gs 639 277 3186 3005 rc
gr

gs 1073 224 2658 2930 rc
c9
  30   30 1508 1927 PO
gr

c9
gs 639 277 3186 3005 rc
gr

gs 1073 224 2658 2930 rc
c23
  30   30 1502 1892 PO
gr

c23
gs 639 277 3186 3005 rc
gr

gs 1073 224 2658 2930 rc
c10
  30   30 3641 3083 PO
gr

c10
gs 639 277 3186 3005 rc
gr

gs 1073 224 2658 2930 rc
c8
  30   30 1895 2383 PO
gr

c8
gs 639 277 3186 3005 rc
gr

gs 1073 224 2658 2930 rc
c15
  30   30 2686 2653 PO
gr

c15
gs 639 277 3186 3005 rc
gr

gs 1073 224 2658 2930 rc
  30   30 2626 2591 PO
gr

gs 639 277 3186 3005 rc
gr

gs 1073 224 2658 2930 rc
c12
  30   30 2850 2717 PO
gr

c12
gs 639 277 3186 3005 rc
gr

gs 1073 224 2658 2930 rc
c20
  30   30 3088 2895 PO
gr

c20
gs 639 277 3186 3005 rc
gr

gs 1073 224 2658 2930 rc
c12
  30   30 3009 2843 PO
gr

c12
gs 639 277 3186 3005 rc
gr

gs 1073 224 2658 2930 rc
c13
  30   30 1871 2381 PO
gr

c13
gs 639 277 3186 3005 rc
gr

gs 1073 224 2658 2930 rc
/c35 { 1.000000 0.875000 0.000000 sr} bdef
c35
  30   30 2855 2733 PO
gr

c35
gs 639 277 3186 3005 rc
gr

gs 1073 224 2658 2930 rc
c20
  30   30 3125 2899 PO
gr

c20
gs 639 277 3186 3005 rc
gr

gs 1073 224 2658 2930 rc
c14
  30   30 3584 3075 PO
gr

c14
gs 639 277 3186 3005 rc
gr

gs 1073 224 2658 2930 rc
c8
  30   30 1623 2122 PO
gr

c8
gs 639 277 3186 3005 rc
gr

gs 1073 224 2658 2930 rc
c35
  30   30 3414 3000 PO
gr

c35
gs 639 277 3186 3005 rc
gr

gs 1073 224 2658 2930 rc
c17
  30   30 2207 2428 PO
gr

c17
gs 639 277 3186 3005 rc
gr

gs 1073 224 2658 2930 rc
c12
  30   30 3056 2890 PO
gr

c12
gs 639 277 3186 3005 rc
gr

gs 1073 224 2658 2930 rc
c23
  30   30 1502 1892 PO
gr

c23
gs 639 277 3186 3005 rc
gr

gs 1073 224 2658 2930 rc
c16
  30   30 3088 2895 PO
gr

c16
gs 639 277 3186 3005 rc
gr

gs 1073 224 2658 2930 rc
c17
  30   30 3443 3007 PO
gr

c17
gs 639 277 3186 3005 rc
gr

gs 1073 224 2658 2930 rc
c32
  30   30 2797 2698 PO
gr

c32
gs 639 277 3186 3005 rc
gr

gs 1073 224 2658 2930 rc
c14
  30   30 3499 3025 PO
gr

c14
gs 639 277 3186 3005 rc
gr

gs 1073 224 2658 2930 rc
c24
  30   30 1493 1860 PO
gr

c24
gs 639 277 3186 3005 rc
gr

gs 1073 224 2658 2930 rc
c11
  30   30 3324 2946 PO
gr

c11
gs 639 277 3186 3005 rc
gr

gs 1073 224 2658 2930 rc
/c36 { 1.000000 0.062500 0.000000 sr} bdef
c36
  30   30 2229 2428 PO
gr

c36
gs 639 277 3186 3005 rc
gr

gs 1073 224 2658 2930 rc
c17
  30   30 3460 3022 PO
gr

c17
gs 639 277 3186 3005 rc
gr

gs 1073 224 2658 2930 rc
c19
  30   30 1448 1833 PO
gr

c19
gs 639 277 3186 3005 rc
gr

gs 1073 224 2658 2930 rc
c28
  30   30 2281 2437 PO
gr

c28
gs 639 277 3186 3005 rc
gr

gs 1073 224 2658 2930 rc
  30   30 2325 2451 PO
gr

gs 639 277 3186 3005 rc
gr

gs 1073 224 2658 2930 rc
  30   30 1401 1717 PO
gr

gs 639 277 3186 3005 rc
gr

gs 1073 224 2658 2930 rc
c32
  30   30 2902 2791 PO
gr

c32
gs 639 277 3186 3005 rc
gr

gs 1073 224 2658 2930 rc
c18
  30   30 3285 2935 PO
gr

c18
gs 639 277 3186 3005 rc
gr

gs 1073 224 2658 2930 rc
c11
  30   30 2755 2696 PO
gr

c11
gs 639 277 3186 3005 rc
gr

gs 1073 224 2658 2930 rc
c9
  30   30 1375 1660 PO
gr

c9
gs 639 277 3186 3005 rc
gr

gs 1073 224 2658 2930 rc
c27
  30   30 2281 2437 PO
gr

c27
gs 639 277 3186 3005 rc
gr

gs 1073 224 2658 2930 rc
c8
  30   30 1895 2383 PO
gr

c8
gs 639 277 3186 3005 rc
gr

gs 1073 224 2658 2930 rc
c13
  30   30 1963 2395 PO
gr

c13
gs 639 277 3186 3005 rc
gr

gs 1073 224 2658 2930 rc
c19
  30   30 1401 1717 PO
gr

c19
gs 639 277 3186 3005 rc
gr

gs 1073 224 2658 2930 rc
c24
  30   30 1406 1771 PO
gr

c24
gs 639 277 3186 3005 rc
gr

gs 1073 224 2658 2930 rc
c19
  30   30 1448 1779 PO
gr

c19
gs 639 277 3186 3005 rc
gr

gs 1073 224 2658 2930 rc
c9
  30   30 1367 1540 PO
gr

c9
gs 639 277 3186 3005 rc
gr

gs 1073 224 2658 2930 rc
c18
  30   30 3246 2901 PO
gr

c18
gs 639 277 3186 3005 rc
gr

gs 1073 224 2658 2930 rc
c22
  30   30 1349 1436 PO
gr

c22
gs 639 277 3186 3005 rc
gr

gs 1073 224 2658 2930 rc
c20
  30   30 3125 2899 PO
gr

c20
gs 639 277 3186 3005 rc
gr

gs 1073 224 2658 2930 rc
c28
  30   30 1367 1540 PO
gr

c28
gs 639 277 3186 3005 rc
gr

gs 1073 224 2658 2930 rc
c9
  30   30 1375 1660 PO
gr

c9
gs 639 277 3186 3005 rc
gr

gs 1073 224 2658 2930 rc
c22
  30   30 2492 2486 PO
gr

c22
gs 639 277 3186 3005 rc
gr

gs 1073 224 2658 2930 rc
c36
  30   30 2340 2477 PO
gr

c36
gs 639 277 3186 3005 rc
gr

gs 1073 224 2658 2930 rc
c14
  30   30 1319  998 PO
gr

c14
gs 639 277 3186 3005 rc
gr

gs 1073 224 2658 2930 rc
c9
  30   30 2182 2398 PO
gr

c9
gs 639 277 3186 3005 rc
gr

gs 1073 224 2658 2930 rc
c13
  30   30 1963 2395 PO
gr

c13
gs 639 277 3186 3005 rc
gr

gs 1073 224 2658 2930 rc
c16
  30   30 1207  790 PO
gr

c16
gs 639 277 3186 3005 rc
gr

gs 1073 224 2658 2930 rc
c22
  30   30 1349 1436 PO
gr

c22
gs 639 277 3186 3005 rc
gr

gs 1073 224 2658 2930 rc
c14
  30   30 1319  998 PO
gr

c14
gs 639 277 3186 3005 rc
gr

gs 1073 224 2658 2930 rc
/c37 { 0.000000 0.750000 1.000000 sr} bdef
c37
  30   30 1207  790 PO
gr

c37
gs 639 277 3186 3005 rc
gr

gs 1073 224 2658 2930 rc
/c38 { 0.062500 1.000000 0.937500 sr} bdef
c38
  30   30 1134  285 PO
gr

c38
gs 639 277 3186 3005 rc
gr

gs 1073 224 2658 2930 rc
/c39 { 0.500000 1.000000 0.500000 sr} bdef
c39
  30   30 3669 3092 PO
gr

c39
gs 639 277 3186 3005 rc
gr

gs 1073 224 2658 2930 rc
c35
  30   30 3669 3092 PO
gr

c35
gs 639 277 3186 3005 rc
gr

gs 1073 224 2658 2930 rc
/c40 { 0.437500 1.000000 0.562500 sr} bdef
c40
  30   30 1134  285 PO
gr

c40
gs 639 277 3186 3005 rc
gr

0 sg
%%IncludeResource: font Helvetica
/Helvetica /ISOLatin1Encoding 120 FMSR

2097 3569 mt 
(Time) s
 286 1920 mt  -90 rotate
(Profit) s
90 rotate
1090  182 mt 
(kroA100_n495_bounded-strongly-corr_01) s
 622 3324 mt 
( ) s
3808  319 mt 
( ) s
%%IncludeResource: font Symbol
/Symbol /ISOLatin1Encoding 120 FMSR

1900 2425 mt 
(\254) s
%%IncludeResource: font Helvetica
/Helvetica /ISOLatin1Encoding 120 FMSR

2018 2425 mt 
( EMO \(24794\)) s
gs 639 277 3186 3005 rc
0 j
gs 1810 2320 123 123 rc
30 39 -30 39 -30 -39 30 -39 1871 2420 5 MP
c8
PP
gr

c8
gr

c8
0 sg
%%IncludeResource: font Symbol
/Symbol /ISOLatin1Encoding 120 FMSR

1775 2348 mt 
(\254) s
%%IncludeResource: font Helvetica
/Helvetica /ISOLatin1Encoding 120 FMSR

1893 2348 mt 
( S5 \(24794\)) s
gs 639 277 3186 3005 rc
0 j
gs 1590 2088 123 123 rc
0 -48 -48 0 0 48 48 0 1627 2125 5 MP
c8
PP
gr

c8
gr

c8
0 sg
%%IncludeResource: font Symbol
/Symbol /ISOLatin1Encoding 120 FMSR

1651 2192 mt 
(\254) s
%%IncludeResource: font Helvetica
/Helvetica /ISOLatin1Encoding 120 FMSR

1769 2192 mt 
( MA2B \(24612\)) s
1 sg
0 3005 241 0 0 -3005 4004 3282 4 MP
PP
-241 0 0 3005 241 0 0 -3005 4004 3282 5 MP stroke
gs 4004 277 242 3006 rc
/mwscm { [/Indexed /DeviceRGB 63
  <
    00008f 00009f 0000af 0000bf 0000cf 0000df 0000ef 0000ff 000fff 001fff 
    002fff 003fff 004fff 005fff 006fff 007fff 008fff 009fff 00afff 00bfff 
    00cfff 00dfff 00efff 00ffff 0fffef 1fffdf 2fffcf 3fffbf 4fffaf 5fff9f 
    6fff8f 7fff7f 8fff6f 9fff5f afff4f bfff3f cfff2f dfff1f efff0f ffff00 
    ffef00 ffdf00 ffcf00 ffbf00 ffaf00 ff9f00 ff8f00 ff7f00 ff6f00 ff5f00 
    ff4f00 ff3f00 ff2f00 ff1f00 ff0f00 ff0000 ef0000 df0000 cf0000 bf0000 
    af0000 9f0000 8f0000 7f0000 
  >
] setcolorspace } bdef mwscm
gs np 4004 277 mt 0 3005 rl 241 0 rl 0 -3005 rl cp c np
[241 0 0 3005 4004 277] cc
<< % Image dictionary
  /ImageType 1
  /Width 1 /Height 64
  /BitsPerComponent 8
  /Decode [0 255]
  /ImageMatrix [1.000000 0 0 64.000000 0 0]
  /DataSource currentfile
  /ASCII85Decode filter
  /RunLengthDecode filter
>>
image
5<h=p4?GSa3&``Q1c$mA0J>%1/1W2!-mp>f,U4KV+<MXF*#fe6(`*r&'GD)k&.]6[$k!CK#R:P;"9S]+
!.Y
~>
gr
gr

0 sg
4586 2067 mt  -90 rotate
(TTP Score) s
90 rotate
4 w
DO
SO
6 w
4004 3282 mt 4245 3282 L
4004  277 mt 4245  277 L
4004 3282 mt 4004  277 L
4245 3282 mt 4245  277 L
4004 3282 mt 4245 3282 L
4245 3282 mt 4245  277 L
4245 3008 mt 4214 3008 L
4004 3008 mt 4034 3008 L
4279 3052 mt 
(1) s
4245 2638 mt 4214 2638 L
4004 2638 mt 4034 2638 L
4279 2682 mt 
(1.2) s
4245 2269 mt 4214 2269 L
4004 2269 mt 4034 2269 L
4279 2313 mt 
(1.4) s
4245 1900 mt 4214 1900 L
4004 1900 mt 4034 1900 L
4279 1944 mt 
(1.6) s
4245 1531 mt 4214 1531 L
4004 1531 mt 4034 1531 L
4279 1575 mt 
(1.8) s
4245 1161 mt 4214 1161 L
4004 1161 mt 4034 1161 L
4279 1205 mt 
(2) s
4245  792 mt 4214  792 L
4004  792 mt 4034  792 L
4279  836 mt 
(2.2) s
4245  423 mt 4214  423 L
4004  423 mt 4034  423 L
4279  467 mt 
(2.4) s
4245  223 mt 
(x 10) s
%%IncludeResource: font Helvetica
/Helvetica /ISOLatin1Encoding 80 FMSR

4471  149 mt 
(4) s
4004 3282 mt 4245 3282 L
4004  277 mt 4245  277 L
4004 3282 mt 4004  277 L
4245 3282 mt 4245  277 L

end %%Color Dict

eplot
%%EndObject

epage
end

showpage

%%Trailer
%%EOF
