\relax 
\providecommand\hyper@newdestlabel[2]{}
\providecommand\HyperFirstAtBeginDocument{\AtBeginDocument}
\HyperFirstAtBeginDocument{\ifx\hyper@anchor\@undefined
\global\let\oldcontentsline\contentsline
\gdef\contentsline#1#2#3#4{\oldcontentsline{#1}{#2}{#3}}
\global\let\oldnewlabel\newlabel
\gdef\newlabel#1#2{\newlabelxx{#1}#2}
\gdef\newlabelxx#1#2#3#4#5#6{\oldnewlabel{#1}{{#2}{#3}}}
\AtEndDocument{\ifx\hyper@anchor\@undefined
\let\contentsline\oldcontentsline
\let\newlabel\oldnewlabel
\fi}
\fi}
\global\let\hyper@last\relax 
\gdef\HyperFirstAtBeginDocument#1{#1}
\providecommand\HyField@AuxAddToFields[1]{}
\providecommand\HyField@AuxAddToCoFields[2]{}
\citation{Polyakovskiy2014}
\citation{Polyakovskiy2014}
\citation{Polyakovskiy2014}
\citation{Polyakovskiy2014}
\citation{Polyakovskiy2014}
\@writefile{toc}{\contentsline {section}{Abstract}{1}{section*.2}}
\@writefile{toc}{\contentsline {section}{\numberline {1}Introduction}{1}{section.1}}
\@writefile{toc}{\contentsline {section}{\numberline {2}Background}{1}{section.2}}
\@writefile{toc}{\contentsline {subsection}{\numberline {2.1}Travelling Thief Problem}{1}{subsection.2.1}}
\@writefile{lof}{\contentsline {figure}{\numberline {1}{\ignorespaces Illustrative example for a TTP instance\nonbreakingspace \citep  {Polyakovskiy2014}.\relax }}{1}{figure.caption.5}}
\providecommand*\caption@xref[2]{\@setref\relax\@undefined{#1}}
\newlabel{fig:Example}{{1}{1}{Illustrative example for a TTP instance~\cite {Polyakovskiy2014}.\relax }{figure.caption.5}{}}
\@writefile{toc}{\contentsline {subsection}{\numberline {2.2}Current State-of-the-Art}{1}{subsection.2.2}}
\citation{ttp2014bonyadi}
\citation{Polyakovskiy2014}
\citation{Mei2014}
\citation{ttp2014bonyadi}
\citation{Mei2014}
\citation{Faulkner2015gecco}
\citation{wagner2016ants}
\citation{Wagner2016}
\citation{nsga2}
\citation{Chand2016}
\citation{Polyakovskiy2014}
\citation{Reinelt91}
\citation{Martello99}
\@writefile{toc}{\contentsline {section}{\numberline {3}Multi-Objective Formulation}{2}{section.3}}
\@writefile{toc}{\contentsline {section}{\numberline {4}Proposed Multi-Objective Algorithm}{2}{section.4}}
\@writefile{toc}{\contentsline {subsection}{\numberline {4.1}Overall Framework}{2}{subsection.4.1}}
\@writefile{toc}{\contentsline {subsection}{\numberline {4.2}Selection}{2}{subsection.4.2}}
\@writefile{toc}{\contentsline {subsection}{\numberline {4.3}Mutation Operators}{2}{subsection.4.3}}
\bibstyle{ACM-Reference-Format}
\bibdata{ttp}
\bibcite{ttp2014bonyadi}{{1}{2014}{{Bonyadi et~al\unhbox \voidb@x \hbox {.}}}{{Bonyadi, Michalewicz, Przybylek, and Wierzbicki}}}
\bibcite{Chand2016}{{2}{2016}{{Chand and Wagner}}{{Chand and Wagner}}}
\bibcite{nsga2}{{3}{2002}{{Deb et~al\unhbox \voidb@x \hbox {.}}}{{Deb, Pratap, Agarwal, and Meyarivan}}}
\bibcite{Faulkner2015gecco}{{4}{2015}{{Faulkner et~al\unhbox \voidb@x \hbox {.}}}{{Faulkner, Polyakovskiy, Schultz, and Wagner}}}
\bibcite{Martello99}{{5}{1999}{{Martello et~al\unhbox \voidb@x \hbox {.}}}{{Martello, Pisinger, and Toth}}}
\bibcite{Mei2014}{{6}{2014}{{Mei et~al\unhbox \voidb@x \hbox {.}}}{{Mei, Li, and Yao}}}
\bibcite{Polyakovskiy2014}{{7}{2014}{{Polyakovskiy et~al\unhbox \voidb@x \hbox {.}}}{{Polyakovskiy, Bonyadi, Wagner, Michalewicz, and Neumann}}}
\bibcite{Reinelt91}{{8}{1991}{{Reinelt}}{{Reinelt}}}
\bibcite{wagner2016ants}{{9}{2016}{{Wagner}}{{Wagner}}}
\bibcite{Wagner2016}{{10}{2016}{{Wagner et~al\unhbox \voidb@x \hbox {.}}}{{Wagner, Lindauer, Misir, Nallaperuma, and Hutter}}}
\newlabel{tocindent-1}{0pt}
\newlabel{tocindent0}{0pt}
\newlabel{tocindent1}{0pt}
\newlabel{tocindent2}{0pt}
\newlabel{tocindent3}{0pt}
\@writefile{toc}{\contentsline {section}{\numberline {5}Experiments \& Results}{3}{section.5}}
\@writefile{toc}{\contentsline {subsection}{\numberline {5.1}Experimental Setup}{3}{subsection.5.1}}
\@writefile{toc}{\contentsline {section}{References}{3}{section*.7}}
\newlabel{fn:code}{{1}{3}{}{Hfootnote.1}{}}
\newlabel{TotPages}{{3}{3}{}{page.3}{}}
